﻿<?xml version="1.0" encoding="utf-8"?>
<!DOCTYPE svg PUBLIC "-//W3C//DTD SVG 1.0//EN" "http://www.w3.org/TR/2001/REC-SVG-20010904/DTD/svg10.dtd"[
	<!ENTITY ns_flows "http://ns.adobe.com/Flows/1.0/">
	<!ENTITY ns_svg "http://www.w3.org/2000/svg">
	<!ENTITY ns_xlink "http://www.w3.org/1999/xlink">
	<!ENTITY st0 "font-size:7px;font-family:'MS-PGothic';adobe-font-script:japanese;">
	<!ENTITY st1 "font-size:6px;font-family:'ArialMT';">
	<!-- White fill  -->
	<!ENTITY st2 "fill:#FFFFFF;stroke:#000000; stroke-width:1.41;stroke-linecap:round;stroke-linejoin:round;">
	<!-- Yellow fill  -->
	<!ENTITY st3 "fill:#FFFFCC;stroke:#FFFFCC; stroke-width:0.1;stroke-linecap:round;stroke-linejoin:round;">
	<!-- Gray fill  -->
	<!ENTITY st4 "fill:#CCCCCC;stroke:#CCCCCC; stroke-width:0.1;stroke-linecap:round;stroke-linejoin:round;">
	<!-- Light-blue fill -->
	<!ENTITY st5 "fill:#CCECF4;stroke:#000000; stroke-width:1.133;stroke-linecap:round;stroke-linejoin:round;">
	<!ENTITY st6 "fill:none;stroke-linecap:butt; stroke-linejoin:round;">
	<!ENTITY st7 "fill:none;stroke:#000000;stroke-linecap:round;stroke-linejoin:round;">
	<!ENTITY st8 "enable-background:new    ;">
	<!-- Black fill -->
	<!ENTITY st9 "fill:#000000;stroke:#000000; stroke-linecap:round;stroke-linejoin:round;">
	<!-- SRS note   -->
	<!ENTITY st10 "font-size:9px;font-family:'ArialMT';">
	<!ENTITY st11 "font-size:9px;font-family:'Svg Symbol';">
	<!ENTITY st12 "font-size:6px;font-family:'Svg Symbol';">
	<!ENTITY st13 "fill:none;stroke:#ff0000;stroke-linecap:round;stroke-linejoin:round;">
	<!-- Yellow fill  -->
	<!ENTITY st14 "fill:#FFFF00;stroke:#FFFF00; stroke-width:0.1;stroke-linecap:round;stroke-linejoin:round;">
	<!ENTITY st15 "font-size:6px;font-family:'MS-PGothic';adobe-font-script:japanese;">
	<!ENTITY st16 "1.00 0.00 0.00 1.00">
	<!ENTITY st17 "0.00 -1.00 1.00 0.00">
	<!ENTITY st18 "font-size:6px;font-family:'Arial';">
	<!ENTITY st19 "font-size:9px;font-family:'Arial';">
	<!ENTITY st20 "font-size:6px;font-family:'MS-PGothic','MS PGothic';adobe-font-script:japanese;">
	<!ENTITY st21 "font-size:7px;font-family:'MS-PGothic','MS PGothic';adobe-font-script:japanese;">
	<!ATTLIST svg
		xmlns:ewd CDATA #FIXED "http://shcl.co.jp/ewd"
		xmlns:a CDATA #FIXED "http://ns.adobe.com/AdobeSVGViewerExtensions/3.0/"
		ewd:ver CDATA #IMPLIED
	>
	<!ATTLIST a
		ewd:lineID CDATA #IMPLIED
		ewd:groupID CDATA #IMPLIED
		ewd:figtype CDATA #IMPLIED
		ewd:code CDATA #IMPLIED
		ewd:figID CDATA #IMPLIED
		ewd:pinNo CDATA #IMPLIED
		ewd:comment CDATA #IMPLIED >
	<!ATTLIST g
		ewd:lineID CDATA #IMPLIED
		ewd:groupID CDATA #IMPLIED
		ewd:figtype CDATA #IMPLIED
		ewd:code CDATA #IMPLIED
		ewd:figID CDATA #IMPLIED
		ewd:pinNo CDATA #IMPLIED
		ewd:comment CDATA #IMPLIED >
	<!ATTLIST text
		ewd:textID CDATA #IMPLIED
		ewd:horAlign CDATA #IMPLIED >
	<!ATTLIST title
		ewd:textID CDATA #IMPLIED >
]>
<!-- Generator: Shintec Hozumi YS   -->
<svg onload="call_execInitLoadProc_svg('system')" style="overflow:visible;  enable-background:new 0 0 476.629 710.000" viewBox="0 0 484.424 710.000" height="710.000" width="484.424" xml:space="preserve" ewd:ver="2.1.2.10" xmlns="&ns_svg;" xmlns:ewd="http://shcl.co.jp/ewd" xmlns:a="http://ns.adobe.com/AdobeSVGViewerExtensions/3.0/" xmlns:xlink="&ns_xlink;">
	<script type="text/javascript" xlink:href="../../../../../system/js/ewd/fig/svgfig.js" xmlns:xlink="http://www.w3.org/1999/xlink" />
<g id="ewd_top">
	<a ewd:figtype="rb" style="cursor:pointer;" ewd:code="FUSE24" ewd:figID="1">
		<path style="fill:#CCECF4;stroke:#000000; stroke-width:0; stroke-linecap:round;stroke-linejoin:round; " d=" M    55.24,    35.78  L    55.24,    78.27  L    80.74,    78.27  L    80.74,    35.78  L    55.24,    35.78 "/>
	</a>
	<a ewd:figtype="rb" style="cursor:pointer;" ewd:code="FUSE39" ewd:figID="2">
		<path style="fill:#CCECF4;stroke:#000000; stroke-width:0; stroke-linecap:round;stroke-linejoin:round; " d=" M   114.73,    35.78  L   114.73,    78.27  L   140.23,    78.27  L   140.23,    35.78  L   114.73,    35.78 "/>
	</a>
	<a ewd:figtype="conn" style="cursor:pointer;" ewd:code="C15" ewd:figID="3">
		<path style="&st5;" d=" M   293.20,   180.26  L   293.20,   137.76  L   318.70,   137.76  L   318.70,   180.26  L   293.20,   180.26 "/>
		<title ewd:textID="5">Sensor de la temperatura del refrigerante del motor</title>
	</a>
	<a ewd:figtype="rb" style="cursor:pointer;" ewd:code="1" ewd:figID="4">
		<path style="fill:#CCECF4;stroke:#000000; stroke-width:0; stroke-linecap:round;stroke-linejoin:round; " d=" M   101.98,   307.73  L    59.49,   307.73  L    59.49,   341.73  L   101.98,   341.73  L   101.98,   307.73 "/>
	</a>
	<a ewd:figtype="conn" style="cursor:pointer;" ewd:code="C25" ewd:figID="5">
		<path style="&st5;" d=" M   382.44,   477.71  L   399.43,   477.71  L   399.43,   494.70  L   382.44,   494.70  L   382.44,   477.71 "/>
		<title ewd:textID="7">Conector de unión</title>
	</a>
	<a ewd:figtype="conn" style="cursor:pointer;" ewd:code="A6" ewd:figID="6">
		<path style="&st5;" d=" M    63.74,   461.85  L    63.74,   461.85  L    63.74,   457.88  L    72.24,   457.88  L    72.24,   461.85  C    73.59    462.63     74.57    463.60     75.35    464.95  L    75.35,   464.95  C    77.70    469.02     76.31    474.22     72.24    476.57  L    72.24,   476.57  L    72.24,   480.54  L    63.74,   480.54  L    63.74,   476.57  C    62.39    475.78     61.41    474.81     60.63    473.45  L    60.63,   473.45  C    58.28    469.39     59.68    464.19     63.74    461.84 "/>
		<title ewd:textID="6">Conjunto de ventilador con motor</title>
	</a>
	<a ewd:figtype="conn" style="cursor:pointer;" ewd:code="C10" ewd:figID="7">
		<path style="&st5;" d=" M   407.93,   409.72  L   407.93,   409.72  C   407.93    409.72    407.93    409.72    407.93    409.72  L   407.93,   409.72  C   407.93    405.02    411.74    401.22    416.43    401.22  L   416.43,   401.22  C   421.12    401.22    424.93    405.02    424.93    409.72  L   424.93,   409.72  L   424.93,   426.71  C   424.93    426.71    424.93    426.72    424.93    426.72  L   424.93,   426.72  C   424.93    431.41    421.12    435.21    416.43    435.21  L   416.43,   435.21  C   411.73    435.21    407.93    431.40    407.93    426.71  L   407.93,   426.71 "/>
		<title ewd:textID="4">Sensor de la posición del cigüeñal</title>
	</a>
	<a ewd:figtype="conn" style="cursor:pointer;" ewd:code="C24,E3" ewd:figID="8">
		<path style="&st5;" d=" M   288.95,   265.24  L   288.95,   307.73  L   475.92,   307.73  L   475.92,   265.24  L   288.95,   265.24 "/>
		<title>ECM</title>
	</a>
	<a ewd:figtype="rb" style="cursor:pointer;" ewd:code="1" ewd:figID="9">
		<path style="fill:#CCECF4;stroke:#000000; stroke-width:0; stroke-linecap:round;stroke-linejoin:round; " d=" M   237.96,   333.23  L   195.47,   333.23  L   195.47,   367.22  L   237.96,   367.22  L   237.96,   333.23 "/>
	</a>
	<a ewd:figtype="conn" style="cursor:pointer;" ewd:code="A12" ewd:figID="10">
		<path style="&st5;" d=" M    84.99,   588.19  L    84.99,   622.18  L   118.98,   622.18  L   118.98,   588.19  L    84.99,   588.19 "/>
		<title ewd:textID="3">Resistencia del ventilador</title>
	</a>
	<a ewd:figtype="fuse" style="cursor:pointer;" ewd:code="FUSE24" ewd:figID="23">
		<path style="&st7; stroke-width:0;" d=" M    55.24,    35.78  L    55.24,    78.27  L    80.74,    78.27  L    80.74,    35.78  L    55.24,    35.78 "/>
	</a>
	<a ewd:figtype="fuse" style="cursor:pointer;" ewd:code="FUSE39" ewd:figID="24">
		<path style="&st7; stroke-width:0;" d=" M   114.73,    35.78  L   114.73,    78.27  L   140.23,    78.27  L   140.23,    35.78  L   114.73,    35.78 "/>
	</a>
	<a ewd:comment="2" style="cursor:pointer;" ewd:lineID="1">
		<path style="stroke:#000000;stroke-width: 5.10 ;&st6;" d=" M    67.99,   480.54  L    67.99,   664.67  L    93.48,   664.67  L   101.98,   673.17  L   101.98,   681.67  "/>
		<path style="stroke:#FFFFFF;stroke-width: 4.53 ;&st6;" d=" M    67.99,   480.54  L    67.99,   664.67  L    93.48,   664.67  L   101.98,   673.17  L   101.98,   681.67  "/>
		<path style="stroke:#000000;stroke-width: 1.13 ;&st6;" d=" M    67.99,   480.54  L    67.99,   664.67  L    93.48,   664.67  L   101.98,   673.17  L   101.98,   681.67  "/>
	</a>
	<a ewd:comment="1" style="cursor:pointer;" ewd:lineID="2"> d=" M    67.99,   480.54  L    67.99,   494.70  L    76.49,   503.20  L   101.98,   503.20  L   101.98,   537.20 
	
		<path style="stroke:#000000;stroke-width: 5.10 ;&st6;" d=" M    67.99,   480.54  L    67.99,   494.70  L    76.49,   503.20  L   101.98,   503.20  L   101.98,   537.20  "/>
		<path style="stroke:#FFFFFF;stroke-width: 4.53 ;&st6;" d=" M    67.99,   480.54  L    67.99,   494.70  L    76.49,   503.20  L   101.98,   503.20  L   101.98,   537.20  "/>
	</a>
	<a style="cursor:pointer;" ewd:lineID="3">
		<path style="stroke:#F668B2;stroke-width: 5.10 ;&st6;" d=" M    67.99,   375.72  L    67.99,   457.88  "/>
	</a>
	<a style="cursor:pointer;" ewd:lineID="4">
		<path style="stroke:#00A0C6;stroke-width: 5.10 ;&st6;" d=" M    67.99,   112.27  L    67.99,   273.74  "/>
	</a>
	<a style="cursor:pointer;" ewd:lineID="5">
		<path style="stroke:#FF0000;stroke-width: 5.10 ;&st6;" d=" M    93.48,   375.72  L    93.48,   409.72  L   127.48,   409.72  L   127.48,   452.21  "/>
		<path style="stroke:#FFFFFF;stroke-width: 1.13 ;&st6;" d=" M    93.48,   375.72  L    93.48,   409.72  L   127.48,   409.72  L   127.48,   452.21  "/>
	</a>
	<a ewd:comment="1" style="cursor:pointer;" ewd:lineID="6">
		<path style="stroke:#000000;stroke-width: 5.10 ;&st6;" d=" M   101.98,   622.18  L   101.98,   681.67  "/>
		<path style="stroke:#FFFFFF;stroke-width: 4.53 ;&st6;" d=" M   101.98,   622.18  L   101.98,   681.67  "/>
		<path style="stroke:#000000;stroke-width: 1.13 ;&st6;" d=" M   101.98,   622.18  L   101.98,   681.67  "/>
	</a>
	<a ewd:comment="1" style="cursor:pointer;" ewd:lineID="7"> d=" M   101.98,   588.19  L   101.98,   554.19 
		
		<path style="stroke:#000000;stroke-width: 5.10 ;&st6;" d=" M   101.98,   588.19  L   101.98,   554.19  "/>
		<path style="stroke:#FFFFFF;stroke-width: 4.53 ;&st6;" d=" M   101.98,   588.19  L   101.98,   554.19  "/>
	</a>
	<a style="cursor:pointer;" ewd:lineID="8"> d=" M   127.48,   205.75  L   127.48,   239.75  L    93.48,   239.75  L    93.48,   273.74 
	
		<path style="stroke:#000000;stroke-width: 5.10 ;&st6;" d=" M   127.48,   205.75  L   127.48,   239.75  L    93.48,   239.75  L    93.48,   273.74  "/>
		<path style="stroke:#FFFFFF;stroke-width: 4.53 ;&st6;" d=" M   127.48,   205.75  L   127.48,   239.75  L    93.48,   239.75  L    93.48,   273.74  "/>
	</a>
	<a style="cursor:pointer;" ewd:lineID="9"> d=" M   127.48,   190.74  L   127.48,   163.26 
	
		<path style="stroke:#000000;stroke-width: 5.10 ;&st6;" d=" M   127.48,   190.74  L   127.48,   163.26  "/>
		<path style="stroke:#FFFFFF;stroke-width: 4.53 ;&st6;" d=" M   127.48,   190.74  L   127.48,   163.26  "/>
	</a>
	<a style="cursor:pointer;" ewd:lineID="10"> d=" M   127.48,   112.27  L   127.48,   146.26 
	
		<path style="stroke:#000000;stroke-width: 5.10 ;&st6;" d=" M   127.48,   112.27  L   127.48,   146.26  "/>
		<path style="stroke:#FFFFFF;stroke-width: 4.53 ;&st6;" d=" M   127.48,   112.27  L   127.48,   146.26  "/>
	</a>
	<a ewd:comment="1" style="cursor:pointer;" ewd:lineID="11"> d=" M   203.97,   401.22  L   203.97,   545.69  L   110.48,   545.69 
	
		<path style="stroke:#000000;stroke-width: 5.10 ;&st6;" d=" M   203.97,   401.22  L   203.97,   545.69  L   110.48,   545.69  "/>
		<path style="stroke:#FFFFFF;stroke-width: 4.53 ;&st6;" d=" M   203.97,   401.22  L   203.97,   545.69  L   110.48,   545.69  "/>
	</a>
	<a ewd:comment="1" style="cursor:pointer;" ewd:lineID="12">
		<path style="stroke:#000000;stroke-width: 5.10 ;&st6;" d=" M   203.97,   299.24  L   203.97,   282.24  L   178.47,   282.24  L   178.47,   664.67  L   110.48,   664.67  L   101.98,   673.17  L   101.98,   681.67  "/>
		<path style="stroke:#FFFFFF;stroke-width: 4.53 ;&st6;" d=" M   203.97,   299.24  L   203.97,   282.24  L   178.47,   282.24  L   178.47,   664.67  L   110.48,   664.67  L   101.98,   673.17  L   101.98,   681.67  "/>
		<path style="stroke:#000000;stroke-width: 1.13 ;&st6;" d=" M   203.97,   299.24  L   203.97,   282.24  L   178.47,   282.24  L   178.47,   664.67  L   110.48,   664.67  L   101.98,   673.17  L   101.98,   681.67  "/>
	</a>
	<a ewd:comment="1" style="cursor:pointer;" ewd:lineID="13">
		<path style="stroke:#FF0000;stroke-width: 5.10 ;&st6;" d=" M   229.46,   401.22  L   229.46,   435.21  L   305.95,   435.21  L   305.95,   409.72  "/>
	</a>
	<a ewd:comment="1" style="cursor:pointer;" ewd:lineID="14"> d=" M   229.46,   299.24  L   229.46,   256.74  L   101.98,   256.74  L    93.48,   265.24  L    93.48,   273.74 
		
		<path style="stroke:#000000;stroke-width: 5.10 ;&st6;" d=" M   229.46,   299.24  L   229.46,   256.74  L   101.98,   256.74  L    93.48,   265.24  L    93.48,   273.74  "/>
		<path style="stroke:#FFFFFF;stroke-width: 4.53 ;&st6;" d=" M   229.46,   299.24  L   229.46,   256.74  L   101.98,   256.74  L    93.48,   265.24  L    93.48,   273.74  "/>
	</a>
	<a ewd:comment="1" style="cursor:pointer;" ewd:lineID="15">
		<path style="stroke:#FF0000;stroke-width: 5.10 ;&st6;" d=" M   305.95,   316.80  L   305.95,   394.99  "/>
	</a>
	<a style="cursor:pointer;" ewd:lineID="16">
		<path style="stroke:#000000;stroke-width: 5.10 ;&st6;" d=" M   305.95,   180.26  L   305.95,   256.18  "/>
		<path style="stroke:#FFFFFF;stroke-width: 1.13 ;&st6;" d=" M   305.95,   180.26  L   305.95,   256.18  "/>
	</a>
	<a style="cursor:pointer;" ewd:lineID="17">
		<path style="stroke:#992903;stroke-width: 5.10 ;&st6;" d=" M   305.95,   137.76  L   305.95,   112.27  L   348.44,   112.27  L   348.44,   188.75  "/>
	</a>
	<a style="cursor:pointer;" ewd:lineID="18">
		<path style="stroke:#FF0000;stroke-width: 5.10 ;&st6;" d=" M   339.94,   316.80  L   339.94,   520.20  L   127.48,   520.20  L   127.48,   467.22  "/>
		<path style="stroke:#FFFFFF;stroke-width: 1.13 ;&st6;" d=" M   339.94,   316.80  L   339.94,   520.20  L   127.48,   520.20  L   127.48,   467.22  "/>
	</a>
	<a style="cursor:pointer;" ewd:lineID="19">
		<path style="stroke:#992903;stroke-width: 5.10 ;&st6;" d=" M   348.44,   256.18  L   348.44,   205.75  "/>
	</a>
	<a style="cursor:pointer;" ewd:lineID="20">
		<path style="stroke:#992903;stroke-width: 5.10 ;&st6;" d=" M   390.93,   494.70  L   390.93,   681.67  "/>
	</a>
	<a style="cursor:pointer;" ewd:lineID="21"> d=" M   416.43,   316.80  L   416.43,   401.22 
	
		<path style="stroke:#000000;stroke-width: 5.10 ;&st6;" d=" M   416.43,   316.80  L   416.43,   401.22  "/>
		<path style="stroke:#FFFFFF;stroke-width: 4.53 ;&st6;" d=" M   416.43,   316.80  L   416.43,   401.22  "/>
	</a>
	<a style="cursor:pointer;" ewd:lineID="22">
		<path style="stroke:#000000;stroke-width: 5.10 ;&st6;" d=" M   458.92,   316.80  L   458.92,   460.71  L   416.43,   460.71  L   416.43,   435.21  "/>
	</a>
	<a style="cursor:pointer;" ewd:lineID="23">
		<path style="stroke:#000000;stroke-width: 0.85;stroke-dasharray:3, 1.5;&st6;" d=" M   390.93,   477.71  L   390.93,   367.22  "/>
	</a>
	<g ewd:figtype="rb" ewd:figID="1" ewd:code="FUSE24">
		<path style="stroke-width: 1.42 ;&st7;  " d=" M    70.11,   103.77  L    65.86,   103.77  "/>
		<path style="stroke-width: 1.42 ;&st7;  " d=" M    70.11,   112.27  L    65.86,   112.27  "/>
		<path style="stroke-width: 1.42 ;&st7;   " d=" M    65.86,   103.77  C    63.52    103.77     61.61    105.67     61.61    108.02  "/>
		<path style="stroke-width: 1.42 ;&st7;   " d=" M    61.61,   108.02  C    61.61    110.36     63.52    112.27     65.86    112.27  "/>
		<path style="stroke-width: 1.42 ;&st7;   " d=" M    70.11,   112.27  C    72.46    112.27     74.36    110.36     74.36    108.02  "/>
		<path style="stroke-width: 1.42 ;&st7;   " d=" M    74.36,   108.02  C    74.36    105.67     72.46    103.77     70.11    103.77  "/>
		<path style="stroke-width: 0.85 ;&st7;  " d=" M    67.99,    78.27  L    67.99,   103.77  "/>
		<path style="stroke-width: 0.28 ;&st9;  " d=" M    67.99,    98.87  L    65.16,    96.04  L    65.16,   100.29  L    67.99,   103.12  L    70.82,   100.29  L    70.82,    96.04  L    67.99,    98.87  "/>
		<text style="&st18;" transform="matrix(&st16;  66.19  109.99 )">1</text>
		<text style="&st18;" transform="matrix(&st16;  61.8  86.47 )">2</text>
		<text style="&st18;" transform="matrix(&st16;  84.41  56.17 )">30A <tspan x="0 " dy="6.0">RAD</tspan></text>
		<text style="&st18;" transform="matrix(&st16;  59.95  32.08 )">(BAT)</text>
		<path style="stroke-width: 0.85 ;&st7;  " d=" M    67.99,    69.77  L    67.99,    78.27  "/>
		<path style="stroke-width: 1.42 ;&st7;   " d=" M    67.99,    47.11  C    65.25     48.72     64.34     52.25     65.95     54.99  "/>
		<path style="stroke-width: 1.42 ;&st7;   " d=" M    65.95,    54.99  C    66.47     55.87     67.11     56.51     67.99     57.03  "/>
		<path style="stroke-width: 1.42 ;&st7;   " d=" M    67.99,    66.94  C    70.73     65.33     71.64     61.80     70.03     59.06  "/>
		<path style="stroke-width: 1.42 ;&st7;   " d=" M    70.03,    59.06  C    69.51     58.18     68.87     57.55     67.99     57.03  "/>
		<path style="stroke-width: 0.85 ;&st7;   " d=" M    69.41,    68.36  C    69.41     67.57     68.77     66.94     67.99     66.94  "/>
		<path style="stroke-width: 0.85 ;&st7;   " d=" M    67.99,    66.94  C    67.21     66.94     66.57     67.57     66.57     68.36  "/>
		<path style="stroke-width: 0.85 ;&st7;   " d=" M    66.57,    68.36  C    66.57     69.14     67.21     69.77     67.99     69.77  "/>
		<path style="stroke-width: 0.85 ;&st7;   " d=" M    67.99,    69.77  C    68.77     69.77     69.41     69.14     69.41     68.36  "/>
		<path style="stroke-width: 0.85 ;&st7;   " d=" M    69.41,    45.69  C    69.41     44.91     68.77     44.28     67.99     44.28  "/>
		<path style="stroke-width: 0.85 ;&st7;   " d=" M    67.99,    44.28  C    67.21     44.28     66.57     44.91     66.57     45.69  "/>
		<path style="stroke-width: 0.85 ;&st7;   " d=" M    66.57,    45.69  C    66.57     46.48     67.21     47.11     67.99     47.11  "/>
		<path style="stroke-width: 0.85 ;&st7;   " d=" M    67.99,    47.11  C    68.77     47.11     69.41     46.48     69.41     45.69  "/>
		<path style="stroke-width: 1.42 ;&st7;  " d=" M    55.24,    35.78  L    55.24,    78.27  L    80.74,    78.27  L    80.74,    35.78  L    55.24,    35.78  "/>
	</g>
	<g ewd:figtype="rb" ewd:figID="2" ewd:code="FUSE39">
		<path style="stroke-width: 1.42 ;&st7;  " d=" M   129.60,   103.77  L   125.35,   103.77  "/>
		<path style="stroke-width: 1.42 ;&st7;  " d=" M   129.60,   112.27  L   125.35,   112.27  "/>
		<path style="stroke-width: 1.42 ;&st7;   " d=" M   125.35,   103.77  C   123.01    103.77    121.10    105.67    121.10    108.02  "/>
		<path style="stroke-width: 1.42 ;&st7;   " d=" M   121.10,   108.02  C   121.10    110.36    123.01    112.27    125.35    112.27  "/>
		<path style="stroke-width: 1.42 ;&st7;   " d=" M   129.60,   112.27  C   131.95    112.27    133.85    110.36    133.85    108.02  "/>
		<path style="stroke-width: 1.42 ;&st7;   " d=" M   133.85,   108.02  C   133.85    105.67    131.95    103.77    129.60    103.77  "/>
		<path style="stroke-width: 0.85 ;&st7;  " d=" M   127.48,    78.27  L   127.48,   103.77  "/>
		<path style="stroke-width: 0.28 ;&st9;  " d=" M   127.48,    98.87  L   124.65,    96.04  L   124.65,   100.29  L   127.48,   103.12  L   130.31,   100.29  L   130.31,    96.04  L   127.48,    98.87  "/>
		<text style="&st18;" transform="matrix(&st16;  125.68  109.99 )">2</text>
		<text style="&st18;" transform="matrix(&st16;  121.29  86.47 )">2</text>
		<text style="&st18;" transform="matrix(&st16;  143.9  56.17 )">10A <tspan x="0 " dy="6.0">E/G</tspan></text>
		<text style="&st18;" transform="matrix(&st16;  122.27  32.08 )">(IG)</text>
		<path style="stroke-width: 0.85 ;&st7;  " d=" M   127.48,    69.77  L   127.48,    78.27  "/>
		<path style="stroke-width: 0.85 ;&st7;   " d=" M   128.90,    68.36  C   128.90     67.57    128.26     66.94    127.48     66.94  "/>
		<path style="stroke-width: 0.85 ;&st7;   " d=" M   127.48,    66.94  C   126.70     66.94    126.06     67.57    126.06     68.36  "/>
		<path style="stroke-width: 0.85 ;&st7;   " d=" M   126.06,    68.36  C   126.06     69.14    126.70     69.77    127.48     69.77  "/>
		<path style="stroke-width: 0.85 ;&st7;   " d=" M   127.48,    69.77  C   128.26     69.77    128.90     69.14    128.90     68.36  "/>
		<path style="stroke-width: 0.85 ;&st7;   " d=" M   128.90,    45.69  C   128.90     44.91    128.26     44.28    127.48     44.28  "/>
		<path style="stroke-width: 0.85 ;&st7;   " d=" M   127.48,    44.28  C   126.70     44.28    126.06     44.91    126.06     45.69  "/>
		<path style="stroke-width: 0.85 ;&st7;   " d=" M   126.06,    45.69  C   126.06     46.48    126.70     47.11    127.48     47.11  "/>
		<path style="stroke-width: 0.85 ;&st7;   " d=" M   127.48,    47.11  C   128.26     47.11    128.90     46.48    128.90     45.69  "/>
		<path style="stroke-width: 1.42 ;&st7;   " d=" M   127.48,    66.94  C   130.22     65.33    131.13     61.80    129.52     59.06  "/>
		<path style="stroke-width: 1.42 ;&st7;   " d=" M   129.52,    59.06  C   129.00     58.18    128.36     57.55    127.48     57.03  "/>
		<path style="stroke-width: 1.42 ;&st7;   " d=" M   127.48,    47.11  C   124.74     48.72    123.83     52.25    125.44     54.99  "/>
		<path style="stroke-width: 1.42 ;&st7;   " d=" M   125.44,    54.99  C   125.96     55.87    126.60     56.51    127.48     57.03  "/>
		<path style="stroke-width: 1.42 ;&st7;  " d=" M   114.73,    35.78  L   114.73,    78.27  L   140.23,    78.27  L   140.23,    35.78  L   114.73,    35.78  "/>
	</g>
	<g ewd:figtype="conn" ewd:figID="3" ewd:code="C15">
		<path style="stroke-width: 0.85 ;&st7;  " d=" M   305.95,   180.26  L   305.95,   167.51  "/>
		<path style="stroke-width: 0.85 ;&st7;  " d=" M   308.78,   163.26  L   303.12,   166.09  "/>
		<path style="stroke-width: 0.85 ;&st7;  " d=" M   303.12,   160.43  L   308.78,   163.26  "/>
		<path style="stroke-width: 0.85 ;&st7;  " d=" M   308.78,   157.59  L   303.12,   160.43  "/>
		<path style="stroke-width: 0.85 ;&st7;  " d=" M   303.12,   154.76  L   308.78,   157.59  "/>
		<path style="stroke-width: 0.85 ;&st7;  " d=" M   308.78,   151.93  L   303.12,   154.76  "/>
		<path style="stroke-width: 0.85 ;&st7;  " d=" M   305.95,   150.51  L   308.78,   151.93  "/>
		<path style="stroke-width: 0.85 ;&st7;  " d=" M   303.12,   166.09  L   305.95,   167.51  "/>
		<path style="stroke-width: 0.85 ;&st7;  " d=" M   305.95,   150.51  L   305.95,   137.76  "/>
		<path style="stroke-width: 0.85 ;&st7;  " d=" M   297.45,   150.51  L   297.45,   167.51  "/>
		<path style="stroke-width: 0.85 ;&st7;  " d=" M   314.45,   150.51  L   314.45,   167.51  "/>
		<path style="stroke-width: 0.85 ;&st7;   " d=" M   314.45,   150.51  C   314.45    145.82    310.64    142.01    305.95    142.01  "/>
		<path style="stroke-width: 0.85 ;&st7;   " d=" M   305.95,   142.01  C   301.26    142.01    297.45    145.82    297.45    150.51  "/>
		<path style="stroke-width: 0.85 ;&st7;   " d=" M   297.45,   167.51  C   297.45    172.20    301.26    176.01    305.95    176.01  "/>
		<path style="stroke-width: 0.85 ;&st7;   " d=" M   305.95,   176.01  C   310.64    176.01    314.45    172.20    314.45    167.51  "/>
		<path style="stroke-width: 1.42 ;&st7;  " d=" M   293.20,   180.26  L   293.20,   137.76  L   318.70,   137.76  L   318.70,   180.26  L   293.20,   180.26  "/>
		<text style="&st18;" transform="matrix(&st16;  299.76  188.45 )">1</text>
		<text style="&st18;" transform="matrix(&st16;  299.76  134.07 )">2</text>
		<g ewd:figtype="title">
			<text style="&st18;" transform="matrix(&st17; 283.56 183.16)" ewd:textID="5">Sensor de la temperatura<tspan x="0 " dy="6.0">del refrigerante del motor</tspan></text>
			<text style="&st18;" transform="matrix(&st17; 276.45 183.15)">C15</text>
		</g>
	</g>
	<g ewd:figtype="rb" ewd:figID="4" ewd:code="1">
		<path style="stroke-width: 1.42 ;&st7;  " d=" M    95.61,   273.74  L    91.36,   273.74  "/>
		<path style="stroke-width: 1.42 ;&st7;  " d=" M    70.11,   367.22  L    65.86,   367.22  "/>
		<path style="stroke-width: 1.42 ;&st7;  " d=" M    70.11,   375.72  L    65.86,   375.72  "/>
		<path style="stroke-width: 1.42 ;&st7;  " d=" M    70.11,   273.74  L    65.86,   273.74  "/>
		<path style="stroke-width: 1.42 ;&st7;  " d=" M    70.11,   282.24  L    65.86,   282.24  "/>
		<path style="stroke-width: 1.42 ;&st7;  " d=" M    95.61,   282.24  L    91.36,   282.24  "/>
		<path style="stroke-width: 1.42 ;&st7;  " d=" M    95.61,   375.72  L    91.36,   375.72  "/>
		<path style="stroke-width: 1.42 ;&st7;  " d=" M    95.61,   367.22  L    91.36,   367.22  "/>
		<path style="stroke-width: 1.42 ;&st7;   " d=" M    70.11,   375.72  C    72.46    375.72     74.36    373.82     74.36    371.47  "/>
		<path style="stroke-width: 1.42 ;&st7;   " d=" M    99.86,   277.99  C    99.86    275.64     97.96    273.74     95.61    273.74  "/>
		<path style="stroke-width: 1.42 ;&st7;   " d=" M    99.86,   371.47  C    99.86    369.13     97.96    367.22     95.61    367.22  "/>
		<path style="stroke-width: 1.42 ;&st7;   " d=" M    70.11,   282.24  C    72.46    282.24     74.36    280.34     74.36    277.99  "/>
		<path style="stroke-width: 1.42 ;&st7;   " d=" M    61.61,   277.99  C    61.61    280.34     63.52    282.24     65.86    282.24  "/>
		<path style="stroke-width: 1.42 ;&st7;   " d=" M    95.61,   282.24  C    97.96    282.24     99.86    280.34     99.86    277.99  "/>
		<path style="stroke-width: 1.42 ;&st7;   " d=" M    74.36,   277.99  C    74.36    275.64     72.46    273.74     70.11    273.74  "/>
		<path style="stroke-width: 1.42 ;&st7;   " d=" M    61.61,   371.47  C    61.61    373.82     63.52    375.72     65.86    375.72  "/>
		<path style="stroke-width: 1.42 ;&st7;   " d=" M    87.11,   277.99  C    87.11    280.34     89.01    282.24     91.36    282.24  "/>
		<path style="stroke-width: 1.42 ;&st7;   " d=" M    65.86,   367.22  C    63.52    367.22     61.61    369.13     61.61    371.47  "/>
		<path style="stroke-width: 1.42 ;&st7;   " d=" M    91.36,   273.74  C    89.01    273.74     87.11    275.64     87.11    277.99  "/>
		<path style="stroke-width: 1.42 ;&st7;   " d=" M    95.61,   375.72  C    97.96    375.72     99.86    373.82     99.86    371.47  "/>
		<path style="stroke-width: 1.42 ;&st7;   " d=" M    87.11,   371.47  C    87.11    373.82     89.01    375.72     91.36    375.72  "/>
		<path style="stroke-width: 1.42 ;&st7;   " d=" M    91.36,   367.22  C    89.01    367.22     87.11    369.13     87.11    371.47  "/>
		<path style="stroke-width: 1.42 ;&st7;   " d=" M    65.86,   273.74  C    63.52    273.74     61.61    275.64     61.61    277.99  "/>
		<path style="stroke-width: 1.42 ;&st7;   " d=" M    74.36,   371.47  C    74.36    369.13     72.46    367.22     70.11    367.22  "/>
		<path style="stroke-width: 0.85 ;&st7;  " d=" M    67.99,   341.73  L    67.99,   367.22  "/>
		<path style="stroke-width: 0.85 ;&st7;  " d=" M    93.48,   307.73  L    93.48,   282.24  "/>
		<path style="stroke-width: 0.85 ;&st7;  " d=" M    67.99,   307.73  L    67.99,   282.24  "/>
		<path style="stroke-width: 0.28 ;&st9;  " d=" M    93.48,   362.33  L    90.65,   359.50  L    90.65,   363.75  L    93.48,   366.58  L    96.32,   363.75  L    96.32,   359.50  L    93.48,   362.33  "/>
		<path style="stroke-width: 0.85 ;&st7;  " d=" M    93.48,   341.73  L    93.48,   367.22  "/>
		<path style="stroke-width: 0.28 ;&st9;  " d=" M    67.99,   287.13  L    70.82,   289.97  L    70.82,   285.72  L    67.99,   282.88  L    65.16,   285.72  L    65.16,   289.97  L    67.99,   287.13  "/>
		<path style="stroke-width: 0.28 ;&st9;  " d=" M    93.48,   287.13  L    96.32,   289.97  L    96.32,   285.72  L    93.48,   282.88  L    90.65,   285.72  L    90.65,   289.97  L    93.48,   287.13  "/>
		<path style="stroke-width: 0.28 ;&st9;  " d=" M    67.99,   362.33  L    65.16,   359.50  L    65.16,   363.75  L    67.99,   366.58  L    70.82,   363.75  L    70.82,   359.50  L    67.99,   362.33  "/>
		<text style="&st18;" transform="matrix(&st16;  87.3  349.92 )">1</text>
		<text style="&st18;" transform="matrix(&st16; 104.24 324.20)" ewd:textID="9">Relé de<tspan x="0 " dy="6.0">RAD</tspan></text>
		<text style="&st18;" transform="matrix(&st16;  66.19  373.44 )">1</text>
		<text style="&st18;" transform="matrix(&st16;  66.19  279.96 )">1</text>
		<text style="&st18;" transform="matrix(&st16;  61.8  349.92 )">5</text>
		<text style="&st18;" transform="matrix(&st16;  87.3  304.04 )">2</text>
		<text style="&st18;" transform="matrix(&st16;  91.68  279.96 )">1</text>
		<text style="&st18;" transform="matrix(&st16;  91.68  373.44 )">1</text>
		<text style="&st18;" transform="matrix(&st16;  61.8  304.04 )">3</text>
		<path style="stroke-width: 0.85 ;&st7;  " d=" M    93.48,   333.23  L    93.48,   341.73  "/>
		<path style="stroke-width: 0.85 ;&st7;  " d=" M    93.48,   307.73  L    93.48,   316.23  "/>
		<path style="stroke-width: 0.85 ;&st7;  " d=" M    67.99,   307.73  L    67.99,   311.98  "/>
		<path style="stroke-width: 0.85 ;&st7;  " d=" M    67.99,   337.48  L    67.99,   341.73  "/>
		<path style="stroke-width: 1.42 ;&st7;  " d=" M    67.99,   314.82  L    62.32,   337.48  "/>
		<path style="stroke-width: 0.85 ;&st7;   " d=" M    93.48,   333.23  C    95.44    333.23     97.03    331.64     97.03    329.69  "/>
		<path style="stroke-width: 0.85 ;&st7;   " d=" M    97.03,   329.69  C    97.03    327.73     95.44    326.15     93.48    326.15  "/>
		<path style="stroke-width: 0.85 ;&st7;   " d=" M    93.48,   326.15  C    92.49    326.15     91.65    326.50     90.96    327.21  "/>
		<path style="stroke-width: 0.85 ;&st7;   " d=" M    90.95,   327.21  C    92.32    328.61     94.57    328.63     95.96    327.26  "/>
		<path style="stroke-width: 0.85 ;&st7;   " d=" M    95.96,   327.26  C    97.36    325.89     97.38    323.65     96.01    322.25  "/>
		<path style="stroke-width: 0.85 ;&st7;   " d=" M    96.01,   322.25  C    94.65    320.86     92.40    320.83     91.01    322.20  "/>
		<path style="stroke-width: 0.85 ;&st7;   " d=" M    91.01,   322.20  C    90.99    322.22     90.97    322.23     90.95    322.25  "/>
		<path style="stroke-width: 0.85 ;&st7;   " d=" M    90.95,   322.25  C    92.32    323.65     94.57    323.67     95.96    322.30  "/>
		<path style="stroke-width: 0.85 ;&st7;   " d=" M    95.96,   322.30  C    97.36    320.93     97.38    318.69     96.01    317.29  "/>
		<path style="stroke-width: 0.85 ;&st7;   " d=" M    96.01,   317.29  C    95.32    316.59     94.48    316.23     93.48    316.23  "/>
		<path style="stroke-width: 0.85 ;&st7;   " d=" M    69.41,   313.40  C    69.41    312.62     68.77    311.98     67.99    311.98  "/>
		<path style="stroke-width: 0.85 ;&st7;   " d=" M    67.99,   311.98  C    67.21    311.98     66.57    312.62     66.57    313.40  "/>
		<path style="stroke-width: 0.85 ;&st7;   " d=" M    66.57,   313.40  C    66.57    314.18     67.21    314.82     67.99    314.82  "/>
		<path style="stroke-width: 0.85 ;&st7;   " d=" M    67.99,   314.82  C    68.77    314.82     69.41    314.18     69.41    313.40  "/>
		<path style="stroke-width: 0.85 ;&st7;   " d=" M    69.41,   336.06  C    69.41    335.28     68.77    334.65     67.99    334.65  "/>
		<path style="stroke-width: 0.85 ;&st7;   " d=" M    67.99,   334.65  C    67.21    334.65     66.57    335.28     66.57    336.06  "/>
		<path style="stroke-width: 0.85 ;&st7;   " d=" M    66.57,   336.06  C    66.57    336.84     67.21    337.48     67.99    337.48  "/>
		<path style="stroke-width: 0.85 ;&st7;   " d=" M    67.99,   337.48  C    68.77    337.48     69.41    336.84     69.41    336.06  "/>
		<path style="stroke-width: 1.42 ;&st7;  " d=" M   101.98,   307.73  L    59.49,   307.73  L    59.49,   341.73  L   101.98,   341.73  L   101.98,   307.73  "/>
	</g>
	<g ewd:figtype="conn" ewd:figID="5" ewd:code="C25">
		<path style="stroke-width: 1.42 ;&st7;  " d=" M   382.44,   477.71  L   399.43,   477.71  L   399.43,   494.70  L   382.44,   494.70  L   382.44,   477.71  "/>
		<path style="stroke-width: 0.85 ;&st7;  " d=" M   390.93,   477.71  L   390.93,   494.70  "/>
		<text style="&st18;" transform="matrix(&st16;  384.75  502.9 )">4</text>
		<text style="&st18;" transform="matrix(&st16;  384.75  474.02 )">9</text>
		<g ewd:figtype="title">
			<text style="&st18;" transform="matrix(&st16;  401.69  486.76 )" ewd:textID="7">Conector<tspan x="0 " dy="6.0">de unión</tspan></text>
			<text style="&st18;" transform="matrix(&st16;  401.69  479.65 )">C25</text>
		</g>
	</g>
	<g ewd:figtype="conn" ewd:figID="6" ewd:code="A6">
		<path style="stroke-width: 1.42 ;&st7;  " d=" M    63.74,   480.54  L    72.24,   480.54  "/>
		<path style="stroke-width: 1.42 ;&st7;  " d=" M    63.74,   476.57  L    63.74,   480.54  "/>
		<path style="stroke-width: 1.42 ;&st7;  " d=" M    72.24,   480.54  L    72.24,   476.57  "/>
		<path style="stroke-width: 1.42 ;&st7;  " d=" M    63.74,   457.88  L    72.24,   457.88  "/>
		<path style="stroke-width: 1.42 ;&st7;  " d=" M    63.74,   461.84  L    63.74,   457.88  "/>
		<path style="stroke-width: 1.42 ;&st7;  " d=" M    72.24,   457.88  L    72.24,   461.84  "/>
		<path style="stroke-width: 1.42 ;&st7;   " d=" M    59.49,   469.21  C    59.49    473.90     63.30    477.71     67.99    477.71  "/>
		<path style="stroke-width: 1.42 ;&st7;   " d=" M    67.99,   477.71  C    72.68    477.71     76.49    473.90     76.49    469.21  "/>
		<path style="stroke-width: 1.42 ;&st7;   " d=" M    76.49,   469.21  C    76.49    464.51     72.68    460.71     67.99    460.71  "/>
		<path style="stroke-width: 1.42 ;&st7;   " d=" M    67.99,   460.71  C    63.30    460.71     59.49    464.51     59.49    469.21  "/>
		<text style="&st18;" transform="matrix(&st16;  65.26  471.18 )">M</text>
		<text style="&st18;" transform="matrix(&st16;  61.8  488.73 )">1</text>
		<text style="&st18;" transform="matrix(&st16;  61.8  454.19 )">2</text>
		<g ewd:figtype="title">
			<text style="&st18;" transform="matrix(&st17; 42.69 484.10)">A6</text>
			<text style="&st18;" transform="matrix(&st17; 49.79 484.11)" ewd:textID="6">Conjunto de<tspan x="0" dy="6" style="&st18;">ventilador con motor</tspan></text>
		</g>
	</g>
	<g ewd:figtype="conn" ewd:figID="7" ewd:code="C10">
		<path style="stroke-width: 1.42 ;&st7;  " d=" M   407.93,   409.72  L   407.93,   418.22  "/>
		<path style="stroke-width: 1.42 ;&st7;  " d=" M   424.93,   409.72  L   424.93,   418.22  "/>
		<path style="stroke-width: 1.42 ;&st7;  " d=" M   407.93,   426.71  L   407.93,   418.22  "/>
		<path style="stroke-width: 1.42 ;&st7;  " d=" M   424.93,   426.71  L   424.93,   418.22  "/>
		<path style="stroke-width: 0.85 ;&st7;  " d=" M   416.43,   401.22  L   416.43,   409.72  "/>
		<path style="stroke-width: 0.85 ;&st7;  " d=" M   416.43,   426.71  L   416.43,   435.21  "/>
		<path style="stroke-width: 1.42 ;&st7;   " d=" M   424.93,   409.72  C   424.93    405.02    421.12    401.22    416.43    401.22  "/>
		<path style="stroke-width: 1.42 ;&st7;   " d=" M   416.43,   401.22  C   411.74    401.22    407.93    405.02    407.93    409.72  "/>
		<path style="stroke-width: 1.42 ;&st7;   " d=" M   407.93,   426.71  C   407.93    431.41    411.74    435.21    416.43    435.21  "/>
		<path style="stroke-width: 1.42 ;&st7;   " d=" M   416.43,   435.21  C   421.12    435.21    424.93    431.41    424.93    426.71  "/>
		<path style="stroke-width: 0.85 ;&st7;   " d=" M   413.90,   415.74  C   415.27    417.13    417.51    417.16    418.91    415.79  "/>
		<path style="stroke-width: 0.85 ;&st7;   " d=" M   418.91,   415.79  C   420.31    414.42    420.33    412.18    418.96    410.78  "/>
		<path style="stroke-width: 0.85 ;&st7;   " d=" M   418.96,   410.78  C   418.27    410.07    417.42    409.72    416.43    409.72  "/>
		<path style="stroke-width: 0.85 ;&st7;   " d=" M   413.90,   420.69  C   415.27    422.09    417.51    422.11    418.91    420.75  "/>
		<path style="stroke-width: 0.85 ;&st7;   " d=" M   418.91,   420.75  C   420.31    419.38    420.33    417.13    418.96    415.74  "/>
		<path style="stroke-width: 0.85 ;&st7;   " d=" M   418.96,   415.74  C   417.59    414.34    415.35    414.32    413.95    415.69  "/>
		<path style="stroke-width: 0.85 ;&st7;   " d=" M   413.95,   415.69  C   413.93    415.70    413.92    415.72    413.90    415.74  "/>
		<path style="stroke-width: 0.85 ;&st7;   " d=" M   416.43,   426.71  C   418.39    426.71    419.97    425.13    419.97    423.17  "/>
		<path style="stroke-width: 0.85 ;&st7;   " d=" M   419.97,   423.17  C   419.97    421.22    418.39    419.63    416.43    419.63  "/>
		<path style="stroke-width: 0.85 ;&st7;   " d=" M   416.43,   419.63  C   415.44    419.63    414.59    419.99    413.90    420.69  "/>
		<text style="&st18;" transform="matrix(&st16;  410.25  397.53 )">1</text>
		<text style="&st18;" transform="matrix(&st16;  410.25  443.41 )">2</text>
		<g ewd:figtype="title">
			<text style="&st18;" transform="matrix(&st17;  439.65  438.12 )" ewd:textID="4">Sensor de la posición<tspan x="0 " dy="6.0">del cigüeñal</tspan></text>
			<text style="&st18;" transform="matrix(&st17;  432.54  438.11 )">C10</text>
		</g>
	</g>
	<g ewd:figtype="conn" ewd:figID="8" ewd:code="C24,E3">
		<g ewd:lineID="15">
			<text style="&st18;" transform="matrix(&st16;  297.28  314.24 )">5</text>
			<path style="stroke-width: 1.42 ;&st7;   " d=" M   310.48,   312.27  C   310.48    309.76    308.45    307.73    305.95    307.73  "/>
			<path style="stroke-width: 1.42 ;&st7;   " d=" M   305.95,   307.73  C   303.45    307.73    301.42    309.76    301.42    312.27  "/>
			<path style="stroke-width: 1.42 ;&st7;   " d=" M   301.42,   312.27  C   301.42    314.77    303.45    316.80    305.95    316.80  "/>
			<path style="stroke-width: 1.42 ;&st7;   " d=" M   305.95,   316.80  C   308.45    316.80    310.48    314.77    310.48    312.27  "/>
			<text style="&st18;" transform="matrix(&st16;  303.53  314.24 )">C</text>
			<text style="&st18;" transform="matrix(&st16;  298.18  304.04 )">FAN2</text>
		</g>
		<g ewd:lineID="16">
			<text style="&st18;" transform="matrix(&st16;  294.15  262.68 )">14</text>
			<path style="stroke-width: 1.42 ;&st7;   " d=" M   310.48,   260.71  C   310.48    258.21    308.45    256.18    305.95    256.18  "/>
			<path style="stroke-width: 1.42 ;&st7;   " d=" M   305.95,   256.18  C   303.45    256.18    301.42    258.21    301.42    260.71  "/>
			<path style="stroke-width: 1.42 ;&st7;   " d=" M   301.42,   260.71  C   301.42    263.21    303.45    265.24    305.95    265.24  "/>
			<path style="stroke-width: 1.42 ;&st7;   " d=" M   305.95,   265.24  C   308.45    265.24    310.48    263.21    310.48    260.71  "/>
			<text style="&st18;" transform="matrix(&st16;  303.76  262.68 )">B</text>
			<text style="&st18;" transform="matrix(&st16;  298.8  272.88 )">THW</text>
		</g>
		<g ewd:lineID="18">
			<text style="&st18;" transform="matrix(&st16;  328.18  314.24 )">16</text>
			<path style="stroke-width: 1.42 ;&st7;   " d=" M   344.48,   312.27  C   344.48    309.76    342.45    307.73    339.94    307.73  "/>
			<path style="stroke-width: 1.42 ;&st7;   " d=" M   339.94,   307.73  C   337.44    307.73    335.41    309.76    335.41    312.27  "/>
			<path style="stroke-width: 1.42 ;&st7;   " d=" M   335.41,   312.27  C   335.41    314.77    337.44    316.80    339.94    316.80  "/>
			<path style="stroke-width: 1.42 ;&st7;   " d=" M   339.94,   316.80  C   342.45    316.80    344.48    314.77    344.48    312.27  "/>
			<text style="&st18;" transform="matrix(&st16;  337.52  314.24 )">C</text>
			<text style="&st18;" transform="matrix(&st16;  333.72  304.04 )">FAN</text>
		</g>
		<g ewd:lineID="19">
			<text style="&st18;" transform="matrix(&st16;  336.65  262.68 )">33</text>
			<text style="&st18;" transform="matrix(&st16;  346.25  262.68 )">B</text>
			<path style="stroke-width: 1.42 ;&st7;   " d=" M   352.97,   260.71  C   352.97    258.21    350.95    256.18    348.44    256.18  "/>
			<path style="stroke-width: 1.42 ;&st7;   " d=" M   348.44,   256.18  C   345.94    256.18    343.91    258.21    343.91    260.71  "/>
			<path style="stroke-width: 1.42 ;&st7;   " d=" M   343.91,   260.71  C   343.91    263.21    345.94    265.24    348.44    265.24  "/>
			<path style="stroke-width: 1.42 ;&st7;   " d=" M   348.44,   265.24  C   350.95    265.24    352.97    263.21    352.97    260.71  "/>
			<text style="&st18;" transform="matrix(&st16;  344.78  272.88 )">E2</text>
		</g>
		<g ewd:lineID="21">
			<text style="&st18;" transform="matrix(&st16;  407.76  314.24 )">9</text>
			<path style="stroke-width: 1.42 ;&st7;   " d=" M   420.96,   312.27  C   420.96    309.76    418.93    307.73    416.43    307.73  "/>
			<path style="stroke-width: 1.42 ;&st7;   " d=" M   416.43,   307.73  C   413.93    307.73    411.90    309.76    411.90    312.27  "/>
			<path style="stroke-width: 1.42 ;&st7;   " d=" M   411.90,   312.27  C   411.90    314.77    413.93    316.80    416.43    316.80  "/>
			<path style="stroke-width: 1.42 ;&st7;   " d=" M   416.43,   316.80  C   418.93    316.80    420.96    314.77    420.96    312.27  "/>
			<text style="&st18;" transform="matrix(&st16;  414.24  314.24 )">B</text>
			<text style="&st18;" transform="matrix(&st16;  412.57  304.04 )">N+</text>
		</g>
		<g ewd:lineID="22">
			<text style="&st18;" transform="matrix(&st16;  447.16  314.24 )">29</text>
			<path style="stroke-width: 1.42 ;&st7;   " d=" M   463.46,   312.27  C   463.46    309.76    461.43    307.73    458.92    307.73  "/>
			<path style="stroke-width: 1.42 ;&st7;   " d=" M   458.92,   307.73  C   456.42    307.73    454.39    309.76    454.39    312.27  "/>
			<path style="stroke-width: 1.42 ;&st7;   " d=" M   454.39,   312.27  C   454.39    314.77    456.42    316.80    458.92    316.80  "/>
			<path style="stroke-width: 1.42 ;&st7;   " d=" M   458.92,   316.80  C   461.43    316.80    463.46    314.77    463.46    312.27  "/>
			<text style="&st18;" transform="matrix(&st16;  456.74  314.24 )">B</text>
			<text style="&st18;" transform="matrix(&st16;  455.07  304.04 )">N-</text>
		</g>
		<path style="stroke-width: 1.42 ;&st7;  " d=" M   288.95,   265.24  L   288.95,   307.73  L   475.92,   307.73  L   475.92,   265.24  L   288.95,   265.24  "/>
		<g ewd:figtype="title">
			<text style="&st18;" transform="matrix(&st16;  404.53  261.54 )">ECM</text>
			<text style="&st18;" transform="matrix(&st16;  404.52  254.44 )">C24(B),E3(C)</text>
		</g>
	</g>
	<g ewd:figtype="rb" ewd:figID="9" ewd:code="1">
		<path style="stroke-width: 1.42 ;&st7;  " d=" M   231.59,   299.24  L   227.34,   299.24  "/>
		<path style="stroke-width: 1.42 ;&st7;  " d=" M   206.09,   392.72  L   201.84,   392.72  "/>
		<path style="stroke-width: 1.42 ;&st7;  " d=" M   206.09,   401.22  L   201.84,   401.22  "/>
		<path style="stroke-width: 1.42 ;&st7;  " d=" M   206.09,   299.24  L   201.84,   299.24  "/>
		<path style="stroke-width: 1.42 ;&st7;  " d=" M   206.09,   307.73  L   201.84,   307.73  "/>
		<path style="stroke-width: 1.42 ;&st7;  " d=" M   231.59,   307.73  L   227.34,   307.73  "/>
		<path style="stroke-width: 1.42 ;&st7;  " d=" M   231.59,   401.22  L   227.34,   401.22  "/>
		<path style="stroke-width: 1.42 ;&st7;  " d=" M   231.59,   392.72  L   227.34,   392.72  "/>
		<path style="stroke-width: 1.42 ;&st7;   " d=" M   206.09,   401.22  C   208.44    401.22    210.34    399.32    210.34    396.97  "/>
		<path style="stroke-width: 1.42 ;&st7;   " d=" M   235.84,   303.48  C   235.84    301.14    233.93    299.24    231.59    299.24  "/>
		<path style="stroke-width: 1.42 ;&st7;   " d=" M   235.84,   396.97  C   235.84    394.62    233.93    392.72    231.59    392.72  "/>
		<path style="stroke-width: 1.42 ;&st7;   " d=" M   206.09,   307.73  C   208.44    307.73    210.34    305.83    210.34    303.48  "/>
		<path style="stroke-width: 1.42 ;&st7;   " d=" M   197.59,   303.48  C   197.59    305.83    199.49    307.73    201.84    307.73  "/>
		<path style="stroke-width: 1.42 ;&st7;   " d=" M   231.59,   307.73  C   233.93    307.73    235.84    305.83    235.84    303.48  "/>
		<path style="stroke-width: 1.42 ;&st7;   " d=" M   210.34,   303.48  C   210.34    301.14    208.44    299.24    206.09    299.24  "/>
		<path style="stroke-width: 1.42 ;&st7;   " d=" M   197.59,   396.97  C   197.59    399.32    199.49    401.22    201.84    401.22  "/>
		<path style="stroke-width: 1.42 ;&st7;   " d=" M   223.09,   303.48  C   223.09    305.83    224.99    307.73    227.34    307.73  "/>
		<path style="stroke-width: 1.42 ;&st7;   " d=" M   201.84,   392.72  C   199.49    392.72    197.59    394.62    197.59    396.97  "/>
		<path style="stroke-width: 1.42 ;&st7;   " d=" M   227.34,   299.24  C   224.99    299.24    223.09    301.14    223.09    303.48  "/>
		<path style="stroke-width: 1.42 ;&st7;   " d=" M   231.59,   401.22  C   233.93    401.22    235.84    399.32    235.84    396.97  "/>
		<path style="stroke-width: 1.42 ;&st7;   " d=" M   223.09,   396.97  C   223.09    399.32    224.99    401.22    227.34    401.22  "/>
		<path style="stroke-width: 1.42 ;&st7;   " d=" M   227.34,   392.72  C   224.99    392.72    223.09    394.62    223.09    396.97  "/>
		<path style="stroke-width: 1.42 ;&st7;   " d=" M   201.84,   299.24  C   199.49    299.24    197.59    301.14    197.59    303.48  "/>
		<path style="stroke-width: 1.42 ;&st7;   " d=" M   210.34,   396.97  C   210.34    394.62    208.44    392.72    206.09    392.72  "/>
		<path style="stroke-width: 0.85 ;&st7;  " d=" M   203.97,   367.22  L   203.97,   392.72  "/>
		<path style="stroke-width: 0.85 ;&st7;  " d=" M   229.46,   333.23  L   229.46,   307.73  "/>
		<path style="stroke-width: 0.85 ;&st7;  " d=" M   203.97,   333.23  L   203.97,   307.73  "/>
		<path style="stroke-width: 0.28 ;&st9;  " d=" M   229.46,   387.82  L   226.63,   384.99  L   226.63,   389.24  L   229.46,   392.07  L   232.29,   389.24  L   232.29,   384.99  L   229.46,   387.82  "/>
		<path style="stroke-width: 0.85 ;&st7;  " d=" M   229.46,   367.22  L   229.46,   392.72  "/>
		<path style="stroke-width: 0.28 ;&st9;  " d=" M   203.97,   312.63  L   206.80,   315.46  L   206.80,   311.21  L   203.97,   308.38  L   201.13,   311.21  L   201.13,   315.46  L   203.97,   312.63  "/>
		<path style="stroke-width: 0.28 ;&st9;  " d=" M   229.46,   312.63  L   232.29,   315.46  L   232.29,   311.21  L   229.46,   308.38  L   226.63,   311.21  L   226.63,   315.46  L   229.46,   312.63  "/>
		<path style="stroke-width: 0.28 ;&st9;  " d=" M   203.97,   387.82  L   201.13,   384.99  L   201.13,   389.24  L   203.97,   392.07  L   206.80,   389.24  L   206.80,   384.99  L   203.97,   387.82  "/>
		<text style="&st18;" transform="matrix(&st16;  223.28  375.42 )">1</text>
		<text style="&st18;" transform="matrix(&st16;  240.22  346.54 )" ewd:textID="8">Relé<tspan x="0 " dy="6.0">RAD</tspan><tspan x="0 " dy="6.0">NO.2</tspan></text>
		<text style="&st18;" transform="matrix(&st16;  202.17  398.94 )">1</text>
		<text style="&st18;" transform="matrix(&st16;  202.17  305.45 )">1</text>
		<text style="&st18;" transform="matrix(&st16;  197.78  375.42 )">5</text>
		<text style="&st18;" transform="matrix(&st16;  223.28  329.54 )">2</text>
		<text style="&st18;" transform="matrix(&st16;  227.66  305.45 )">1</text>
		<text style="&st18;" transform="matrix(&st16;  227.66  398.94 )">1</text>
		<text style="&st18;" transform="matrix(&st16;  197.78  329.54 )">3</text>
		<path style="stroke-width: 0.85 ;&st7;  " d=" M   203.97,   333.23  L   203.97,   337.48  "/>
		<path style="stroke-width: 0.85 ;&st7;  " d=" M   229.46,   333.23  L   229.46,   341.73  "/>
		<path style="stroke-width: 0.85 ;&st7;  " d=" M   229.46,   358.73  L   229.46,   367.22  "/>
		<path style="stroke-width: 0.85 ;&st7;  " d=" M   203.97,   362.97  L   203.97,   367.22  "/>
		<path style="stroke-width: 1.42 ;&st7;  " d=" M   203.97,   340.31  L   198.30,   362.97  "/>
		<path style="stroke-width: 0.85 ;&st7;   " d=" M   229.46,   358.73  C   231.42    358.73    233.00    357.14    233.00    355.18  "/>
		<path style="stroke-width: 0.85 ;&st7;   " d=" M   233.00,   355.18  C   233.00    353.23    231.42    351.64    229.46    351.64  "/>
		<path style="stroke-width: 0.85 ;&st7;   " d=" M   229.46,   351.64  C   228.47    351.64    227.63    352.00    226.93    352.71  "/>
		<path style="stroke-width: 0.85 ;&st7;   " d=" M   226.93,   352.71  C   228.30    354.10    230.54    354.13    231.94    352.76  "/>
		<path style="stroke-width: 0.85 ;&st7;   " d=" M   231.94,   352.76  C   233.34    351.39    233.36    349.15    231.99    347.75  "/>
		<path style="stroke-width: 0.85 ;&st7;   " d=" M   231.99,   347.75  C   230.62    346.35    228.38    346.33    226.98    347.70  "/>
		<path style="stroke-width: 0.85 ;&st7;   " d=" M   226.98,   347.70  C   226.96    347.71    226.95    347.73    226.93    347.75  "/>
		<path style="stroke-width: 0.85 ;&st7;   " d=" M   226.93,   347.75  C   228.30    349.15    230.54    349.17    231.94    347.80  "/>
		<path style="stroke-width: 0.85 ;&st7;   " d=" M   231.94,   347.80  C   233.34    346.43    233.36    344.19    231.99    342.79  "/>
		<path style="stroke-width: 0.85 ;&st7;   " d=" M   231.99,   342.79  C   231.30    342.08    230.45    341.73    229.46    341.73  "/>
		<path style="stroke-width: 0.85 ;&st7;   " d=" M   205.38,   338.90  C   205.38    338.11    204.75    337.48    203.97    337.48  "/>
		<path style="stroke-width: 0.85 ;&st7;   " d=" M   203.97,   337.48  C   203.18    337.48    202.55    338.11    202.55    338.90  "/>
		<path style="stroke-width: 0.85 ;&st7;   " d=" M   202.55,   338.90  C   202.55    339.68    203.18    340.31    203.97    340.31  "/>
		<path style="stroke-width: 0.85 ;&st7;   " d=" M   203.97,   340.31  C   204.75    340.31    205.38    339.68    205.38    338.90  "/>
		<path style="stroke-width: 0.85 ;&st7;   " d=" M   205.38,   361.56  C   205.38    360.78    204.75    360.14    203.97    360.14  "/>
		<path style="stroke-width: 0.85 ;&st7;   " d=" M   203.97,   360.14  C   203.18    360.14    202.55    360.78    202.55    361.56  "/>
		<path style="stroke-width: 0.85 ;&st7;   " d=" M   202.55,   361.56  C   202.55    362.34    203.18    362.97    203.97    362.97  "/>
		<path style="stroke-width: 0.85 ;&st7;   " d=" M   203.97,   362.97  C   204.75    362.97    205.38    362.34    205.38    361.56  "/>
		<path style="stroke-width: 1.42 ;&st7;  " d=" M   237.96,   333.23  L   195.47,   333.23  L   195.47,   367.22  L   237.96,   367.22  L   237.96,   333.23  "/>
	</g>
	<g ewd:figtype="conn" ewd:figID="10" ewd:code="A12">
		<g ewd:lineID="6">
			<text style="&st18;" transform="matrix(&st16;  95.8  630.37 )">1</text>
			<text style="&st18;" transform="matrix(&st16;  100.18  618.48 )">-</text>
		</g>
		<g ewd:lineID="7">
			<text style="&st18;" transform="matrix(&st16;  95.8  584.5 )">2</text>
			<text style="&st18;" transform="matrix(&st16;  100.18  595.82 )">+</text>
		</g>
		<path style="stroke-width: 1.42 ;&st7;  " d=" M    84.99,   588.19  L    84.99,   622.18  L   118.98,   622.18  L   118.98,   588.19  L    84.99,   588.19  "/>
		<g ewd:figtype="title">
			<text style="&st18;" transform="matrix(&st17;  133.7  625.09 )" ewd:textID="3">Resistencia<tspan x="0 " dy="6.0">del ventilador</tspan></text>
			<text style="&st18;" transform="matrix(&st17;  126.87  625.08 )">A12</text>
		</g>
	</g>
	<g ewd:figtype="w2w" ewd:figID="15" ewd:code="AE4">
		<path style="stroke-width: 1.42 ;&st7;  " d=" M   131.73,   466.37  L   127.48,   462.12  L   123.23,   466.37  "/>
		<path style="stroke-width: 1.42 ;&st7;  " d=" M   131.73,   469.77  L   127.48,   465.52  L   123.23,   469.77  "/>
		<text style="&st18;" transform="matrix(&st16;  114.85  458.43 )">6</text>
	</g>
	<g ewd:figtype="w2w" ewd:figID="16" ewd:code="AE4">
		<path style="stroke-width: 1.42 ;&st7;  " d=" M   131.73,   191.59  L   127.48,   195.84  L   123.23,   191.59  "/>
		<path style="stroke-width: 1.42 ;&st7;  " d=" M   123.23,   188.19  L   127.48,   192.44  L   131.73,   188.19  "/>
		<text style="&st18;" transform="matrix(&st16;  111.75  203.47 )">16</text>
	</g>
	<g ewd:figtype="w2w" ewd:figID="17" ewd:code="AE4">
		<path style="stroke-width: 1.42 ;&st7;  " d=" M   301.70,   392.15  L   305.95,   396.40  L   310.20,   392.15  "/>
		<path style="stroke-width: 1.42 ;&st7;  " d=" M   310.20,   395.55  L   305.95,   399.80  L   301.70,   395.55  "/>
		<text style="&st18;" transform="matrix(&st16;  293.32  407.44 )">3</text>
	</g>
	<g ewd:figtype="gp" ewd:figID="18" ewd:code="A2">
		<path style="stroke-width: 0.85 ;&st7;  " d=" M   101.98,   697.25  L   101.98,   701.50  "/>
		<path style="stroke-width: 0.85 ;&st7;  " d=" M    93.48,   701.50  L   110.48,   701.50  "/>
		<path style="stroke-width: 0.85 ;&st7;  " d=" M    97.73,   704.33  L   106.23,   704.33  "/>
		<path style="stroke-width: 0.85 ;&st7;  " d=" M    99.15,   707.17  L   104.82,   707.17  "/>
		<path style="stroke-width: 0.85 ;&st7;  " d=" M   100.57,   710.00  L   103.40,   710.00  "/>
	</g>
	<g ewd:figtype="gp" ewd:figID="19" ewd:code="C1">
		<path style="stroke-width: 0.85 ;&st7;  " d=" M   390.93,   697.25  L   390.93,   701.50  "/>
		<path style="stroke-width: 0.85 ;&st7;  " d=" M   382.44,   701.50  L   399.43,   701.50  "/>
		<path style="stroke-width: 0.85 ;&st7;  " d=" M   386.69,   704.33  L   395.18,   704.33  "/>
		<path style="stroke-width: 0.85 ;&st7;  " d=" M   388.10,   707.17  L   393.77,   707.17  "/>
		<path style="stroke-width: 0.85 ;&st7;  " d=" M   389.52,   710.00  L   392.35,   710.00  "/>
	</g>
	<g ewd:code=" " ewd:figID="26" ewd:comment=" " ewd:figtype="sh">
		<path style="stroke-width: 0.85 ;&st7; stroke-dasharray:3, 1.5;" d=" M   390.93,   367.22  L   475.92,   367.22  L   475.92,   333.23  L   390.93,   333.23  L   390.93,   367.22  "/>
		<path style="stroke-width: 0.85 ;&st7;  " d=" M   389.74,   366.22  L   389.47,   366.69  L   389.38,   367.22  L   389.47,   367.76  L   389.74,   368.23  L   390.16,   368.57  L   390.66,   368.76  L   391.21,   368.76  L   391.71,   368.57  L   392.13,   368.23  L   392.40,   367.76  L   392.49,   367.22  L   392.40,   366.69  L   392.13,   366.22  L   391.71,   365.88  L   391.21,   365.69  L   390.66,   365.69  L   390.16,   365.88  L   389.74,   366.22  L   390.14,   366.93  L   390.14,   367.52  L   390.51,   367.96  L   391.08,   368.06  L   391.59,   367.77  L   391.78,   367.22  L   391.59,   366.68  L   391.08,   366.39  L   390.51,   366.49  L   390.93,   367.22  "/>
		<g ewd:code="" ewd:figID="25" ewd:comment=" " ewd:figtype="commref">
			<text style="&st18;" transform="matrix(&st17; 387.24 364.96)" ewd:textID="1">(Protegido)</text>
		</g>
	</g>
	<g ewd:code="2" ewd:figID="28" ewd:comment="" ewd:figtype="comment">
		<text style="&st18;" transform="matrix(&st16;  311.04  54.75 )" ewd:textID="2">* 2 :Excepto G.C.C.</text>
	</g>
	<g ewd:code="1" ewd:figID="27" ewd:comment="" ewd:figtype="comment">
		<text style="&st18;" transform="matrix(&st16;  311.04  46.25 )">* 1 :G.C.C.</text>
	</g>
	<path style="stroke-width: 1.42 ;&st7;  " d=" M   118.98,   197.25  L   127.48,   197.25  "/>
	<path style="stroke-width: 1.42 ;&st7;  " d=" M   135.98,   460.71  L   127.48,   460.71  "/>
	<text style="&st18;" transform="matrix(&st17;  123.78  492.08 )">R-W</text>
	<text style="&st18;" transform="matrix(&st17;  123.78  225.21 )">W</text>
	<text style="&st18;" transform="matrix(&st17;  123.78  140.23 )">W</text>
	<text style="&st18;" transform="matrix(&st17;  64.29  139.33 )">L</text>
	<text style="&st18;" transform="matrix(&st17;  64.29  585.64 )">W-B</text>
	<text style="&st18;" transform="matrix(&st17;  89.79  398.6 )">R-W</text>
	<text style="&st18;" transform="matrix(&st17;  64.29  394.21 )">P</text>
	<text style="&st18;" transform="matrix(&st17;  412.73  352.69 )">W</text>
	<text style="&st18;" transform="matrix(&st17;  455.23  351.92 )">B</text>
	<text style="&st18;" transform="matrix(&st17;  387.24  532.25 )">BR</text>
	<text style="&st18;" transform="matrix(&st17;  302.25  237.2 )">B-W</text>
	<text style="&st18;" transform="matrix(&st17;  344.75  234.8 )">BR</text>
	<text style="&st18;" transform="matrix(&st17;  336.25  356.1 )">R-W</text>
	<path style="stroke-width: 1.42 ;&st7;  " d=" M   135.98,   151.23  L   131.01,   146.26  "/>
	<path style="stroke-width: 1.42 ;&st7;  " d=" M   118.98,   158.29  L   123.95,   163.26  "/>
	<path style="stroke-width: 1.42 ;&st7;  " d=" M   131.01,   163.26  L   135.98,   158.29  "/>
	<path style="stroke-width: 1.42 ;&st7;  " d=" M   123.95,   146.26  L   118.98,   151.23  "/>
	<text style="&st18;" transform="matrix(&st17;  123.78  178.47 )">W</text>
	<path style="stroke-width: 1.42 ;&st7;  " d=" M   356.94,   193.73  L   351.97,   188.75  "/>
	<path style="stroke-width: 1.42 ;&st7;  " d=" M   339.94,   200.78  L   344.91,   205.75  "/>
	<path style="stroke-width: 1.42 ;&st7;  " d=" M   351.97,   205.75  L   356.94,   200.78  "/>
	<path style="stroke-width: 1.42 ;&st7;  " d=" M   344.91,   188.75  L   339.94,   193.73  "/>
	<text style="&st18;" transform="matrix(&st17;  344.75  149.81 )">BR</text>
	<text style="&st18;" transform="matrix(&st17;  313.58  354.94 )">(*1)</text>
	<text style="&st18;" transform="matrix(&st17;  109.62  524.91 )">(*1)</text>
	<text style="&st18;" transform="matrix(&st17;  225.77  419.83 )">R</text>
	<text style="&st18;" transform="matrix(&st17;  200.27  420.68 )">W</text>
	<text style="&st18;" transform="matrix(&st17;  75.62  584.4 )">(*2)</text>
	<text style="&st18;" transform="matrix(&st17;  237.1  422.93 )">(*1)</text>
	<text style="&st18;" transform="matrix(&st17;  98.29  522.66 )">W</text>
	<text style="&st18;" transform="matrix(&st17;  174.77  424.17 )">W-B</text>
	<text style="&st18;" transform="matrix(&st17;  186.11  422.93 )">(*1)</text>
	<text style="&st18;" transform="matrix(&st17;  98.29  573.65 )">W</text>
	<text style="&st18;" transform="matrix(&st17;  109.62  575.9 )">(*1)</text>
	<text style="&st18;" transform="matrix(&st17;  98.29  653.63 )">W-B</text>
	<text style="&st18;" transform="matrix(&st17;  211.6  422.93 )">(*1)</text>
	<text style="&st18;" transform="matrix(&st16;  175.51  253.05 )">W</text>
	<text style="&st18;" transform="matrix(&st16;  173.26  264.38 )">(*1)</text>
	<path style="stroke-width: 1.42 ;&st7;  " d=" M   110.48,   542.17  L   105.51,   537.20  "/>
	<path style="stroke-width: 1.42 ;&st7;  " d=" M    93.48,   549.22  L    98.45,   554.19  "/>
	<path style="stroke-width: 1.42 ;&st7;  " d=" M   105.51,   554.19  L   110.48,   549.22  "/>
	<path style="stroke-width: 1.42 ;&st7;  " d=" M    98.45,   537.20  L    93.48,   542.17  "/>
	<text style="&st18;" transform="matrix(&st17;  302.25  351.84 )">R</text>
	<path style="stroke-width: 1.42 ;&st7;  " d=" M   297.45,   401.22  L   305.95,   401.22  "/>
	<text style="&st18;" transform="matrix(&st17;  109.62  652.39 )">(*1)</text>
	<a ewd:figtype="w2w" style="cursor:pointer;" ewd:pinNo="6" ewd:code="AE4" ewd:figID="15">
		<path style="&st2;" d=" M   135.98,   452.21  L   118.98,   452.21  L   118.98,   460.71  L   135.98,   460.71  L   135.98,   452.21 "/>
		<text style="&st8;" transform="matrix(&st16;  122.17  458.58 )"><tspan x="0" style="&st18;" y="0">AE4</tspan></text>
	</a>
	<a ewd:figtype="w2w" style="cursor:pointer;" ewd:pinNo="16" ewd:code="AE4" ewd:figID="16">
		<path style="&st2;" d=" M   135.98,   197.25  L   118.98,   197.25  L   118.98,   205.75  L   135.98,   205.75  L   135.98,   197.25 "/>
		<text style="&st8;" transform="matrix(&st16;  122.17  203.62 )"><tspan x="0" style="&st18;" y="0">AE4</tspan></text>
	</a>
	<a ewd:figtype="w2w" style="cursor:pointer;" ewd:pinNo="3" ewd:code="AE4" ewd:figID="17">
		<path style="&st2;" d=" M   314.45,   401.22  L   297.45,   401.22  L   297.45,   409.72  L   314.45,   409.72  L   314.45,   401.22 "/>
		<text style="&st8;" transform="matrix(&st16;  300.64  407.59 )"><tspan x="0" style="&st18;" y="0">AE4</tspan></text>
	</a>
	<a ewd:figtype="gp" style="cursor:pointer;" ewd:code="A2" ewd:figID="18">
		<path style="&st2;" d=" M    91.36,   681.67  L   112.61,   681.67  L   101.98,   697.25  L    91.36,   681.67 "/>
		<text style="&st8;" transform="matrix(&st16;  98.48  689.46 )"><tspan x="0" style="&st18;" y="0">A2</tspan></text>
	</a>
	<a ewd:figtype="gp" style="cursor:pointer;" ewd:code="C1" ewd:figID="19">
		<path style="&st2;" d=" M   380.31,   681.67  L   401.56,   681.67  L   390.93,   697.25  L   380.31,   681.67 "/>
		<text style="&st8;" transform="matrix(&st16;  387.32  689.46 )"><tspan x="0" style="&st18;" y="0">C1</tspan></text>
	</a>
	<a ewd:figtype="sp" style="cursor:pointer;" ewd:code="SP39" ewd:figID="20">
		<path style="&st2;" d=" M    97.73,   537.20  L   106.23,   537.20  L   110.48,   541.44  L   110.48,   549.94  L   106.23,   554.19  L    97.73,   554.19  L    93.48,   549.94  L    93.48,   541.44  L    97.73,   537.20 "/>
	</a>
	<a ewd:figtype="sp" style="cursor:pointer;" ewd:code="SP19" ewd:figID="21">
		<path style="&st2;" d=" M   123.23,   146.26  L   131.73,   146.26  L   135.98,   150.51  L   135.98,   159.01  L   131.73,   163.26  L   123.23,   163.26  L   118.98,   159.01  L   118.98,   150.51  L   123.23,   146.26 "/>
	</a>
	<a ewd:figtype="sp" style="cursor:pointer;" ewd:code="SP7" ewd:figID="22">
		<path style="&st2;" d=" M   344.19,   188.75  L   352.69,   188.75  L   356.94,   193.00  L   356.94,   201.50  L   352.69,   205.75  L   344.19,   205.75  L   339.94,   201.50  L   339.94,   193.00  L   344.19,   188.75 "/>
	</a>
</g>
</svg>