﻿<?xml version="1.0" encoding="utf-8"?>
<!DOCTYPE svg PUBLIC "-//W3C//DTD SVG 1.0//EN" "http://www.w3.org/TR/2001/REC-SVG-20010904/DTD/svg10.dtd"[
	<!ENTITY ns_flows "http://ns.adobe.com/Flows/1.0/">
	<!ENTITY ns_svg "http://www.w3.org/2000/svg">
	<!ENTITY ns_xlink "http://www.w3.org/1999/xlink">
	<!ENTITY st0 "font-size:7px;font-family:'MS-PGothic';adobe-font-script:japanese;">
	<!ENTITY st1 "font-size:6px;font-family:'ArialMT';">
	<!-- White fill  -->
	<!ENTITY st2 "fill:#FFFFFF;stroke:#000000; stroke-width:1.41;stroke-linecap:round;stroke-linejoin:round;">
	<!-- Yellow fill  -->
	<!ENTITY st3 "fill:#FFFFCC;stroke:#FFFFCC; stroke-width:0.1;stroke-linecap:round;stroke-linejoin:round;">
	<!-- Gray fill  -->
	<!ENTITY st4 "fill:#CCCCCC;stroke:#CCCCCC; stroke-width:0.1;stroke-linecap:round;stroke-linejoin:round;">
	<!-- Light-blue fill -->
	<!ENTITY st5 "fill:#CCECF4;stroke:#000000; stroke-width:1.133;stroke-linecap:round;stroke-linejoin:round;">
	<!ENTITY st6 "fill:none;stroke-linecap:butt; stroke-linejoin:round;">
	<!ENTITY st7 "fill:none;stroke:#000000;stroke-linecap:round;stroke-linejoin:round;">
	<!ENTITY st8 "enable-background:new    ;">
	<!-- Black fill -->
	<!ENTITY st9 "fill:#000000;stroke:#000000; stroke-linecap:round;stroke-linejoin:round;">
	<!-- SRS note   -->
	<!ENTITY st10 "font-size:9px;font-family:'ArialMT';">
	<!ENTITY st11 "font-size:9px;font-family:'Svg Symbol';">
	<!ENTITY st12 "font-size:6px;font-family:'Svg Symbol';">
	<!ENTITY st13 "fill:none;stroke:#ff0000;stroke-linecap:round;stroke-linejoin:round;">
	<!-- Yellow fill  -->
	<!ENTITY st14 "fill:#FFFF00;stroke:#FFFF00; stroke-width:0.1;stroke-linecap:round;stroke-linejoin:round;">
	<!ENTITY st15 "font-size:6px;font-family:'MS-PGothic';adobe-font-script:japanese;">
	<!ENTITY st16 "1.00 0.00 0.00 1.00">
	<!ENTITY st17 "0.00 -1.00 1.00 0.00">
	<!ENTITY st18 "font-size:6px;font-family:'Arial';">
	<!ENTITY st19 "font-size:9px;font-family:'Arial';">
	<!ENTITY st20 "font-size:6px;font-family:'MS-PGothic','MS PGothic';adobe-font-script:japanese;">
	<!ENTITY st21 "font-size:7px;font-family:'MS-PGothic','MS PGothic';adobe-font-script:japanese;">
	<!ATTLIST svg
		xmlns:ewd CDATA #FIXED "http://shcl.co.jp/ewd"
		xmlns:a CDATA #FIXED "http://ns.adobe.com/AdobeSVGViewerExtensions/3.0/"
		ewd:ver CDATA #IMPLIED
	>
	<!ATTLIST a
		ewd:lineID CDATA #IMPLIED
		ewd:groupID CDATA #IMPLIED
		ewd:figtype CDATA #IMPLIED
		ewd:code CDATA #IMPLIED
		ewd:figID CDATA #IMPLIED
		ewd:pinNo CDATA #IMPLIED
		ewd:comment CDATA #IMPLIED >
	<!ATTLIST g
		ewd:lineID CDATA #IMPLIED
		ewd:groupID CDATA #IMPLIED
		ewd:figtype CDATA #IMPLIED
		ewd:code CDATA #IMPLIED
		ewd:figID CDATA #IMPLIED
		ewd:pinNo CDATA #IMPLIED
		ewd:comment CDATA #IMPLIED >
	<!ATTLIST text
		ewd:textID CDATA #IMPLIED
		ewd:horAlign CDATA #IMPLIED >
	<!ATTLIST title
		ewd:textID CDATA #IMPLIED >
]>
<!-- Generator: Shintec Hozumi YS   -->
<svg onload="call_execInitLoadProc_svg('system')" style="overflow:visible;  enable-background:new 0 0 3620.849 710.000" viewBox="0 0 3613.007 710.000" height="710.000" width="3613.007" xml:space="preserve" ewd:ver="2.1.2.10" xmlns="&ns_svg;" xmlns:ewd="http://shcl.co.jp/ewd" xmlns:a="http://ns.adobe.com/AdobeSVGViewerExtensions/3.0/" xmlns:xlink="&ns_xlink;">
<path style="stroke-width: 1.42 ;&st7;  " d=" M   637.39,   554.19  L   645.89,   554.19  " /><text style="&st18;" transform="matrix(&st17;  642.2  587.0 )">GR-B</text><text style="&st18;" transform="matrix(&st17;  642.2  524.02 )">GR</text><text style="&st18;" transform="matrix(&st16;  846.45  492.42 )" ewd:textID="18">Conjunto del panel de instrumentos</text><text style="&st18;" transform="matrix(&st16;  846.45  485.32 )">E34</text><text style="&st18;" transform="matrix(&st17;  693.19  513.31 )">R</text><g ewd:figtype="conn" ewd:figID="7" ewd:code="J27"><path style="stroke-width: 0.85 ;&st7;  " d=" M   645.89,   639.18  L   645.89,   634.93  " /><path style="stroke-width: 1.42 ;&st7;  " d=" M   645.89,   632.10  L   651.56,   609.43  " /><path style="stroke-width: 0.85 ;&st7;  " d=" M   645.89,   609.43  L   645.89,   605.18  " /><path style="stroke-width: 0.85 ;&st7;   " d=" M   647.31,   633.51  C   647.31    632.73    646.67    632.10    645.89    632.10  " /><path style="stroke-width: 0.85 ;&st7;   " d=" M   645.89,   632.10  C   645.11    632.10    644.48    632.73    644.48    633.51  " /><path style="stroke-width: 0.85 ;&st7;   " d=" M   644.48,   633.51  C   644.48    634.30    645.11    634.93    645.89    634.93  " /><path style="stroke-width: 0.85 ;&st7;   " d=" M   645.89,   634.93  C   646.67    634.93    647.31    634.30    647.31    633.51  " /><path style="stroke-width: 1.42 ;&st7;  " d=" M   637.39,   605.18  L   654.39,   605.18  L   654.39,   639.18  L   637.39,   639.18  L   637.39,   605.18  " /><path style="stroke-width: 0.85 ;&st7;   " d=" M   647.31,   610.85  C   647.31    610.07    646.67    609.43    645.89    609.43  " /><path style="stroke-width: 0.85 ;&st7;   " d=" M   645.89,   609.43  C   645.11    609.43    644.48    610.07    644.48    610.85  " /><path style="stroke-width: 0.85 ;&st7;   " d=" M   644.48,   610.85  C   644.48    611.63    645.11    612.27    645.89    612.27  " /><path style="stroke-width: 0.85 ;&st7;   " d=" M   645.89,   612.27  C   646.67    612.27    647.31    611.63    647.31    610.85  " /><text style="&st18;" transform="matrix(&st16;  639.71  601.49 )">1</text><g ewd:figtype="title"><text style="&st18;" transform="matrix(&st17;  662.0  642.08 )">J27</text><text style="&st18;" transform="matrix(&st17;  669.11  642.08 )" ewd:textID="39">Interruptor del freno<tspan x="0 " dy="6.0">de estacionamiento</tspan></text></g></g><g ewd:figtype="w2w" ewd:figID="42" ewd:code="JE7"><path style="stroke-width: 1.42 ;&st7;  " d=" M   641.64,   545.13  L   645.89,   549.38  L   650.14,   545.13  " /><path style="stroke-width: 1.42 ;&st7;  " d=" M   650.14,   548.53  L   645.89,   552.78  L   641.64,   548.53  " /><text style="&st18;" transform="matrix(&st16;  633.26  560.41 )">3</text></g><g ewd:figtype="annex" ewd:figID="28" ewd:code=" "><path style="stroke-width: 1.42 ;&st7;  " d=" M   696.88,   545.69  L   701.94,   534.33  " /><path style="stroke-width: 1.42 ;&st7;  " d=" M   696.88,   545.69  L   691.82,   534.33  " /><text style="&st18;" transform="matrix(&st17; 696.04 640.88)" ewd:textID="30">Conjunto del interruptor de la señal<tspan x="0 " dy="6.0">de advertencia de peligro</tspan></text></g><g ewd:figtype="annex" ewd:figID="63" ewd:code=" "><path style="stroke-width: 0.85 ;&st7;  " d=" M   637.39,   647.68  L   654.39,   647.68  " /><path style="stroke-width: 0.85 ;&st7;  " d=" M   644.48,   656.18  L   647.31,   656.18  " /><path style="stroke-width: 0.85 ;&st7;  " d=" M   645.89,   639.18  L   645.89,   647.68  " /><path style="stroke-width: 0.85 ;&st7;  " d=" M   643.06,   653.34  L   648.72,   653.34  " /><path style="stroke-width: 0.85 ;&st7;  " d=" M   641.64,   650.51  L   650.14,   650.51  " /></g><g ewd:code="1" ewd:figID="73" ewd:comment="" ewd:figtype="comment"><text style="&st18;" transform="matrix(&st16; 828.95 54.75)" ewd:textID="1">* 1 :con sistema de advertencia de la presión de los neumáticos</text></g><g ewd:code="10" ewd:figID="74" ewd:comment="" ewd:figtype="comment"><text style="&st18;" transform="matrix(&st16; 828.95 63.24)" ewd:textID="5">*10 :sin sistema de advertencia de la presión de los neumáticos</text></g></svg>