﻿<?xml version="1.0" encoding="utf-8"?>
<!DOCTYPE svg PUBLIC "-//W3C//DTD SVG 1.0//EN" "http://www.w3.org/TR/2001/REC-SVG-20010904/DTD/svg10.dtd"[
	<!ENTITY ns_flows "http://ns.adobe.com/Flows/1.0/">
	<!ENTITY ns_svg "http://www.w3.org/2000/svg">
	<!ENTITY ns_xlink "http://www.w3.org/1999/xlink">
	<!ENTITY st0 "font-size:7px;font-family:'MS-PGothic';adobe-font-script:japanese;">
	<!ENTITY st1 "font-size:6px;font-family:'ArialMT';">
	<!-- White fill  -->
	<!ENTITY st2 "fill:#FFFFFF;stroke:#000000; stroke-width:1.41;stroke-linecap:round;stroke-linejoin:round;">
	<!-- Yellow fill  -->
	<!ENTITY st3 "fill:#FFFFCC;stroke:#FFFFCC; stroke-width:0.1;stroke-linecap:round;stroke-linejoin:round;">
	<!-- Gray fill  -->
	<!ENTITY st4 "fill:#CCCCCC;stroke:#CCCCCC; stroke-width:0.1;stroke-linecap:round;stroke-linejoin:round;">
	<!-- Light-blue fill -->
	<!ENTITY st5 "fill:#CCECF4;stroke:#000000; stroke-width:1.133;stroke-linecap:round;stroke-linejoin:round;">
	<!ENTITY st6 "fill:none;stroke-linecap:butt; stroke-linejoin:round;">
	<!ENTITY st7 "fill:none;stroke:#000000;stroke-linecap:round;stroke-linejoin:round;">
	<!ENTITY st8 "enable-background:new    ;">
	<!-- Black fill -->
	<!ENTITY st9 "fill:#000000;stroke:#000000; stroke-linecap:round;stroke-linejoin:round;">
	<!-- SRS note   -->
	<!ENTITY st10 "font-size:9px;font-family:'ArialMT';">
	<!ENTITY st11 "font-size:9px;font-family:'Svg Symbol';">
	<!ENTITY st12 "font-size:6px;font-family:'Svg Symbol';">
	<!ENTITY st13 "fill:none;stroke:#ff0000;stroke-linecap:round;stroke-linejoin:round;">
	<!-- Yellow fill  -->
	<!ENTITY st14 "fill:#FFFF00;stroke:#FFFF00; stroke-width:0.1;stroke-linecap:round;stroke-linejoin:round;">
	<!ENTITY st15 "font-size:6px;font-family:'MS-PGothic';adobe-font-script:japanese;">
	<!ENTITY st16 "1.00 0.00 0.00 1.00">
	<!ENTITY st17 "0.00 -1.00 1.00 0.00">
	<!ENTITY st18 "font-size:6px;font-family:'Arial';">
	<!ENTITY st19 "font-size:9px;font-family:'Arial';">
	<!ENTITY st20 "font-size:6px;font-family:'MS-PGothic','MS PGothic';adobe-font-script:japanese;">
	<!ENTITY st21 "font-size:7px;font-family:'MS-PGothic','MS PGothic';adobe-font-script:japanese;">
	<!ATTLIST svg
		xmlns:ewd CDATA #FIXED "http://shcl.co.jp/ewd"
		xmlns:a CDATA #FIXED "http://ns.adobe.com/AdobeSVGViewerExtensions/3.0/"
		ewd:ver CDATA #IMPLIED
	>
	<!ATTLIST a
		ewd:lineID CDATA #IMPLIED
		ewd:groupID CDATA #IMPLIED
		ewd:figtype CDATA #IMPLIED
		ewd:code CDATA #IMPLIED
		ewd:figID CDATA #IMPLIED
		ewd:pinNo CDATA #IMPLIED
		ewd:comment CDATA #IMPLIED >
	<!ATTLIST g
		ewd:lineID CDATA #IMPLIED
		ewd:groupID CDATA #IMPLIED
		ewd:figtype CDATA #IMPLIED
		ewd:code CDATA #IMPLIED
		ewd:figID CDATA #IMPLIED
		ewd:pinNo CDATA #IMPLIED
		ewd:comment CDATA #IMPLIED >
	<!ATTLIST text
		ewd:textID CDATA #IMPLIED
		ewd:horAlign CDATA #IMPLIED >
	<!ATTLIST title
		ewd:textID CDATA #IMPLIED >
]>
<!-- Generator: Shintec Hozumi YS   -->
<svg onload="call_execInitLoadProc_svg('system')" style="overflow:visible;  enable-background:new 0 0 2057.182 710.000" viewBox="0 0 2055.754 710.000" height="710.000" width="2055.754" xml:space="preserve" ewd:ver="2.1.2.10" xmlns="&ns_svg;" xmlns:ewd="http://shcl.co.jp/ewd" xmlns:a="http://ns.adobe.com/AdobeSVGViewerExtensions/3.0/" xmlns:xlink="&ns_xlink;">
<text style="&st18;" transform="matrix(&st17;  72.79  122.26 )">P</text><text style="&st18;" transform="matrix(&st16;  490.92  244.55 )">P</text><g ewd:figtype="rb" ewd:figID="5" ewd:code="FUSE13"><text style="&st18;" transform="matrix(&st17;  98.29  68.91 )">10A HAZ</text><text style="&st18;" transform="matrix(&st16;  68.44  32.08 )">(BAT)</text><path style="stroke-width: 1.42 ;&st7;  " d=" M    78.61,   103.77  L    74.36,   103.77  " /><path style="stroke-width: 1.42 ;&st7;  " d=" M    78.61,    95.27  L    74.36,    95.27  " /><path style="stroke-width: 1.42 ;&st7;   " d=" M    82.86,    99.52  C    82.86     97.17     80.96     95.27     78.61     95.27  " /><path style="stroke-width: 1.42 ;&st7;   " d=" M    78.61,   103.77  C    80.96    103.77     82.86    101.87     82.86     99.52  " /><path style="stroke-width: 1.42 ;&st7;   " d=" M    70.11,    99.52  C    70.11    101.87     72.02    103.77     74.36    103.77  " /><path style="stroke-width: 1.42 ;&st7;   " d=" M    74.36,    95.27  C    72.02     95.27     70.11     97.17     70.11     99.52  " /><path style="stroke-width: 0.28 ;&st9;  " d=" M    76.49,    90.37  L    73.65,    87.54  L    73.65,    91.79  L    76.49,    94.62  L    79.32,    91.79  L    79.32,    87.54  L    76.49,    90.37  " /><path style="stroke-width: 0.85 ;&st7;  " d=" M    76.49,    78.27  L    76.49,    95.27  " /><text style="&st18;" transform="matrix(&st16;  74.69  101.49 )">1</text><text style="&st18;" transform="matrix(&st16;  70.3  86.47 )">2</text><path style="stroke-width: 0.85 ;&st7;  " d=" M    76.49,    69.77  L    76.49,    78.27  " /><path style="stroke-width: 1.42 ;&st7;   " d=" M    76.49,    47.11  C    73.75     48.72     72.84     52.25     74.45     54.99  " /><path style="stroke-width: 1.42 ;&st7;   " d=" M    74.45,    54.99  C    74.97     55.87     75.61     56.51     76.49     57.03  " /><path style="stroke-width: 1.42 ;&st7;   " d=" M    76.49,    66.94  C    79.23     65.33     80.14     61.80     78.52     59.06  " /><path style="stroke-width: 1.42 ;&st7;   " d=" M    78.52,    59.06  C    78.00     58.18     77.37     57.55     76.49     57.03  " /><path style="stroke-width: 0.85 ;&st7;   " d=" M    77.90,    45.69  C    77.90     44.91     77.27     44.28     76.49     44.28  " /><path style="stroke-width: 0.85 ;&st7;   " d=" M    76.49,    44.28  C    75.70     44.28     75.07     44.91     75.07     45.69  " /><path style="stroke-width: 0.85 ;&st7;   " d=" M    75.07,    45.69  C    75.07     46.48     75.70     47.11     76.49     47.11  " /><path style="stroke-width: 0.85 ;&st7;   " d=" M    76.49,    47.11  C    77.27     47.11     77.90     46.48     77.90     45.69  " /><path style="stroke-width: 0.85 ;&st7;   " d=" M    77.90,    68.36  C    77.90     67.57     77.27     66.94     76.49     66.94  " /><path style="stroke-width: 0.85 ;&st7;   " d=" M    76.49,    66.94  C    75.70     66.94     75.07     67.57     75.07     68.36  " /><path style="stroke-width: 0.85 ;&st7;   " d=" M    75.07,    68.36  C    75.07     69.14     75.70     69.77     76.49     69.77  " /><path style="stroke-width: 0.85 ;&st7;   " d=" M    76.49,    69.77  C    77.27     69.77     77.90     69.14     77.90     68.36  " /><path style="stroke-width: 1.42 ;&st7;  " d=" M    63.74,    35.78  L    63.74,    78.27  L    89.24,    78.27  L    89.24,    35.78  L    63.74,    35.78  " /></g><g ewd:figtype="jb" ewd:figID="20" ewd:code="3"><path style="stroke-width: 0.85 ;&st7;  " d=" M   280.45,    69.77  L   280.45,    78.27  " /><path style="stroke-width: 0.85 ;&st7;  " d=" M   331.44,    69.77  L   331.44,    78.27  " /><path style="stroke-width: 0.85 ;&st7;  " d=" M   178.47,    69.77  L   178.47,    78.27  " /><path style="stroke-width: 0.85 ;&st7;  " d=" M   229.46,    69.77  L   229.46,    78.27  " /><path style="stroke-width: 0.85 ;&st7;  " d=" M   127.48,    69.77  L   127.48,    78.27  " /><path style="stroke-width: 1.42 ;&st7;   " d=" M   280.45,    47.11  C   277.72     48.72    276.80     52.25    278.42     54.99  " /><path style="stroke-width: 1.42 ;&st7;   " d=" M   278.42,    54.99  C   278.94     55.87    279.57     56.51    280.45     57.03  " /><path style="stroke-width: 1.42 ;&st7;   " d=" M   280.45,    66.94  C   283.19     65.33    284.10     61.80    282.49     59.06  " /><path style="stroke-width: 1.42 ;&st7;   " d=" M   282.49,    59.06  C   281.97     58.18    281.34     57.55    280.45     57.03  " /><path style="stroke-width: 0.85 ;&st7;   " d=" M   281.87,    45.69  C   281.87     44.91    281.24     44.28    280.45     44.28  " /><path style="stroke-width: 0.85 ;&st7;   " d=" M   280.45,    44.28  C   279.67     44.28    279.04     44.91    279.04     45.69  " /><path style="stroke-width: 0.85 ;&st7;   " d=" M   279.04,    45.69  C   279.04     46.48    279.67     47.11    280.45     47.11  " /><path style="stroke-width: 0.85 ;&st7;   " d=" M   280.45,    47.11  C   281.24     47.11    281.87     46.48    281.87     45.69  " /><path style="stroke-width: 0.85 ;&st7;   " d=" M   281.87,    68.36  C   281.87     67.57    281.24     66.94    280.45     66.94  " /><path style="stroke-width: 0.85 ;&st7;   " d=" M   280.45,    66.94  C   279.67     66.94    279.04     67.57    279.04     68.36  " /><path style="stroke-width: 0.85 ;&st7;   " d=" M   279.04,    68.36  C   279.04     69.14    279.67     69.77    280.45     69.77  " /><path style="stroke-width: 0.85 ;&st7;   " d=" M   280.45,    69.77  C   281.24     69.77    281.87     69.14    281.87     68.36  " /><path style="stroke-width: 1.42 ;&st7;   " d=" M   331.44,    47.11  C   328.71     48.72    327.79     52.25    329.41     54.99  " /><path style="stroke-width: 1.42 ;&st7;   " d=" M   329.41,    54.99  C   329.93     55.87    330.56     56.51    331.44     57.03  " /><path style="stroke-width: 1.42 ;&st7;   " d=" M   331.44,    66.94  C   334.18     65.33    335.09     61.80    333.48     59.06  " /><path style="stroke-width: 1.42 ;&st7;   " d=" M   333.48,    59.06  C   332.96     58.18    332.33     57.55    331.44     57.03  " /><path style="stroke-width: 0.85 ;&st7;   " d=" M   332.86,    45.69  C   332.86     44.91    332.23     44.28    331.44     44.28  " /><path style="stroke-width: 0.85 ;&st7;   " d=" M   331.44,    44.28  C   330.66     44.28    330.03     44.91    330.03     45.69  " /><path style="stroke-width: 0.85 ;&st7;   " d=" M   330.03,    45.69  C   330.03     46.48    330.66     47.11    331.44     47.11  " /><path style="stroke-width: 0.85 ;&st7;   " d=" M   331.44,    47.11  C   332.23     47.11    332.86     46.48    332.86     45.69  " /><path style="stroke-width: 0.85 ;&st7;   " d=" M   332.86,    68.36  C   332.86     67.57    332.23     66.94    331.44     66.94  " /><path style="stroke-width: 0.85 ;&st7;   " d=" M   331.44,    66.94  C   330.66     66.94    330.03     67.57    330.03     68.36  " /><path style="stroke-width: 0.85 ;&st7;   " d=" M   330.03,    68.36  C   330.03     69.14    330.66     69.77    331.44     69.77  " /><path style="stroke-width: 0.85 ;&st7;   " d=" M   331.44,    69.77  C   332.23     69.77    332.86     69.14    332.86     68.36  " /><path style="stroke-width: 1.42 ;&st7;   " d=" M   229.46,    47.11  C   226.72     48.72    225.81     52.25    227.42     54.99  " /><path style="stroke-width: 1.42 ;&st7;   " d=" M   227.42,    54.99  C   227.94     55.87    228.58     56.51    229.46     57.03  " /><path style="stroke-width: 1.42 ;&st7;   " d=" M   229.46,    66.94  C   232.20     65.33    233.11     61.80    231.50     59.06  " /><path style="stroke-width: 1.42 ;&st7;   " d=" M   231.50,    59.06  C   230.98     58.18    230.34     57.55    229.46     57.03  " /><path style="stroke-width: 0.85 ;&st7;   " d=" M   230.88,    45.69  C   230.88     44.91    230.24     44.28    229.46     44.28  " /><path style="stroke-width: 0.85 ;&st7;   " d=" M   229.46,    44.28  C   228.68     44.28    228.05     44.91    228.05     45.69  " /><path style="stroke-width: 0.85 ;&st7;   " d=" M   228.05,    45.69  C   228.05     46.48    228.68     47.11    229.46     47.11  " /><path style="stroke-width: 0.85 ;&st7;   " d=" M   229.46,    47.11  C   230.24     47.11    230.88     46.48    230.88     45.69  " /><path style="stroke-width: 0.85 ;&st7;   " d=" M   230.88,    68.36  C   230.88     67.57    230.24     66.94    229.46     66.94  " /><path style="stroke-width: 0.85 ;&st7;   " d=" M   229.46,    66.94  C   228.68     66.94    228.05     67.57    228.05     68.36  " /><path style="stroke-width: 0.85 ;&st7;   " d=" M   228.05,    68.36  C   228.05     69.14    228.68     69.77    229.46     69.77  " /><path style="stroke-width: 0.85 ;&st7;   " d=" M   229.46,    69.77  C   230.24     69.77    230.88     69.14    230.88     68.36  " /><path style="stroke-width: 1.42 ;&st7;   " d=" M   178.47,    47.11  C   175.73     48.72    174.82     52.25    176.43     54.99  " /><path style="stroke-width: 1.42 ;&st7;   " d=" M   176.43,    54.99  C   176.95     55.87    177.59     56.51    178.47     57.03  " /><path style="stroke-width: 1.42 ;&st7;   " d=" M   178.47,    66.94  C   181.21     65.33    182.12     61.80    180.51     59.06  " /><path style="stroke-width: 1.42 ;&st7;   " d=" M   180.51,    59.06  C   179.99     58.18    179.35     57.55    178.47     57.03  " /><path style="stroke-width: 0.85 ;&st7;   " d=" M   179.89,    45.69  C   179.89     44.91    179.25     44.28    178.47     44.28  " /><path style="stroke-width: 0.85 ;&st7;   " d=" M   178.47,    44.28  C   177.69     44.28    177.05     44.91    177.05     45.69  " /><path style="stroke-width: 0.85 ;&st7;   " d=" M   177.05,    45.69  C   177.05     46.48    177.69     47.11    178.47     47.11  " /><path style="stroke-width: 0.85 ;&st7;   " d=" M   178.47,    47.11  C   179.25     47.11    179.89     46.48    179.89     45.69  " /><path style="stroke-width: 0.85 ;&st7;   " d=" M   179.89,    68.36  C   179.89     67.57    179.25     66.94    178.47     66.94  " /><path style="stroke-width: 0.85 ;&st7;   " d=" M   178.47,    66.94  C   177.69     66.94    177.05     67.57    177.05     68.36  " /><path style="stroke-width: 0.85 ;&st7;   " d=" M   177.05,    68.36  C   177.05     69.14    177.69     69.77    178.47     69.77  " /><path style="stroke-width: 0.85 ;&st7;   " d=" M   178.47,    69.77  C   179.25     69.77    179.89     69.14    179.89     68.36  " /><path style="stroke-width: 1.42 ;&st7;   " d=" M   127.48,    47.11  C   124.74     48.72    123.83     52.25    125.44     54.99  " /><path style="stroke-width: 1.42 ;&st7;   " d=" M   125.44,    54.99  C   125.96     55.87    126.60     56.51    127.48     57.03  " /><path style="stroke-width: 1.42 ;&st7;   " d=" M   127.48,    66.94  C   130.22     65.33    131.13     61.80    129.52     59.06  " /><path style="stroke-width: 1.42 ;&st7;   " d=" M   129.52,    59.06  C   129.00     58.18    128.36     57.55    127.48     57.03  " /><path style="stroke-width: 0.85 ;&st7;   " d=" M   128.90,    45.69  C   128.90     44.91    128.26     44.28    127.48     44.28  " /><path style="stroke-width: 0.85 ;&st7;   " d=" M   127.48,    44.28  C   126.70     44.28    126.06     44.91    126.06     45.69  " /><path style="stroke-width: 0.85 ;&st7;   " d=" M   126.06,    45.69  C   126.06     46.48    126.70     47.11    127.48     47.11  " /><path style="stroke-width: 0.85 ;&st7;   " d=" M   127.48,    47.11  C   128.26     47.11    128.90     46.48    128.90     45.69  " /><path style="stroke-width: 0.85 ;&st7;   " d=" M   128.90,    68.36  C   128.90     67.57    128.26     66.94    127.48     66.94  " /><path style="stroke-width: 0.85 ;&st7;   " d=" M   127.48,    66.94  C   126.70     66.94    126.06     67.57    126.06     68.36  " /><path style="stroke-width: 0.85 ;&st7;   " d=" M   126.06,    68.36  C   126.06     69.14    126.70     69.77    127.48     69.77  " /><path style="stroke-width: 0.85 ;&st7;   " d=" M   127.48,    69.77  C   128.26     69.77    128.90     69.14    128.90     68.36  " /><path style="stroke-width: 1.42 ;&st7;  " d=" M   267.71,    35.78  L   267.71,    78.27  L   293.20,    78.27  L   293.20,    35.78  L   267.71,    35.78  " /><path style="stroke-width: 1.42 ;&st7;  " d=" M   318.70,    35.78  L   318.70,    78.27  L   344.19,    78.27  L   344.19,    35.78  L   318.70,    35.78  " /><path style="stroke-width: 0.85 ;&st7;  " d=" M   280.45,    78.27  L   280.45,   171.76  L   654.39,   171.76  L   654.39,    78.27  " /><path style="stroke-width: 0.85 ;&st7;  " d=" M   331.44,    78.27  L   331.44,   154.76  L   628.89,   154.76  L   628.89,    78.27  " /><path style="stroke-width: 1.42 ;&st7;  " d=" M   216.71,    35.78  L   216.71,    78.27  L   242.21,    78.27  L   242.21,    35.78  L   216.71,    35.78  " /><path style="stroke-width: 1.42 ;&st7;  " d=" M   165.72,    35.78  L   165.72,    78.27  L   191.22,    78.27  L   191.22,    35.78  L   165.72,    35.78  " /><path style="stroke-width: 1.42 ;&st7;  " d=" M   114.73,    35.78  L   114.73,    78.27  L   140.23,    78.27  L   140.23,    35.78  L   114.73,    35.78  " /><path style="stroke-width: 0.85 ;&st7;  " d=" M   679.89,    78.27  L   679.89,   188.75  L   229.46,   188.75  L   229.46,    78.27  " /><path style="stroke-width: 0.85 ;&st7;  " d=" M   705.38,    78.27  L   705.38,   205.75  L   178.47,   205.75  L   178.47,    78.27  " /><path style="stroke-width: 0.85 ;&st7;  " d=" M   730.88,    78.27  L   730.88,   222.75  L   127.48,   222.75  L   127.48,    78.27  " /><text style="&st18;" transform="matrix(&st17;  302.25  69.15 )">7.5A <tspan x="0 " dy="6.0">ECU-IG1</tspan></text><text style="&st18;" transform="matrix(&st16;  275.24  32.08 )">(IG)</text><text style="&st18;" transform="matrix(&st17;  353.25  67.71 )">5A ACC</text><text style="&st18;" transform="matrix(&st16;  322.94  32.08 )">(ACC)</text><text style="&st18;" transform="matrix(&st17;  251.26  70.46 )">10A STOP</text><text style="&st18;" transform="matrix(&st16;  221.42  32.08 )">(BAT)</text><text style="&st18;" transform="matrix(&st17;  200.27  70.23 )">15A (D/L)</text><text style="&st18;" transform="matrix(&st16;  170.43  32.08 )">(BAT)</text><text style="&st18;" transform="matrix(&st17;  149.28  70.15 )">5A DOME</text><text style="&st18;" transform="matrix(&st16;  119.44  32.08 )">(BAT)</text><path style="stroke-width: 0.85 ;&st7;  " d=" M   382.44,    78.27  L   382.44,   137.76  L   603.40,   137.76  L   603.40,    78.27  " /><path style="stroke-width: 0.85 ;&st7;  " d=" M   382.44,    69.77  L   382.44,    78.27  " /><path style="stroke-width: 1.42 ;&st7;   " d=" M   382.44,    47.11  C   379.70     48.72    378.79     52.25    380.40     54.99  " /><path style="stroke-width: 1.42 ;&st7;   " d=" M   380.40,    54.99  C   380.92     55.87    381.55     56.51    382.44     57.03  " /><path style="stroke-width: 1.42 ;&st7;   " d=" M   382.44,    66.94  C   385.17     65.33    386.09     61.80    384.47     59.06  " /><path style="stroke-width: 1.42 ;&st7;   " d=" M   384.47,    59.06  C   383.95     58.18    383.32     57.55    382.44     57.03  " /><path style="stroke-width: 0.85 ;&st7;   " d=" M   383.85,    45.69  C   383.85     44.91    383.22     44.28    382.44     44.28  " /><path style="stroke-width: 0.85 ;&st7;   " d=" M   382.44,    44.28  C   381.65     44.28    381.02     44.91    381.02     45.69  " /><path style="stroke-width: 0.85 ;&st7;   " d=" M   381.02,    45.69  C   381.02     46.48    381.65     47.11    382.44     47.11  " /><path style="stroke-width: 0.85 ;&st7;   " d=" M   382.44,    47.11  C   383.22     47.11    383.85     46.48    383.85     45.69  " /><path style="stroke-width: 0.85 ;&st7;   " d=" M   383.85,    68.36  C   383.85     67.57    383.22     66.94    382.44     66.94  " /><path style="stroke-width: 0.85 ;&st7;   " d=" M   382.44,    66.94  C   381.65     66.94    381.02     67.57    381.02     68.36  " /><path style="stroke-width: 0.85 ;&st7;   " d=" M   381.02,    68.36  C   381.02     69.14    381.65     69.77    382.44     69.77  " /><path style="stroke-width: 0.85 ;&st7;   " d=" M   382.44,    69.77  C   383.22     69.77    383.85     69.14    383.85     68.36  " /><path style="stroke-width: 1.42 ;&st7;  " d=" M   369.69,    35.78  L   369.69,    78.27  L   395.18,    78.27  L   395.18,    35.78  L   369.69,    35.78  " /><text style="&st18;" transform="matrix(&st17;  404.24  66.78 )">25A <tspan x="0 " dy="6.0">FR WIP</tspan></text><text style="&st18;" transform="matrix(&st16;  377.22  32.08 )">(IG)</text><path style="stroke-width: 0.85 ;&st7;  " d=" M   433.43,    69.77  L   433.43,    78.27  " /><path style="stroke-width: 1.42 ;&st7;   " d=" M   433.43,    47.11  C   430.69     48.72    429.78     52.25    431.39     54.99  " /><path style="stroke-width: 1.42 ;&st7;   " d=" M   431.39,    54.99  C   431.91     55.87    432.55     56.51    433.43     57.03  " /><path style="stroke-width: 1.42 ;&st7;   " d=" M   433.43,    66.94  C   436.17     65.33    437.08     61.80    435.46     59.06  " /><path style="stroke-width: 1.42 ;&st7;   " d=" M   435.46,    59.06  C   434.94     58.18    434.31     57.55    433.43     57.03  " /><path style="stroke-width: 0.85 ;&st7;   " d=" M   434.84,    45.69  C   434.84     44.91    434.21     44.28    433.43     44.28  " /><path style="stroke-width: 0.85 ;&st7;   " d=" M   433.43,    44.28  C   432.65     44.28    432.01     44.91    432.01     45.69  " /><path style="stroke-width: 0.85 ;&st7;   " d=" M   432.01,    45.69  C   432.01     46.48    432.65     47.11    433.43     47.11  " /><path style="stroke-width: 0.85 ;&st7;   " d=" M   433.43,    47.11  C   434.21     47.11    434.84     46.48    434.84     45.69  " /><path style="stroke-width: 0.85 ;&st7;   " d=" M   434.84,    68.36  C   434.84     67.57    434.21     66.94    433.43     66.94  " /><path style="stroke-width: 0.85 ;&st7;   " d=" M   433.43,    66.94  C   432.65     66.94    432.01     67.57    432.01     68.36  " /><path style="stroke-width: 0.85 ;&st7;   " d=" M   432.01,    68.36  C   432.01     69.14    432.65     69.77    433.43     69.77  " /><path style="stroke-width: 0.85 ;&st7;   " d=" M   433.43,    69.77  C   434.21     69.77    434.84     69.14    434.84     68.36  " /><path style="stroke-width: 1.42 ;&st7;  " d=" M   420.68,    35.78  L   420.68,    78.27  L   446.18,    78.27  L   446.18,    35.78  L   420.68,    35.78  " /><text style="&st18;" transform="matrix(&st17;  455.23  68.64 )">10A <tspan x="0 " dy="6.0">(RR WIP)</tspan></text><text style="&st18;" transform="matrix(&st16;  428.21  32.08 )">(IG)</text><path style="stroke-width: 0.85 ;&st7;  " d=" M   433.43,    78.27  L   433.43,   120.77  L   577.90,   120.77  L   577.90,    78.27  " /><path style="stroke-width: 1.42 ;&st7;  " d=" M   758.50,   103.77  L   754.25,   103.77  " /><path style="stroke-width: 1.42 ;&st7;  " d=" M   758.50,   112.27  L   754.25,   112.27  " /><path style="stroke-width: 1.42 ;&st7;   " d=" M   754.25,   103.77  C   751.90    103.77    750.00    105.67    750.00    108.02  " /><path style="stroke-width: 1.42 ;&st7;   " d=" M   750.00,   108.02  C   750.00    110.36    751.90    112.27    754.25    112.27  " /><path style="stroke-width: 1.42 ;&st7;   " d=" M   758.50,   112.27  C   760.85    112.27    762.75    110.36    762.75    108.02  " /><path style="stroke-width: 1.42 ;&st7;   " d=" M   762.75,   108.02  C   762.75    105.67    760.85    103.77    758.50    103.77  " /><path style="stroke-width: 0.28 ;&st9;  " d=" M   756.37,    98.87  L   753.54,    96.04  L   753.54,   100.29  L   756.37,   103.12  L   759.21,   100.29  L   759.21,    96.04  L   756.37,    98.87  " /><text style="&st18;" transform="matrix(&st16;  752.4  109.99 )">3C</text><text style="&st18;" transform="matrix(&st16;  742.76  109.99 )">16</text><path style="stroke-width: 0.85 ;&st7;  " d=" M   756.37,   103.77  L   756.37,    78.27  " /></g></svg>