﻿<?xml version="1.0" encoding="utf-8"?>
<!DOCTYPE svg PUBLIC "-//W3C//DTD SVG 1.0//EN" "http://www.w3.org/TR/2001/REC-SVG-20010904/DTD/svg10.dtd"[
	<!ENTITY ns_flows "http://ns.adobe.com/Flows/1.0/">
	<!ENTITY ns_svg "http://www.w3.org/2000/svg">
	<!ENTITY ns_xlink "http://www.w3.org/1999/xlink">
	<!ENTITY st0 "font-size:7px;font-family:'MS-PGothic';adobe-font-script:japanese;">
	<!ENTITY st1 "font-size:6px;font-family:'ArialMT';">
	<!-- White fill  -->
	<!ENTITY st2 "fill:#FFFFFF;stroke:#000000; stroke-width:1.41;stroke-linecap:round;stroke-linejoin:round;">
	<!-- Yellow fill  -->
	<!ENTITY st3 "fill:#FFFFCC;stroke:#FFFFCC; stroke-width:0.1;stroke-linecap:round;stroke-linejoin:round;">
	<!-- Gray fill  -->
	<!ENTITY st4 "fill:#CCCCCC;stroke:#CCCCCC; stroke-width:0.1;stroke-linecap:round;stroke-linejoin:round;">
	<!-- Light-blue fill -->
	<!ENTITY st5 "fill:#CCECF4;stroke:#000000; stroke-width:1.133;stroke-linecap:round;stroke-linejoin:round;">
	<!ENTITY st6 "fill:none;stroke-linecap:butt; stroke-linejoin:round;">
	<!ENTITY st7 "fill:none;stroke:#000000;stroke-linecap:round;stroke-linejoin:round;">
	<!ENTITY st8 "enable-background:new    ;">
	<!-- Black fill -->
	<!ENTITY st9 "fill:#000000;stroke:#000000; stroke-linecap:round;stroke-linejoin:round;">
	<!-- SRS note   -->
	<!ENTITY st10 "font-size:9px;font-family:'ArialMT';">
	<!ENTITY st11 "font-size:9px;font-family:'Svg Symbol';">
	<!ENTITY st12 "font-size:6px;font-family:'Svg Symbol';">
	<!ENTITY st13 "fill:none;stroke:#ff0000;stroke-linecap:round;stroke-linejoin:round;">
	<!-- Yellow fill  -->
	<!ENTITY st14 "fill:#FFFF00;stroke:#FFFF00; stroke-width:0.1;stroke-linecap:round;stroke-linejoin:round;">
	<!ENTITY st15 "font-size:6px;font-family:'MS-PGothic';adobe-font-script:japanese;">
	<!ENTITY st16 "1.00 0.00 0.00 1.00">
	<!ENTITY st17 "0.00 -1.00 1.00 0.00">
	<!ENTITY st18 "font-size:6px;font-family:'Arial';">
	<!ENTITY st19 "font-size:9px;font-family:'Arial';">
	<!ENTITY st20 "font-size:6px;font-family:'MS-PGothic','MS PGothic';adobe-font-script:japanese;">
	<!ENTITY st21 "font-size:7px;font-family:'MS-PGothic','MS PGothic';adobe-font-script:japanese;">
	<!ATTLIST svg
		xmlns:ewd CDATA #FIXED "http://shcl.co.jp/ewd"
		xmlns:a CDATA #FIXED "http://ns.adobe.com/AdobeSVGViewerExtensions/3.0/"
		ewd:ver CDATA #IMPLIED
	>
	<!ATTLIST a
		ewd:lineID CDATA #IMPLIED
		ewd:groupID CDATA #IMPLIED
		ewd:figtype CDATA #IMPLIED
		ewd:code CDATA #IMPLIED
		ewd:figID CDATA #IMPLIED
		ewd:pinNo CDATA #IMPLIED
		ewd:comment CDATA #IMPLIED >
	<!ATTLIST g
		ewd:lineID CDATA #IMPLIED
		ewd:groupID CDATA #IMPLIED
		ewd:figtype CDATA #IMPLIED
		ewd:code CDATA #IMPLIED
		ewd:figID CDATA #IMPLIED
		ewd:pinNo CDATA #IMPLIED
		ewd:comment CDATA #IMPLIED >
	<!ATTLIST text
		ewd:textID CDATA #IMPLIED
		ewd:horAlign CDATA #IMPLIED >
	<!ATTLIST title
		ewd:textID CDATA #IMPLIED >
]>
<!-- Generator: Shintec Hozumi YS   -->
<svg onload="call_execInitLoadProc_svg('system')" style="overflow:visible;  enable-background:new 0 0 2575.595 710.000" viewBox="0 0 2574.164 710.000" height="710.000" width="2574.164" xml:space="preserve" ewd:ver="2.1.2.10" xmlns="&ns_svg;" xmlns:ewd="http://shcl.co.jp/ewd" xmlns:a="http://ns.adobe.com/AdobeSVGViewerExtensions/3.0/" xmlns:xlink="&ns_xlink;">
<text style="&st18;" transform="matrix(&st16;  763.91  502.34 )">(*2)</text><text style="&st18;" transform="matrix(&st17;  795.17  338.21 )">L-R</text><text style="&st18;" transform="matrix(&st17;  959.48  337.94 )">(*2)</text><text style="&st18;" transform="matrix(&st17;  948.15  339.18 )">B-W</text><text style="&st18;" transform="matrix(&st17;  727.18  463.05 )">R-W(*1)</text><text style="&st18;" transform="matrix(&st17;  871.66  463.05 )">R-W(*1)</text><text style="&st18;" transform="matrix(&st17;  891.49  337.94 )">(*1)</text><text style="&st18;" transform="matrix(&st17;  747.01  337.94 )">(*1)</text><text style="&st18;" transform="matrix(&st17;  735.68  338.41 )">B-Y</text><text style="&st18;" transform="matrix(&st17;  880.16  338.33 )">B-R</text><text style="&st18;" transform="matrix(&st17;  806.5  337.94 )">(*2)</text><text style="&st18;" transform="matrix(&st17;  837.67  462.27 )">R-Y(*1)</text><text style="&st18;" transform="matrix(&st17;  959.48  456.92 )">(*2)</text><text style="&st18;" transform="matrix(&st17;  948.15  458.16 )">W-B</text><text style="&st18;" transform="matrix(&st17;  806.5  456.92 )">(*2)</text><text style="&st18;" transform="matrix(&st17;  795.17  458.16 )">W-B</text><text style="&st18;" transform="matrix(&st17;  693.19  463.01 )">L-W(*1)</text><text style="&st18;" transform="matrix(&st16;  762.67  491.01 )">W-B</text><text style="&st18;" transform="matrix(&st16;  911.39  542.0 )">W-B</text><text style="&st18;" transform="matrix(&st17;  871.66  628.14 )">W-B</text><text style="&st18;" transform="matrix(&st17;  727.18  628.14 )">W-B</text><path style="stroke-width: 1.42 ;&st7;  " d=" M   960.34,   542.17  L   955.37,   537.20  " /><path style="stroke-width: 1.42 ;&st7;  " d=" M   943.34,   549.22  L   948.31,   554.19  " /><path style="stroke-width: 1.42 ;&st7;  " d=" M   955.37,   554.19  L   960.34,   549.22  " /><path style="stroke-width: 1.42 ;&st7;  " d=" M   948.31,   537.20  L   943.34,   542.17  " /><path style="stroke-width: 1.42 ;&st7;  " d=" M   883.85,   542.17  L   878.88,   537.20  " /><path style="stroke-width: 1.42 ;&st7;  " d=" M   866.86,   549.22  L   871.82,   554.19  " /><path style="stroke-width: 1.42 ;&st7;  " d=" M   878.88,   554.19  L   883.85,   549.22  " /><path style="stroke-width: 1.42 ;&st7;  " d=" M   871.82,   537.20  L   866.86,   542.17  " /><path style="stroke-width: 1.42 ;&st7;  " d=" M   807.37,   491.18  L   802.39,   486.20  " /><path style="stroke-width: 1.42 ;&st7;  " d=" M   790.37,   498.23  L   795.34,   503.20  " /><path style="stroke-width: 1.42 ;&st7;  " d=" M   802.39,   503.20  L   807.37,   498.23  " /><path style="stroke-width: 1.42 ;&st7;  " d=" M   795.34,   486.20  L   790.37,   491.18  " /><text style="&st18;" transform="matrix(&st16;  912.63  553.33 )">(*2)</text><path style="stroke-width: 1.42 ;&st7;  " d=" M   739.38,   491.18  L   734.40,   486.20  " /><path style="stroke-width: 1.42 ;&st7;  " d=" M   722.38,   498.23  L   727.35,   503.20  " /><path style="stroke-width: 1.42 ;&st7;  " d=" M   734.40,   503.20  L   739.38,   498.23  " /><path style="stroke-width: 1.42 ;&st7;  " d=" M   727.35,   486.20  L   722.38,   491.18  " /><text style="&st18;" transform="matrix(&st17;  727.18  130.76 )">P</text><text style="&st18;" transform="matrix(&st16;  541.91  244.55 )">P</text><g ewd:figtype="conn" ewd:figID="10" ewd:code="A20"><path style="stroke-width: 1.42 ;&st7;  " d=" M   934.84,   367.22  L   934.84,   401.22  L   968.84,   401.22  L   968.84,   367.22  L   934.84,   367.22  " /><text style="&st18;" transform="matrix(&st16;  947.4  397.52 )">LO</text><text style="&st18;" transform="matrix(&st16;  948.1  374.86 )">+B</text><text style="&st18;" transform="matrix(&st16; 943.19 383.19)" ewd:textID="15" ewd:horAlign="center">Luz de<tspan x="0" dy="6" style="&st18;">cruce</tspan></text><text style="&st18;" transform="matrix(&st16;  945.66  363.53 )">1</text><text style="&st18;" transform="matrix(&st16;  945.66  409.41 )">2</text><g ewd:figtype="title"><text style="&st18;" transform="matrix(&st17; 976.73 404.12)">A20</text><text style="&st18;" transform="matrix(&st17; 983.56 404.12)" ewd:textID="10">Conjunto del faro RH</text></g></g><g ewd:figtype="conn" ewd:figID="11" ewd:code="A21"><path style="stroke-width: 1.42 ;&st7;  " d=" M   781.87,   367.22  L   781.87,   401.22  L   815.86,   401.22  L   815.86,   367.22  L   781.87,   367.22  " /><text style="&st18;" transform="matrix(&st16;  794.43  397.52 )">LO</text><text style="&st18;" transform="matrix(&st16;  795.13  374.86 )">+B</text><text style="&st18;" transform="matrix(&st16; 790.21 383.19)" ewd:textID="15" ewd:horAlign="center">Luz de<tspan x="0" dy="6" style="&st18;">cruce</tspan></text><text style="&st18;" transform="matrix(&st16;  792.68  409.41 )">2</text><text style="&st18;" transform="matrix(&st16;  792.68  363.53 )">1</text><g ewd:figtype="title"><text style="&st18;" transform="matrix(&st17;  823.76  404.12 )">A21</text><text style="&st18;" transform="matrix(&st17;  830.58  404.12 )" ewd:textID="9">Conjunto del faro LH</text></g></g><g ewd:figtype="conn" ewd:figID="12" ewd:code="A14"><path style="stroke-width: 0.85 ;&st7;  " d=" M   883.24,   392.72  L   875.35,   392.72  " /><path style="stroke-width: 0.85 ;&st7;  " d=" M   866.86,   376.45  L   866.86,   384.31  " /><path style="stroke-width: 0.85 ;&st7;  " d=" M   883.85,   376.45  L   883.85,   384.31  " /><path style="stroke-width: 0.85 ;&st7;  " d=" M   875.35,   392.72  L   867.47,   392.72  " /><path style="stroke-width: 0.85 ;&st7;  " d=" M   875.35,   401.22  L   875.35,   392.72  " /><path style="stroke-width: 0.85 ;&st7;   " d=" M   883.14,   392.72  C   884.70    392.73    885.97    391.48    885.98    389.92  " /><path style="stroke-width: 0.85 ;&st7;   " d=" M   885.98,   389.92  C   885.99    388.37    884.73    387.10    883.18    387.09  " /><path style="stroke-width: 0.85 ;&st7;   " d=" M   883.18,   387.09  C   882.15    387.08    881.26    387.58    880.74    388.47  " /><path style="stroke-width: 0.85 ;&st7;   " d=" M   880.74,   388.47  C   881.53    389.81    883.26    390.25    884.59    389.46  " /><path style="stroke-width: 0.85 ;&st7;   " d=" M   884.59,   389.46  C   885.93    388.67    886.38    386.94    885.59    385.60  " /><path style="stroke-width: 0.85 ;&st7;   " d=" M   885.59,   385.60  C   885.19    384.93    884.61    384.50    883.85    384.31  " /><path style="stroke-width: 0.85 ;&st7;   " d=" M   869.97,   388.47  C   869.18    387.13    867.45    386.69    866.11    387.48  " /><path style="stroke-width: 0.85 ;&st7;   " d=" M   866.11,   387.48  C   864.77    388.27    864.33    390.00    865.12    391.34  " /><path style="stroke-width: 0.85 ;&st7;   " d=" M   865.12,   391.34  C   865.65    392.23    866.53    392.73    867.56    392.72  " /><path style="stroke-width: 0.85 ;&st7;   " d=" M   866.86,   384.31  C   865.35    384.69    864.43    386.22    864.82    387.73  " /><path style="stroke-width: 0.85 ;&st7;   " d=" M   864.82,   387.73  C   865.20    389.24    866.73    390.15    868.24    389.77  " /><path style="stroke-width: 0.85 ;&st7;   " d=" M   868.24,   389.77  C   869.00    389.58    869.57    389.14    869.97    388.47  " /><path style="stroke-width: 1.42 ;&st7;   " d=" M   879.60,   401.22  C   886.64    401.22    892.35    395.51    892.35    388.47  " /><path style="stroke-width: 1.42 ;&st7;   " d=" M   892.35,   388.47  C   892.35    381.43    886.64    375.72    879.60    375.72  " /><path style="stroke-width: 1.42 ;&st7;   " d=" M   871.10,   375.72  C   864.06    375.72    858.36    381.43    858.36    388.47  " /><path style="stroke-width: 1.42 ;&st7;   " d=" M   858.36,   388.47  C   858.36    395.51    864.06    401.22    871.10    401.22  " /><path style="stroke-width: 1.42 ;&st7;  " d=" M   875.35,   375.72  L   879.60,   375.72  " /><path style="stroke-width: 1.42 ;&st7;  " d=" M   875.35,   401.22  L   879.60,   401.22  " /><path style="stroke-width: 1.42 ;&st7;  " d=" M   875.35,   375.72  L   871.10,   375.72  " /><path style="stroke-width: 1.42 ;&st7;  " d=" M   875.35,   401.22  L   871.10,   401.22  " /><path style="stroke-width: 0.85 ;&st7;  " d=" M   874.16,   393.72  L   873.89,   393.25  L   873.80,   392.72  L   873.89,   392.19  L   874.16,   391.72  L   874.57,   391.37  L   875.08,   391.18  L   875.63,   391.18  L   876.13,   391.37  L   876.55,   391.72  L   876.82,   392.19  L   876.91,   392.72  L   876.82,   393.25  L   876.55,   393.72  L   876.13,   394.07  L   875.63,   394.26  L   875.08,   394.26  L   874.57,   394.07  L   874.16,   393.72  L   874.55,   393.01  L   874.55,   392.43  L   874.93,   391.98  L   875.50,   391.88  L   876.00,   392.17  L   876.20,   392.72  L   876.00,   393.27  L   875.50,   393.56  L   874.93,   393.46  L   875.35,   392.72  " /><text style="&st18;" transform="matrix(&st16;  869.17  409.41 )">3</text><text style="&st18;" transform="matrix(&st16;  877.67  372.76 )">1</text><text style="&st18;" transform="matrix(&st16;  860.67  372.76 )">2</text><g ewd:figtype="title"><text style="&st18;" transform="matrix(&st17;  900.24  404.12 )">A14</text><text style="&st18;" transform="matrix(&st17;  907.07  404.12 )" ewd:textID="10">Conjunto del faro RH</text></g></g><g ewd:figtype="conn" ewd:figID="16" ewd:code="A15"><path style="stroke-width: 0.85 ;&st7;  " d=" M   738.76,   392.72  L   730.88,   392.72  " /><path style="stroke-width: 0.85 ;&st7;  " d=" M   722.38,   376.45  L   722.38,   384.31  " /><path style="stroke-width: 0.85 ;&st7;  " d=" M   739.38,   376.45  L   739.38,   384.31  " /><path style="stroke-width: 0.85 ;&st7;  " d=" M   730.88,   392.72  L   722.99,   392.72  " /><path style="stroke-width: 0.85 ;&st7;  " d=" M   730.88,   401.22  L   730.88,   392.72  " /><path style="stroke-width: 0.85 ;&st7;   " d=" M   738.67,   392.72  C   740.22    392.73    741.49    391.48    741.50    389.92  " /><path style="stroke-width: 0.85 ;&st7;   " d=" M   741.50,   389.92  C   741.51    388.37    740.26    387.10    738.70    387.09  " /><path style="stroke-width: 0.85 ;&st7;   " d=" M   738.70,   387.09  C   737.67    387.08    736.79    387.58    736.26    388.47  " /><path style="stroke-width: 0.85 ;&st7;   " d=" M   736.26,   388.47  C   737.05    389.81    738.78    390.25    740.12    389.46  " /><path style="stroke-width: 0.85 ;&st7;   " d=" M   740.12,   389.46  C   741.46    388.67    741.90    386.94    741.11    385.60  " /><path style="stroke-width: 0.85 ;&st7;   " d=" M   741.11,   385.60  C   740.71    384.93    740.13    384.50    739.38    384.31  " /><path style="stroke-width: 0.85 ;&st7;   " d=" M   725.50,   388.47  C   724.70    387.13    722.98    386.69    721.64    387.48  " /><path style="stroke-width: 0.85 ;&st7;   " d=" M   721.64,   387.48  C   720.30    388.27    719.85    390.00    720.65    391.34  " /><path style="stroke-width: 0.85 ;&st7;   " d=" M   720.65,   391.34  C   721.17    392.23    722.05    392.73    723.09    392.72  " /><path style="stroke-width: 0.85 ;&st7;   " d=" M   722.38,   384.31  C   720.87    384.69    719.96    386.22    720.34    387.73  " /><path style="stroke-width: 0.85 ;&st7;   " d=" M   720.34,   387.73  C   720.72    389.24    722.25    390.15    723.76    389.77  " /><path style="stroke-width: 0.85 ;&st7;   " d=" M   723.76,   389.77  C   724.52    389.58    725.10    389.14    725.50    388.47  " /><path style="stroke-width: 1.42 ;&st7;   " d=" M   735.13,   401.22  C   742.17    401.22    747.88    395.51    747.88    388.47  " /><path style="stroke-width: 1.42 ;&st7;   " d=" M   747.88,   388.47  C   747.88    381.43    742.17    375.72    735.13    375.72  " /><path style="stroke-width: 1.42 ;&st7;   " d=" M   726.63,   375.72  C   719.59    375.72    713.88    381.43    713.88    388.47  " /><path style="stroke-width: 1.42 ;&st7;   " d=" M   713.88,   388.47  C   713.88    395.51    719.59    401.22    726.63    401.22  " /><path style="stroke-width: 1.42 ;&st7;  " d=" M   730.88,   375.72  L   735.13,   375.72  " /><path style="stroke-width: 1.42 ;&st7;  " d=" M   730.88,   401.22  L   735.13,   401.22  " /><path style="stroke-width: 1.42 ;&st7;  " d=" M   730.88,   375.72  L   726.63,   375.72  " /><path style="stroke-width: 1.42 ;&st7;  " d=" M   730.88,   401.22  L   726.63,   401.22  " /><path style="stroke-width: 0.85 ;&st7;  " d=" M   729.68,   393.72  L   729.41,   393.25  L   729.32,   392.72  L   729.41,   392.19  L   729.68,   391.72  L   730.10,   391.37  L   730.61,   391.18  L   731.15,   391.18  L   731.66,   391.37  L   732.07,   391.72  L   732.34,   392.19  L   732.44,   392.72  L   732.34,   393.25  L   732.07,   393.72  L   731.66,   394.07  L   731.15,   394.26  L   730.61,   394.26  L   730.10,   394.07  L   729.68,   393.72  L   730.08,   393.01  L   730.08,   392.43  L   730.45,   391.98  L   731.02,   391.88  L   731.53,   392.17  L   731.73,   392.72  L   731.53,   393.27  L   731.02,   393.56  L   730.45,   393.46  L   730.88,   392.72  " /><text style="&st18;" transform="matrix(&st16;  716.2  372.76 )">2</text><text style="&st18;" transform="matrix(&st16;  724.69  409.41 )">3</text><text style="&st18;" transform="matrix(&st16;  733.19  372.76 )">1</text><g ewd:figtype="title"><text style="&st18;" transform="matrix(&st17;  762.59  404.12 )" ewd:textID="9">Conjunto del faro LH</text><text style="&st18;" transform="matrix(&st17;  755.77  404.12 )">A15</text></g></g><g ewd:figtype="jb" ewd:figID="24" ewd:code="3"><path style="stroke-width: 0.85 ;&st7;  " d=" M  1104.82,   171.76  L  1104.82,   180.26  " /><path style="stroke-width: 0.85 ;&st7;  " d=" M  1104.82,   146.26  L  1104.82,   154.76  " /><path style="stroke-width: 0.85 ;&st7;  " d=" M  1130.31,   146.26  L  1130.31,   150.51  " /><path style="stroke-width: 0.85 ;&st7;  " d=" M  1130.31,   180.26  L  1130.31,   176.01  " /><path style="stroke-width: 1.42 ;&st7;  " d=" M  1130.31,   173.17  L  1135.98,   150.51  " /><path style="stroke-width: 0.85 ;&st7;  " d=" M  1198.30,   171.76  L  1198.30,   180.26  " /><path style="stroke-width: 0.85 ;&st7;  " d=" M  1198.30,   146.26  L  1198.30,   154.76  " /><path style="stroke-width: 0.85 ;&st7;  " d=" M  1223.80,   146.26  L  1223.80,   150.51  " /><path style="stroke-width: 0.85 ;&st7;  " d=" M  1223.80,   180.26  L  1223.80,   176.01  " /><path style="stroke-width: 1.42 ;&st7;  " d=" M  1223.80,   173.17  L  1229.46,   150.51  " /><path style="stroke-width: 1.42 ;&st7;  " d=" M   885.98,   239.75  L   881.73,   239.75  " /><path style="stroke-width: 1.42 ;&st7;  " d=" M   885.98,   231.25  L   881.73,   231.25  " /><path style="stroke-width: 1.42 ;&st7;  " d=" M   800.99,   239.75  L   796.74,   239.75  " /><path style="stroke-width: 1.42 ;&st7;  " d=" M   800.99,   231.25  L   796.74,   231.25  " /><path style="stroke-width: 1.42 ;&st7;  " d=" M  1421.39,   239.75  L  1417.14,   239.75  " /><path style="stroke-width: 1.42 ;&st7;  " d=" M  1421.39,   231.25  L  1417.14,   231.25  " /><path style="stroke-width: 0.85 ;&st7;  " d=" M  1283.29,   171.76  L  1283.29,   180.26  " /><path style="stroke-width: 1.42 ;&st7;  " d=" M  1361.90,   239.75  L  1357.65,   239.75  " /><path style="stroke-width: 1.42 ;&st7;  " d=" M  1361.90,   231.25  L  1357.65,   231.25  " /><path style="stroke-width: 0.85 ;&st7;  " d=" M  1283.29,   146.26  L  1283.29,   154.76  " /><path style="stroke-width: 0.85 ;&st7;  " d=" M  1308.78,   146.26  L  1308.78,   150.51  " /><path style="stroke-width: 0.85 ;&st7;  " d=" M  1308.78,   180.26  L  1308.78,   176.01  " /><path style="stroke-width: 1.42 ;&st7;  " d=" M  1308.78,   173.17  L  1314.45,   150.51  " /><path style="stroke-width: 0.85 ;&st7;  " d=" M   798.87,   163.26  L   798.87,   231.25  " /><path style="stroke-width: 0.85 ;&st7;  " d=" M   883.85,   163.26  L   883.85,   231.25  " /><path style="stroke-width: 0.85 ;&st7;  " d=" M  1359.77,   163.26  L  1359.77,   171.76  " /><path style="stroke-width: 0.85 ;&st7;  " d=" M  1419.26,   163.26  L  1419.26,   171.76  " /><path style="stroke-width: 1.42 ;&st7;  " d=" M  1489.38,   231.25  L  1485.13,   231.25  " /><path style="stroke-width: 1.42 ;&st7;  " d=" M  1489.38,   239.75  L  1485.13,   239.75  " /><path style="stroke-width: 0.85 ;&st7;   " d=" M  1104.82,   171.76  C  1106.77    171.76   1108.36    170.17   1108.36    168.22  " /><path style="stroke-width: 0.85 ;&st7;   " d=" M  1108.36,   168.22  C  1108.36    166.26   1106.77    164.67   1104.82    164.67  " /><path style="stroke-width: 0.85 ;&st7;   " d=" M  1104.82,   164.67  C  1103.82    164.67   1102.98    165.03   1102.29    165.74  " /><path style="stroke-width: 0.85 ;&st7;   " d=" M  1102.29,   165.74  C  1103.65    167.13   1105.90    167.16   1107.29    165.79  " /><path style="stroke-width: 0.85 ;&st7;   " d=" M  1107.29,   165.79  C  1108.69    164.42   1108.71    162.18   1107.35    160.78  " /><path style="stroke-width: 0.85 ;&st7;   " d=" M  1107.35,   160.78  C  1105.98    159.38   1103.73    159.36   1102.34    160.73  " /><path style="stroke-width: 0.85 ;&st7;   " d=" M  1102.34,   160.73  C  1102.32    160.75   1102.30    160.76   1102.29    160.78  " /><path style="stroke-width: 0.85 ;&st7;   " d=" M  1102.29,   160.78  C  1103.65    162.18   1105.90    162.20   1107.29    160.83  " /><path style="stroke-width: 0.85 ;&st7;   " d=" M  1107.29,   160.83  C  1108.69    159.46   1108.71    157.22   1107.35    155.82  " /><path style="stroke-width: 0.85 ;&st7;   " d=" M  1107.35,   155.82  C  1106.65    155.11   1105.81    154.76   1104.82    154.76  " /><path style="stroke-width: 0.85 ;&st7;   " d=" M  1131.73,   151.93  C  1131.73    151.14   1131.09    150.51   1130.31    150.51  " /><path style="stroke-width: 0.85 ;&st7;   " d=" M  1130.31,   150.51  C  1129.53    150.51   1128.89    151.14   1128.89    151.93  " /><path style="stroke-width: 0.85 ;&st7;   " d=" M  1128.89,   151.93  C  1128.89    152.71   1129.53    153.34   1130.31    153.34  " /><path style="stroke-width: 0.85 ;&st7;   " d=" M  1130.31,   153.34  C  1131.09    153.34   1131.73    152.71   1131.73    151.93  " /><path style="stroke-width: 0.85 ;&st7;   " d=" M  1131.73,   174.59  C  1131.73    173.81   1131.09    173.17   1130.31    173.17  " /><path style="stroke-width: 0.85 ;&st7;   " d=" M  1130.31,   173.17  C  1129.53    173.17   1128.89    173.81   1128.89    174.59  " /><path style="stroke-width: 0.85 ;&st7;   " d=" M  1128.89,   174.59  C  1128.89    175.37   1129.53    176.01   1130.31    176.01  " /><path style="stroke-width: 0.85 ;&st7;   " d=" M  1130.31,   176.01  C  1131.09    176.01   1131.73    175.37   1131.73    174.59  " /><path style="stroke-width: 0.85 ;&st7;   " d=" M  1198.30,   171.76  C  1200.26    171.76   1201.84    170.17   1201.84    168.22  " /><path style="stroke-width: 0.85 ;&st7;   " d=" M  1201.84,   168.22  C  1201.84    166.26   1200.26    164.67   1198.30    164.67  " /><path style="stroke-width: 0.85 ;&st7;   " d=" M  1198.30,   164.67  C  1197.31    164.67   1196.46    165.03   1195.77    165.74  " /><path style="stroke-width: 0.85 ;&st7;   " d=" M  1195.77,   165.74  C  1197.14    167.13   1199.38    167.16   1200.78    165.79  " /><path style="stroke-width: 0.85 ;&st7;   " d=" M  1200.78,   165.79  C  1202.18    164.42   1202.20    162.18   1200.83    160.78  " /><path style="stroke-width: 0.85 ;&st7;   " d=" M  1200.83,   160.78  C  1199.46    159.38   1197.22    159.36   1195.82    160.73  " /><path style="stroke-width: 0.85 ;&st7;   " d=" M  1195.82,   160.73  C  1195.80    160.75   1195.79    160.76   1195.77    160.78  " /><path style="stroke-width: 0.85 ;&st7;   " d=" M  1195.77,   160.78  C  1197.14    162.18   1199.38    162.20   1200.78    160.83  " /><path style="stroke-width: 0.85 ;&st7;   " d=" M  1200.78,   160.83  C  1202.18    159.46   1202.20    157.22   1200.83    155.82  " /><path style="stroke-width: 0.85 ;&st7;   " d=" M  1200.83,   155.82  C  1200.14    155.11   1199.29    154.76   1198.30    154.76  " /><path style="stroke-width: 0.85 ;&st7;   " d=" M  1225.21,   151.93  C  1225.21    151.14   1224.58    150.51   1223.80    150.51  " /><path style="stroke-width: 0.85 ;&st7;   " d=" M  1223.80,   150.51  C  1223.01    150.51   1222.38    151.14   1222.38    151.93  " /><path style="stroke-width: 0.85 ;&st7;   " d=" M  1222.38,   151.93  C  1222.38    152.71   1223.01    153.34   1223.80    153.34  " /><path style="stroke-width: 0.85 ;&st7;   " d=" M  1223.80,   153.34  C  1224.58    153.34   1225.21    152.71   1225.21    151.93  " /><path style="stroke-width: 0.85 ;&st7;   " d=" M  1225.21,   174.59  C  1225.21    173.81   1224.58    173.17   1223.80    173.17  " /><path style="stroke-width: 0.85 ;&st7;   " d=" M  1223.80,   173.17  C  1223.01    173.17   1222.38    173.81   1222.38    174.59  " /><path style="stroke-width: 0.85 ;&st7;   " d=" M  1222.38,   174.59  C  1222.38    175.37   1223.01    176.01   1223.80    176.01  " /><path style="stroke-width: 0.85 ;&st7;   " d=" M  1223.80,   176.01  C  1224.58    176.01   1225.21    175.37   1225.21    174.59  " /><path style="stroke-width: 1.42 ;&st7;   " d=" M   890.23,   235.50  C   890.23    233.15    888.32    231.25    885.98    231.25  " /><path style="stroke-width: 1.42 ;&st7;   " d=" M   885.98,   239.75  C   888.32    239.75    890.23    237.84    890.23    235.50  " /><path style="stroke-width: 1.42 ;&st7;   " d=" M   877.48,   235.50  C   877.48    237.84    879.38    239.75    881.73    239.75  " /><path style="stroke-width: 1.42 ;&st7;   " d=" M   881.73,   231.25  C   879.38    231.25    877.48    233.15    877.48    235.50  " /><path style="stroke-width: 1.42 ;&st7;   " d=" M   805.24,   235.50  C   805.24    233.15    803.34    231.25    800.99    231.25  " /><path style="stroke-width: 1.42 ;&st7;   " d=" M   800.99,   239.75  C   803.34    239.75    805.24    237.84    805.24    235.50  " /><path style="stroke-width: 1.42 ;&st7;   " d=" M   792.49,   235.50  C   792.49    237.84    794.40    239.75    796.74    239.75  " /><path style="stroke-width: 1.42 ;&st7;   " d=" M   796.74,   231.25  C   794.40    231.25    792.49    233.15    792.49    235.50  " /><path style="stroke-width: 1.42 ;&st7;   " d=" M  1425.64,   235.50  C  1425.64    233.15   1423.73    231.25   1421.39    231.25  " /><path style="stroke-width: 1.42 ;&st7;   " d=" M  1421.39,   239.75  C  1423.73    239.75   1425.64    237.84   1425.64    235.50  " /><path style="stroke-width: 1.42 ;&st7;   " d=" M  1412.89,   235.50  C  1412.89    237.84   1414.79    239.75   1417.14    239.75  " /><path style="stroke-width: 1.42 ;&st7;   " d=" M  1417.14,   231.25  C  1414.79    231.25   1412.89    233.15   1412.89    235.50  " /><path style="stroke-width: 0.85 ;&st7;   " d=" M  1283.29,   171.76  C  1285.24    171.76   1286.83    170.17   1286.83    168.22  " /><path style="stroke-width: 0.85 ;&st7;   " d=" M  1286.83,   168.22  C  1286.83    166.26   1285.24    164.67   1283.29    164.67  " /><path style="stroke-width: 0.85 ;&st7;   " d=" M  1283.29,   164.67  C  1282.30    164.67   1281.45    165.03   1280.76    165.74  " /><path style="stroke-width: 0.85 ;&st7;   " d=" M  1280.76,   165.74  C  1282.12    167.13   1284.37    167.16   1285.76    165.79  " /><path style="stroke-width: 0.85 ;&st7;   " d=" M  1285.76,   165.79  C  1287.16    164.42   1287.18    162.18   1285.82    160.78  " /><path style="stroke-width: 0.85 ;&st7;   " d=" M  1285.82,   160.78  C  1284.45    159.38   1282.20    159.36   1280.81    160.73  " /><path style="stroke-width: 0.85 ;&st7;   " d=" M  1280.81,   160.73  C  1280.79    160.75   1280.77    160.76   1280.76    160.78  " /><path style="stroke-width: 0.85 ;&st7;   " d=" M  1280.76,   160.78  C  1282.12    162.18   1284.37    162.20   1285.76    160.83  " /><path style="stroke-width: 0.85 ;&st7;   " d=" M  1285.76,   160.83  C  1287.16    159.46   1287.18    157.22   1285.82    155.82  " /><path style="stroke-width: 0.85 ;&st7;   " d=" M  1285.82,   155.82  C  1285.12    155.11   1284.28    154.76   1283.29    154.76  " /><path style="stroke-width: 0.85 ;&st7;   " d=" M  1310.20,   151.93  C  1310.20    151.14   1309.56    150.51   1308.78    150.51  " /><path style="stroke-width: 0.85 ;&st7;   " d=" M  1308.78,   150.51  C  1308.00    150.51   1307.36    151.14   1307.36    151.93  " /><path style="stroke-width: 0.85 ;&st7;   " d=" M  1307.36,   151.93  C  1307.36    152.71   1308.00    153.34   1308.78    153.34  " /><path style="stroke-width: 0.85 ;&st7;   " d=" M  1308.78,   153.34  C  1309.56    153.34   1310.20    152.71   1310.20    151.93  " /><path style="stroke-width: 0.85 ;&st7;   " d=" M  1310.20,   174.59  C  1310.20    173.81   1309.56    173.17   1308.78    173.17  " /><path style="stroke-width: 0.85 ;&st7;   " d=" M  1308.78,   173.17  C  1308.00    173.17   1307.36    173.81   1307.36    174.59  " /><path style="stroke-width: 0.85 ;&st7;   " d=" M  1307.36,   174.59  C  1307.36    175.37   1308.00    176.01   1308.78    176.01  " /><path style="stroke-width: 0.85 ;&st7;   " d=" M  1308.78,   176.01  C  1309.56    176.01   1310.20    175.37   1310.20    174.59  " /><path style="stroke-width: 1.42 ;&st7;   " d=" M  1366.15,   235.50  C  1366.15    233.15   1364.24    231.25   1361.90    231.25  " /><path style="stroke-width: 1.42 ;&st7;   " d=" M  1361.90,   239.75  C  1364.24    239.75   1366.15    237.84   1366.15    235.50  " /><path style="stroke-width: 1.42 ;&st7;   " d=" M  1353.40,   235.50  C  1353.40    237.84   1355.30    239.75   1357.65    239.75  " /><path style="stroke-width: 1.42 ;&st7;   " d=" M  1357.65,   231.25  C  1355.30    231.25   1353.40    233.15   1353.40    235.50  " /><path style="stroke-width: 1.42 ;&st7;   " d=" M   798.87,   140.60  C   796.13    142.21    795.22    145.74    796.83    148.47  " /><path style="stroke-width: 1.42 ;&st7;   " d=" M   796.83,   148.47  C   797.35    149.36    797.98    149.99    798.87    150.51  " /><path style="stroke-width: 1.42 ;&st7;   " d=" M   798.87,   160.43  C   801.60    158.81    802.52    155.28    800.90    152.55  " /><path style="stroke-width: 1.42 ;&st7;   " d=" M   800.90,   152.55  C   800.38    151.67    799.75    151.03    798.87    150.51  " /><path style="stroke-width: 0.85 ;&st7;   " d=" M   800.28,   139.18  C   800.28    138.40    799.65    137.76    798.87    137.76  " /><path style="stroke-width: 0.85 ;&st7;   " d=" M   798.87,   137.76  C   798.08    137.76    797.45    138.40    797.45    139.18  " /><path style="stroke-width: 0.85 ;&st7;   " d=" M   797.45,   139.18  C   797.45    139.96    798.08    140.60    798.87    140.60  " /><path style="stroke-width: 0.85 ;&st7;   " d=" M   798.87,   140.60  C   799.65    140.60    800.28    139.96    800.28    139.18  " /><path style="stroke-width: 0.85 ;&st7;   " d=" M   800.28,   161.84  C   800.28    161.06    799.65    160.43    798.87    160.43  " /><path style="stroke-width: 0.85 ;&st7;   " d=" M   798.87,   160.43  C   798.08    160.43    797.45    161.06    797.45    161.84  " /><path style="stroke-width: 0.85 ;&st7;   " d=" M   797.45,   161.84  C   797.45    162.62    798.08    163.26    798.87    163.26  " /><path style="stroke-width: 0.85 ;&st7;   " d=" M   798.87,   163.26  C   799.65    163.26    800.28    162.62    800.28    161.84  " /><path style="stroke-width: 1.42 ;&st7;   " d=" M   883.85,   140.60  C   881.11    142.21    880.20    145.74    881.82    148.47  " /><path style="stroke-width: 1.42 ;&st7;   " d=" M   881.82,   148.47  C   882.34    149.36    882.97    149.99    883.85    150.51  " /><path style="stroke-width: 1.42 ;&st7;   " d=" M   883.85,   160.43  C   886.59    158.81    887.50    155.28    885.89    152.55  " /><path style="stroke-width: 1.42 ;&st7;   " d=" M   885.89,   152.55  C   885.37    151.67    884.73    151.03    883.85    150.51  " /><path style="stroke-width: 0.85 ;&st7;   " d=" M   885.27,   139.18  C   885.27    138.40    884.63    137.76    883.85    137.76  " /><path style="stroke-width: 0.85 ;&st7;   " d=" M   883.85,   137.76  C   883.07    137.76    882.44    138.40    882.44    139.18  " /><path style="stroke-width: 0.85 ;&st7;   " d=" M   882.44,   139.18  C   882.44    139.96    883.07    140.60    883.85    140.60  " /><path style="stroke-width: 0.85 ;&st7;   " d=" M   883.85,   140.60  C   884.63    140.60    885.27    139.96    885.27    139.18  " /><path style="stroke-width: 0.85 ;&st7;   " d=" M   885.27,   161.84  C   885.27    161.06    884.63    160.43    883.85    160.43  " /><path style="stroke-width: 0.85 ;&st7;   " d=" M   883.85,   160.43  C   883.07    160.43    882.44    161.06    882.44    161.84  " /><path style="stroke-width: 0.85 ;&st7;   " d=" M   882.44,   161.84  C   882.44    162.62    883.07    163.26    883.85    163.26  " /><path style="stroke-width: 0.85 ;&st7;   " d=" M   883.85,   163.26  C   884.63    163.26    885.27    162.62    885.27    161.84  " /><path style="stroke-width: 0.85 ;&st7;   " d=" M  1361.19,   161.84  C  1361.19    161.06   1360.56    160.43   1359.77    160.43  " /><path style="stroke-width: 0.85 ;&st7;   " d=" M  1359.77,   160.43  C  1358.99    160.43   1358.36    161.06   1358.36    161.84  " /><path style="stroke-width: 0.85 ;&st7;   " d=" M  1358.36,   161.84  C  1358.36    162.62   1358.99    163.26   1359.77    163.26  " /><path style="stroke-width: 0.85 ;&st7;   " d=" M  1359.77,   163.26  C  1360.56    163.26   1361.19    162.62   1361.19    161.84  " /><path style="stroke-width: 0.85 ;&st7;   " d=" M  1361.19,   139.18  C  1361.19    138.40   1360.56    137.76   1359.77    137.76  " /><path style="stroke-width: 0.85 ;&st7;   " d=" M  1359.77,   137.76  C  1358.99    137.76   1358.36    138.40   1358.36    139.18  " /><path style="stroke-width: 0.85 ;&st7;   " d=" M  1358.36,   139.18  C  1358.36    139.96   1358.99    140.60   1359.77    140.60  " /><path style="stroke-width: 0.85 ;&st7;   " d=" M  1359.77,   140.60  C  1360.56    140.60   1361.19    139.96   1361.19    139.18  " /><path style="stroke-width: 1.42 ;&st7;   " d=" M  1359.77,   160.43  C  1362.51    158.81   1363.42    155.28   1361.81    152.55  " /><path style="stroke-width: 1.42 ;&st7;   " d=" M  1361.81,   152.55  C  1361.29    151.67   1360.65    151.03   1359.77    150.51  " /><path style="stroke-width: 1.42 ;&st7;   " d=" M  1359.77,   140.60  C  1357.03    142.21   1356.12    145.74   1357.74    148.47  " /><path style="stroke-width: 1.42 ;&st7;   " d=" M  1357.74,   148.47  C  1358.26    149.36   1358.89    149.99   1359.77    150.51  " /><path style="stroke-width: 1.42 ;&st7;   " d=" M  1419.26,   140.60  C  1416.52    142.21   1415.61    145.74   1417.23    148.47  " /><path style="stroke-width: 1.42 ;&st7;   " d=" M  1417.23,   148.47  C  1417.75    149.36   1418.38    149.99   1419.26    150.51  " /><path style="stroke-width: 1.42 ;&st7;   " d=" M  1419.26,   160.43  C  1422.00    158.81   1422.91    155.28   1421.30    152.55  " /><path style="stroke-width: 1.42 ;&st7;   " d=" M  1421.30,   152.55  C  1420.78    151.67   1420.14    151.03   1419.26    150.51  " /><path style="stroke-width: 0.85 ;&st7;   " d=" M  1420.68,   139.18  C  1420.68    138.40   1420.05    137.76   1419.26    137.76  " /><path style="stroke-width: 0.85 ;&st7;   " d=" M  1419.26,   137.76  C  1418.48    137.76   1417.85    138.40   1417.85    139.18  " /><path style="stroke-width: 0.85 ;&st7;   " d=" M  1417.85,   139.18  C  1417.85    139.96   1418.48    140.60   1419.26    140.60  " /><path style="stroke-width: 0.85 ;&st7;   " d=" M  1419.26,   140.60  C  1420.05    140.60   1420.68    139.96   1420.68    139.18  " /><path style="stroke-width: 0.85 ;&st7;   " d=" M  1420.68,   161.84  C  1420.68    161.06   1420.05    160.43   1419.26    160.43  " /><path style="stroke-width: 0.85 ;&st7;   " d=" M  1419.26,   160.43  C  1418.48    160.43   1417.85    161.06   1417.85    161.84  " /><path style="stroke-width: 0.85 ;&st7;   " d=" M  1417.85,   161.84  C  1417.85    162.62   1418.48    163.26   1419.26    163.26  " /><path style="stroke-width: 0.85 ;&st7;   " d=" M  1419.26,   163.26  C  1420.05    163.26   1420.68    162.62   1420.68    161.84  " /><path style="stroke-width: 1.42 ;&st7;   " d=" M  1485.13,   231.25  C  1482.78    231.25   1480.88    233.15   1480.88    235.50  " /><path style="stroke-width: 1.42 ;&st7;   " d=" M  1480.88,   235.50  C  1480.88    237.84   1482.78    239.75   1485.13    239.75  " /><path style="stroke-width: 1.42 ;&st7;   " d=" M  1489.38,   239.75  C  1491.72    239.75   1493.63    237.84   1493.63    235.50  " /><path style="stroke-width: 1.42 ;&st7;   " d=" M  1493.63,   235.50  C  1493.63    233.15   1491.72    231.25   1489.38    231.25  " /><path style="stroke-width: 0.85 ;&st7;  " d=" M  1129.12,   213.25  L  1128.85,   213.72  L  1128.75,   214.25  L  1128.85,   214.78  L  1129.12,   215.25  L  1129.53,   215.60  L  1130.04,   215.79  L  1130.58,   215.79  L  1131.09,   215.60  L  1131.50,   215.25  L  1131.78,   214.78  L  1131.87,   214.25  L  1131.78,   213.72  L  1131.50,   213.25  L  1131.09,   212.90  L  1130.58,   212.71  L  1130.04,   212.71  L  1129.53,   212.90  L  1129.12,   213.25  L  1129.51,   213.96  L  1129.51,   214.54  L  1129.89,   214.99  L  1130.46,   215.09  L  1130.96,   214.80  L  1131.16,   214.25  L  1130.96,   213.70  L  1130.46,   213.41  L  1129.89,   213.51  L  1130.31,   214.25  " /><path style="stroke-width: 0.85 ;&st7;  " d=" M  1103.62,   128.26  L  1103.35,   128.73  L  1103.26,   129.26  L  1103.35,   129.80  L  1103.62,   130.27  L  1104.04,   130.61  L  1104.54,   130.80  L  1105.09,   130.80  L  1105.59,   130.61  L  1106.01,   130.27  L  1106.28,   129.80  L  1106.37,   129.26  L  1106.28,   128.73  L  1106.01,   128.26  L  1105.59,   127.92  L  1105.09,   127.73  L  1104.54,   127.73  L  1104.04,   127.92  L  1103.62,   128.26  L  1104.02,   128.97  L  1104.02,   129.56  L  1104.39,   130.00  L  1104.96,   130.10  L  1105.47,   129.81  L  1105.66,   129.26  L  1105.47,   128.72  L  1104.96,   128.43  L  1104.39,   128.53  L  1104.81,   129.26  " /><path style="stroke-width: 0.85 ;&st7;  " d=" M  1171.61,   196.25  L  1171.34,   196.72  L  1171.25,   197.25  L  1171.34,   197.79  L  1171.61,   198.26  L  1172.02,   198.60  L  1172.53,   198.79  L  1173.08,   198.79  L  1173.58,   198.60  L  1174.00,   198.26  L  1174.27,   197.79  L  1174.36,   197.25  L  1174.27,   196.72  L  1174.00,   196.25  L  1173.58,   195.90  L  1173.08,   195.72  L  1172.53,   195.72  L  1172.02,   195.90  L  1171.61,   196.25  L  1172.00,   196.96  L  1172.00,   197.54  L  1172.38,   197.99  L  1172.95,   198.09  L  1173.46,   197.80  L  1173.65,   197.25  L  1173.46,   196.71  L  1172.95,   196.42  L  1172.38,   196.52  L  1172.80,   197.25  " /><path style="stroke-width: 0.85 ;&st7;  " d=" M  1308.78,   146.26  L  1308.78,   112.27  L  1419.26,   112.27  L  1419.26,   129.26  " /><path style="stroke-width: 0.85 ;&st7;  " d=" M  1104.81,   129.26  L  1104.81,   146.26  " /><path style="stroke-width: 0.85 ;&st7;  " d=" M  1198.30,   146.26  L  1198.30,   129.26  L  1079.32,   129.26  " /><path style="stroke-width: 0.85 ;&st7;  " d=" M  1308.78,   180.26  L  1308.78,   214.25  " /><path style="stroke-width: 0.85 ;&st7;  " d=" M  1130.31,   180.26  L  1130.31,   214.25  " /><path style="stroke-width: 0.85 ;&st7;  " d=" M  1198.30,   180.26  L  1198.30,   197.25  L  1079.32,   197.25  L  1079.32,   171.76  L  1076.49,   170.34  L  1082.15,   167.51  L  1076.49,   164.67  L  1082.15,   161.84  L  1076.49,   159.01  L  1082.15,   156.18  L  1079.32,   154.76  L  1079.32,    78.27  " /><path style="stroke-width: 0.85 ;&st7;  " d=" M  1223.80,   180.26  L  1223.80,   214.25  " /><path style="stroke-width: 0.85 ;&st7;  " d=" M   798.87,   137.76  L   798.87,   129.26  " /><path style="stroke-width: 0.85 ;&st7;  " d=" M  1130.31,   146.26  L  1130.31,    95.27  L   798.87,    95.27  L   798.87,   129.26  " /><path style="stroke-width: 0.85 ;&st7;  " d=" M  1172.80,   197.25  L  1172.80,   171.76  L  1169.97,   170.34  L  1175.64,   167.51  L  1169.97,   164.67  L  1175.64,   161.84  L  1169.97,   159.01  L  1175.64,   156.18  L  1172.80,   154.76  L  1172.80,   129.26  " /><path style="stroke-width: 0.85 ;&st7;  " d=" M  1257.79,   214.25  L  1257.79,   171.76  L  1254.96,   170.34  L  1260.62,   167.51  L  1254.96,   164.67  L  1260.62,   161.84  L  1254.96,   159.01  L  1260.62,   156.18  L  1257.79,   154.76  L  1257.79,   129.26  L  1283.29,   129.26  " /><path style="stroke-width: 1.13 ;&st7; stroke-dasharray:3, 3;" d=" M  1138.81,   146.26  L  1096.32,   146.26  L  1096.32,   180.26  L  1138.81,   180.26  L  1138.81,   146.26  " /><path style="stroke-width: 0.85 ;&st7;  " d=" M   883.85,   129.26  L   883.85,   137.76  " /><path style="stroke-width: 1.42 ;&st7;  " d=" M   786.12,   129.26  L   786.12,   171.76  L   811.61,   171.76  L   811.61,   129.26  L   786.12,   129.26  " /><path style="stroke-width: 1.42 ;&st7;  " d=" M   871.10,   129.26  L   871.10,   171.76  L   896.60,   171.76  L   896.60,   129.26  L   871.10,   129.26  " /><path style="stroke-width: 0.85 ;&st7;  " d=" M  1223.80,   146.26  L  1223.80,   112.27  L   883.85,   112.27  L   883.85,   129.26  " /><path style="stroke-width: 1.13 ;&st7; stroke-dasharray:3, 3;" d=" M  1232.29,   146.26  L  1189.80,   146.26  L  1189.80,   180.26  L  1232.29,   180.26  L  1232.29,   146.26  " /><path style="stroke-width: 0.85 ;&st7;  " d=" M  1283.29,   180.26  L  1283.29,   214.25  " /><path style="stroke-width: 0.28 ;&st9;  " d=" M   883.85,   226.35  L   881.02,   223.52  L   881.02,   227.77  L   883.85,   230.60  L   886.68,   227.77  L   886.68,   223.52  L   883.85,   226.35  " /><path style="stroke-width: 0.28 ;&st9;  " d=" M   798.87,   226.35  L   796.03,   223.52  L   796.03,   227.77  L   798.87,   230.60  L   801.70,   227.77  L   801.70,   223.52  L   798.87,   226.35  " /><path style="stroke-width: 0.85 ;&st7;  " d=" M  1419.26,   171.76  L  1419.26,   231.25  " /><path style="stroke-width: 0.85 ;&st7;  " d=" M  1359.77,   171.76  L  1359.77,   231.25  " /><path style="stroke-width: 0.28 ;&st9;  " d=" M  1419.26,   226.35  L  1416.43,   223.52  L  1416.43,   227.77  L  1419.26,   230.60  L  1422.10,   227.77  L  1422.10,   223.52  L  1419.26,   226.35  " /><path style="stroke-width: 0.85 ;&st7;  " d=" M  1283.29,   146.26  L  1283.29,    78.27  " /><path style="stroke-width: 1.13 ;&st7; stroke-dasharray:3, 3;" d=" M  1317.28,   146.26  L  1274.79,   146.26  L  1274.79,   180.26  L  1317.28,   180.26  L  1317.28,   146.26  " /><path style="stroke-width: 0.28 ;&st9;  " d=" M  1359.77,   226.35  L  1356.94,   223.52  L  1356.94,   227.77  L  1359.77,   230.60  L  1362.61,   227.77  L  1362.61,   223.52  L  1359.77,   226.35  " /><path style="stroke-width: 0.85 ;&st7;  " d=" M  1359.77,   112.27  L  1359.77,   129.26  " /><path style="stroke-width: 0.85 ;&st7;  " d=" M  1358.58,   111.26  L  1358.31,   111.73  L  1358.21,   112.27  L  1358.31,   112.80  L  1358.58,   113.27  L  1358.99,   113.62  L  1359.50,   113.80  L  1360.04,   113.80  L  1360.55,   113.62  L  1360.96,   113.27  L  1361.24,   112.80  L  1361.33,   112.27  L  1361.24,   111.73  L  1360.96,   111.26  L  1360.55,   110.92  L  1360.04,   110.73  L  1359.50,   110.73  L  1358.99,   110.92  L  1358.58,   111.26  L  1358.97,   111.98  L  1358.97,   112.56  L  1359.35,   113.00  L  1359.92,   113.10  L  1360.42,   112.81  L  1360.62,   112.27  L  1360.42,   111.72  L  1359.92,   111.43  L  1359.35,   111.53  L  1359.77,   112.27  " /><path style="stroke-width: 1.42 ;&st7;  " d=" M  1347.02,   129.26  L  1347.02,   171.76  L  1372.52,   171.76  L  1372.52,   129.26  L  1347.02,   129.26  " /><path style="stroke-width: 0.85 ;&st7;  " d=" M  1359.77,   129.26  L  1359.77,   137.76  " /><path style="stroke-width: 0.85 ;&st7;  " d=" M  1419.26,   129.26  L  1419.26,   137.76  " /><path style="stroke-width: 1.42 ;&st7;  " d=" M  1406.51,   129.26  L  1406.51,   171.76  L  1432.01,   171.76  L  1432.01,   129.26  L  1406.51,   129.26  " /><path style="stroke-width: 0.85 ;&st7;  " d=" M  1171.61,   128.26  L  1171.34,   128.73  L  1171.25,   129.26  L  1171.34,   129.80  L  1171.61,   130.27  L  1172.02,   130.61  L  1172.53,   130.80  L  1173.08,   130.80  L  1173.58,   130.61  L  1174.00,   130.27  L  1174.27,   129.80  L  1174.36,   129.26  L  1174.27,   128.73  L  1174.00,   128.26  L  1173.58,   127.92  L  1173.08,   127.73  L  1172.53,   127.73  L  1172.02,   127.92  L  1171.61,   128.26  L  1172.00,   128.97  L  1172.00,   129.56  L  1172.38,   130.00  L  1172.95,   130.10  L  1173.46,   129.81  L  1173.65,   129.26  L  1173.46,   128.72  L  1172.95,   128.43  L  1172.38,   128.53  L  1172.80,   129.26  " /><path style="stroke-width: 0.85 ;&st7;  " d=" M  1282.09,   128.26  L  1281.82,   128.73  L  1281.73,   129.26  L  1281.82,   129.80  L  1282.09,   130.27  L  1282.51,   130.61  L  1283.01,   130.80  L  1283.56,   130.80  L  1284.06,   130.61  L  1284.48,   130.27  L  1284.75,   129.80  L  1284.84,   129.26  L  1284.75,   128.73  L  1284.48,   128.26  L  1284.06,   127.92  L  1283.56,   127.73  L  1283.01,   127.73  L  1282.51,   127.92  L  1282.09,   128.26  L  1282.49,   128.97  L  1282.49,   129.56  L  1282.86,   130.00  L  1283.43,   130.10  L  1283.94,   129.81  L  1284.13,   129.26  L  1283.94,   128.72  L  1283.43,   128.43  L  1282.86,   128.53  L  1283.29,   129.26  " /><path style="stroke-width: 0.85 ;&st7;  " d=" M  1104.81,   180.26  L  1104.81,   214.25  " /><path style="stroke-width: 0.85 ;&st7;  " d=" M  1103.62,   196.25  L  1103.35,   196.72  L  1103.26,   197.25  L  1103.35,   197.79  L  1103.62,   198.26  L  1104.04,   198.60  L  1104.54,   198.79  L  1105.09,   198.79  L  1105.59,   198.60  L  1106.01,   198.26  L  1106.28,   197.79  L  1106.37,   197.25  L  1106.28,   196.72  L  1106.01,   196.25  L  1105.59,   195.90  L  1105.09,   195.72  L  1104.54,   195.72  L  1104.04,   195.90  L  1103.62,   196.25  L  1104.02,   196.96  L  1104.02,   197.54  L  1104.39,   197.99  L  1104.96,   198.09  L  1105.47,   197.80  L  1105.66,   197.25  L  1105.47,   196.71  L  1104.96,   196.42  L  1104.39,   196.52  L  1104.81,   197.25  " /><path style="stroke-width: 0.85 ;&st7;  " d=" M  1078.13,   128.26  L  1077.85,   128.73  L  1077.76,   129.26  L  1077.85,   129.80  L  1078.13,   130.27  L  1078.54,   130.61  L  1079.05,   130.80  L  1079.59,   130.80  L  1080.10,   130.61  L  1080.51,   130.27  L  1080.78,   129.80  L  1080.88,   129.26  L  1080.78,   128.73  L  1080.51,   128.26  L  1080.10,   127.92  L  1079.59,   127.73  L  1079.05,   127.73  L  1078.54,   127.92  L  1078.13,   128.26  L  1078.52,   128.97  L  1078.52,   129.56  L  1078.89,   130.00  L  1079.47,   130.10  L  1079.97,   129.81  L  1080.17,   129.26  L  1079.97,   128.72  L  1079.47,   128.43  L  1078.89,   128.53  L  1079.32,   129.26  " /><path style="stroke-width: 0.85 ;&st7;  " d=" M  1256.60,   213.25  L  1256.32,   213.72  L  1256.23,   214.25  L  1256.32,   214.78  L  1256.60,   215.25  L  1257.01,   215.60  L  1257.52,   215.79  L  1258.06,   215.79  L  1258.57,   215.60  L  1258.98,   215.25  L  1259.25,   214.78  L  1259.35,   214.25  L  1259.25,   213.72  L  1258.98,   213.25  L  1258.57,   212.90  L  1258.06,   212.71  L  1257.52,   212.71  L  1257.01,   212.90  L  1256.60,   213.25  L  1256.99,   213.96  L  1256.99,   214.54  L  1257.36,   214.99  L  1257.94,   215.09  L  1258.44,   214.80  L  1258.64,   214.25  L  1258.44,   213.70  L  1257.94,   213.41  L  1257.36,   213.51  L  1257.79,   214.25  " /><path style="stroke-width: 0.28 ;&st9;  " d=" M  1487.25,   226.35  L  1484.42,   223.52  L  1484.42,   227.77  L  1487.25,   230.60  L  1490.08,   227.77  L  1490.08,   223.52  L  1487.25,   226.35  " /><path style="stroke-width: 0.85 ;&st7;  " d=" M  1104.81,   214.25  L  1487.25,   214.25  L  1487.25,   231.25  " /><path style="stroke-width: 0.85 ;&st7;  " d=" M  1282.09,   213.25  L  1281.82,   213.72  L  1281.73,   214.25  L  1281.82,   214.78  L  1282.09,   215.25  L  1282.51,   215.60  L  1283.01,   215.79  L  1283.56,   215.79  L  1284.06,   215.60  L  1284.48,   215.25  L  1284.75,   214.78  L  1284.84,   214.25  L  1284.75,   213.72  L  1284.48,   213.25  L  1284.06,   212.90  L  1283.56,   212.71  L  1283.01,   212.71  L  1282.51,   212.90  L  1282.09,   213.25  L  1282.49,   213.96  L  1282.49,   214.54  L  1282.86,   214.99  L  1283.43,   215.09  L  1283.94,   214.80  L  1284.13,   214.25  L  1283.94,   213.70  L  1283.43,   213.41  L  1282.86,   213.51  L  1283.29,   214.25  " /><path style="stroke-width: 0.85 ;&st7;  " d=" M  1307.59,   213.25  L  1307.32,   213.72  L  1307.22,   214.25  L  1307.32,   214.78  L  1307.59,   215.25  L  1308.00,   215.60  L  1308.51,   215.79  L  1309.05,   215.79  L  1309.56,   215.60  L  1309.97,   215.25  L  1310.25,   214.78  L  1310.34,   214.25  L  1310.25,   213.72  L  1309.97,   213.25  L  1309.56,   212.90  L  1309.05,   212.71  L  1308.51,   212.71  L  1308.00,   212.90  L  1307.59,   213.25  L  1307.98,   213.96  L  1307.98,   214.54  L  1308.36,   214.99  L  1308.93,   215.09  L  1309.43,   214.80  L  1309.63,   214.25  L  1309.43,   213.70  L  1308.93,   213.41  L  1308.36,   213.51  L  1308.78,   214.25  " /><text style="&st18;" transform="matrix(&st16;  815.29  146.83 )">15A <tspan x="0 " dy="6.0">H-LP </tspan><tspan x="0 " dy="6.0">LO LH</tspan></text><text style="&st18;" transform="matrix(&st16;  900.28  146.83 )">15A <tspan x="0 " dy="6.0">H-LP </tspan><tspan x="0 " dy="6.0">LO RH</tspan></text><text style="&st18;" transform="matrix(&st17; 1146.45 181.88)" ewd:textID="7">Relé H-LP LH</text><text style="&st18;" transform="matrix(&st17;  1324.92  176.39 )" ewd:textID="5">Relé DIM</text><text style="&st18;" transform="matrix(&st17; 1239.93 181.88)" ewd:textID="8">Relé H-LP RH</text><text style="&st18;" transform="matrix(&st16;  870.24  237.47 )">10</text><text style="&st18;" transform="matrix(&st16;  879.88  237.47 )">3C</text><text style="&st18;" transform="matrix(&st16;  788.36  237.47 )">5</text><text style="&st18;" transform="matrix(&st16;  794.89  237.47 )">3C</text><text style="&st18;" transform="matrix(&st16;  1405.65  237.47 )">18</text><text style="&st18;" transform="matrix(&st16;  1415.29  237.47 )">3C</text><text style="&st18;" transform="matrix(&st16;  1346.16  237.47 )">17</text><text style="&st18;" transform="matrix(&st16;  1355.8  237.47 )">3C</text><text style="&st18;" transform="matrix(&st16;  1376.2  146.83 )">10A <tspan x="0 " dy="6.0">H-LP </tspan><tspan x="0 " dy="6.0">HI LH</tspan></text><text style="&st18;" transform="matrix(&st16;  1435.69  146.83 )">10A <tspan x="0 " dy="6.0">H-LP </tspan><tspan x="0 " dy="6.0">HI RH</tspan></text><text style="&st18;" transform="matrix(&st16;  1483.4  237.47 )">3A</text><text style="&st18;" transform="matrix(&st16;  1476.74  237.47 )">1</text><path style="stroke-width: 0.85 ;&st7;  " d=" M  1222.60,   213.25  L  1222.33,   213.72  L  1222.24,   214.25  L  1222.33,   214.78  L  1222.60,   215.25  L  1223.02,   215.60  L  1223.52,   215.79  L  1224.07,   215.79  L  1224.57,   215.60  L  1224.99,   215.25  L  1225.26,   214.78  L  1225.35,   214.25  L  1225.26,   213.72  L  1224.99,   213.25  L  1224.57,   212.90  L  1224.07,   212.71  L  1223.52,   212.71  L  1223.02,   212.90  L  1222.60,   213.25  L  1223.00,   213.96  L  1223.00,   214.54  L  1223.37,   214.99  L  1223.94,   215.09  L  1224.45,   214.80  L  1224.64,   214.25  L  1224.45,   213.70  L  1223.94,   213.41  L  1223.37,   213.51  L  1223.80,   214.25  " /></g><g ewd:figtype="jb" ewd:figID="26" ewd:code="3"><path style="stroke-width: 1.13 ;&st7; stroke-dasharray:3, 3;" d=" M   535.41,    78.27  L  2311.61,    78.27  L  2311.61,    35.78  L   535.41,    35.78  L   535.41,    78.27  " /><text style="&st18;" transform="matrix(&st16; 1776.75 58.99)" ewd:textID="16">ECU de la carrocería principal</text><text style="&st18;" transform="matrix(&st16;  1720.0  74.58 )">E12</text><text style="&st18;" transform="matrix(&st16; 770.91 58.99)" ewd:textID="16">ECU de la carrocería principal</text><text style="&st18;" transform="matrix(&st16;  2286.26  74.58 )">CANL</text><text style="&st18;" transform="matrix(&st16;  2260.34  74.58 )">CANH</text><text style="&st18;" transform="matrix(&st16;  2095.76  74.58 )">HI</text><text style="&st18;" transform="matrix(&st16;  1070.77  74.58 )">HLRO</text><text style="&st18;" transform="matrix(&st16;  1275.16  74.58 )">DIMO</text><text style="&st18;" transform="matrix(&st16;  1275.08  58.99 )" ewd:textID="16">ECU de la carrocería principal</text><text style="&st18;" transform="matrix(&st16;  722.45  74.58 )">HAZD</text><text style="&st18;" transform="matrix(&st16;  543.98  74.58 )">FWPR</text><text style="&st18;" transform="matrix(&st16;  569.2  74.58 )">WPFU</text><text style="&st18;" transform="matrix(&st16;  698.15  74.58 )">DOM</text><text style="&st18;" transform="matrix(&st16;  673.74  74.58 )">DLB</text><text style="&st18;" transform="matrix(&st16;  646.97  74.58 )">STPB</text><text style="&st18;" transform="matrix(&st16;  596.75  74.58 )">ACC</text><text style="&st18;" transform="matrix(&st16;  623.99  74.58 )">IG1</text><text style="&st18;" transform="matrix(&st16;  1686.0  74.58 )">E01</text><text style="&st18;" transform="matrix(&st16;  1652.01  74.58 )">E11</text><text style="&st18;" transform="matrix(&st16;  1614.45  74.58 )">RWPG</text><text style="&st18;" transform="matrix(&st16; 2145.93 58.99)" ewd:textID="16">ECU de la carrocería principal</text></g><g ewd:figtype="gp" ewd:figID="29" ewd:code="A3"><path style="stroke-width: 0.85 ;&st7;  " d=" M   873.94,   710.00  L   876.77,   710.00  " /><path style="stroke-width: 0.85 ;&st7;  " d=" M   872.52,   707.17  L   878.19,   707.17  " /><path style="stroke-width: 0.85 ;&st7;  " d=" M   871.10,   704.33  L   879.60,   704.33  " /><path style="stroke-width: 0.85 ;&st7;  " d=" M   866.85,   701.50  L   883.85,   701.50  " /><path style="stroke-width: 0.85 ;&st7;  " d=" M   875.35,   697.25  L   875.35,   701.50  " /></g><g ewd:code="2" ewd:figID="53" ewd:comment="" ewd:figtype="comment"><text style="&st18;" transform="matrix(&st16;  557.5  309.7 )" ewd:textID="2">* 2 :Tipo de 4 bombillas</text></g><g ewd:code="1" ewd:figID="54" ewd:comment="" ewd:figtype="comment"><text style="&st18;" transform="matrix(&st16;  557.5  301.2 )" ewd:textID="1">* 1 :Tipo de 2 bombillas</text></g></svg>