﻿<?xml version="1.0" encoding="utf-8"?>
<!DOCTYPE svg PUBLIC "-//W3C//DTD SVG 1.0//EN" "http://www.w3.org/TR/2001/REC-SVG-20010904/DTD/svg10.dtd"[
	<!ENTITY ns_flows "http://ns.adobe.com/Flows/1.0/">
	<!ENTITY ns_svg "http://www.w3.org/2000/svg">
	<!ENTITY ns_xlink "http://www.w3.org/1999/xlink">
	<!ENTITY st0 "font-size:7px;font-family:'MS-PGothic';adobe-font-script:japanese;">
	<!ENTITY st1 "font-size:6px;font-family:'ArialMT';">
	<!-- White fill  -->
	<!ENTITY st2 "fill:#FFFFFF;stroke:#000000; stroke-width:1.41;stroke-linecap:round;stroke-linejoin:round;">
	<!-- Yellow fill  -->
	<!ENTITY st3 "fill:#FFFFCC;stroke:#FFFFCC; stroke-width:0.1;stroke-linecap:round;stroke-linejoin:round;">
	<!-- Gray fill  -->
	<!ENTITY st4 "fill:#CCCCCC;stroke:#CCCCCC; stroke-width:0.1;stroke-linecap:round;stroke-linejoin:round;">
	<!-- Light-blue fill -->
	<!ENTITY st5 "fill:#CCECF4;stroke:#000000; stroke-width:1.133;stroke-linecap:round;stroke-linejoin:round;">
	<!ENTITY st6 "fill:none;stroke-linecap:butt; stroke-linejoin:round;">
	<!ENTITY st7 "fill:none;stroke:#000000;stroke-linecap:round;stroke-linejoin:round;">
	<!ENTITY st8 "enable-background:new    ;">
	<!-- Black fill -->
	<!ENTITY st9 "fill:#000000;stroke:#000000; stroke-linecap:round;stroke-linejoin:round;">
	<!-- SRS note   -->
	<!ENTITY st10 "font-size:9px;font-family:'ArialMT';">
	<!ENTITY st11 "font-size:9px;font-family:'Svg Symbol';">
	<!ENTITY st12 "font-size:6px;font-family:'Svg Symbol';">
	<!ENTITY st13 "fill:none;stroke:#ff0000;stroke-linecap:round;stroke-linejoin:round;">
	<!-- Yellow fill  -->
	<!ENTITY st14 "fill:#FFFF00;stroke:#FFFF00; stroke-width:0.1;stroke-linecap:round;stroke-linejoin:round;">
	<!ENTITY st15 "font-size:6px;font-family:'MS-PGothic';adobe-font-script:japanese;">
	<!ENTITY st16 "1.00 0.00 0.00 1.00">
	<!ENTITY st17 "0.00 -1.00 1.00 0.00">
	<!ENTITY st18 "font-size:6px;font-family:'Arial';">
	<!ENTITY st19 "font-size:9px;font-family:'Arial';">
	<!ENTITY st20 "font-size:6px;font-family:'MS-PGothic','MS PGothic';adobe-font-script:japanese;">
	<!ENTITY st21 "font-size:7px;font-family:'MS-PGothic','MS PGothic';adobe-font-script:japanese;">
	<!ATTLIST svg
		xmlns:ewd CDATA #FIXED "http://shcl.co.jp/ewd"
		xmlns:a CDATA #FIXED "http://ns.adobe.com/AdobeSVGViewerExtensions/3.0/"
		ewd:ver CDATA #IMPLIED
	>
	<!ATTLIST a
		ewd:lineID CDATA #IMPLIED
		ewd:groupID CDATA #IMPLIED
		ewd:figtype CDATA #IMPLIED
		ewd:code CDATA #IMPLIED
		ewd:figID CDATA #IMPLIED
		ewd:pinNo CDATA #IMPLIED
		ewd:comment CDATA #IMPLIED >
	<!ATTLIST g
		ewd:lineID CDATA #IMPLIED
		ewd:groupID CDATA #IMPLIED
		ewd:figtype CDATA #IMPLIED
		ewd:code CDATA #IMPLIED
		ewd:figID CDATA #IMPLIED
		ewd:pinNo CDATA #IMPLIED
		ewd:comment CDATA #IMPLIED >
	<!ATTLIST text
		ewd:textID CDATA #IMPLIED
		ewd:horAlign CDATA #IMPLIED >
	<!ATTLIST title
		ewd:textID CDATA #IMPLIED >
]>
<!-- Generator: Shintec Hozumi YS   -->
<svg onload="call_execInitLoadProc_svg('system')" style="overflow:visible;  enable-background:new 0 0 1861.897 710.000" viewBox="0 0 1869.694 710.000" height="710.000" width="1869.694" xml:space="preserve" ewd:ver="2.1.2.10" xmlns="&ns_svg;" xmlns:ewd="http://shcl.co.jp/ewd" xmlns:a="http://ns.adobe.com/AdobeSVGViewerExtensions/3.0/" xmlns:xlink="&ns_xlink;">
<path style="stroke-width: 1.42 ;&st7;  " d=" M   977.34,   486.20  L   985.84,   486.20  " /><text style="&st18;" transform="matrix(&st16;  540.5  33.47 )">F9</text><text style="&st18;" transform="matrix(&st16;  540.5  40.58 )" ewd:textID="10">Conjunto del interruptor principal del regulador del elevalunas eléctrico</text><text style="&st18;" transform="matrix(&st17;  744.18  328.28 )">BR</text><text style="&st18;" transform="matrix(&st17;  676.19  326.3 )">L</text><text style="&st18;" transform="matrix(&st17;  676.19  572.76 )">L</text><text style="&st18;" transform="matrix(&st17;  744.18  574.74 )">BR</text><text style="&st18;" transform="matrix(&st16;  539.59  431.52 )">GR</text><text style="&st18;" transform="matrix(&st17;  905.65  328.28 )">BE</text><text style="&st18;" transform="matrix(&st17;  795.17  328.55 )">GR</text><text style="&st18;" transform="matrix(&st17;  956.64  327.97 )">SB</text><text style="&st18;" transform="matrix(&st17;  846.16  326.42 )">Y</text><text style="&st18;" transform="matrix(&st17;  905.65  574.74 )">BE</text><text style="&st18;" transform="matrix(&st17;  795.17  575.01 )">GR</text><text style="&st18;" transform="matrix(&st17;  956.64  574.43 )">SB</text><text style="&st18;" transform="matrix(&st17;  846.16  572.88 )">Y</text><text style="&st18;" transform="matrix(&st16;  539.59  406.02 )">GR</text><text style="&st18;" transform="matrix(&st17;  982.14  460.28 )">GR</text><g ewd:figtype="conn" ewd:figID="8" ewd:code="F8"><path style="stroke-width: 1.42 ;&st7;  " d=" M   662.89,   596.69  L   662.89,   647.68  L   977.34,   647.68  L   977.34,   596.69  L   662.89,   596.69  " /><g ewd:lineID="10"><text style="&st18;" transform="matrix(&st16;  954.16  593.0 )">4</text><text style="&st18;" transform="matrix(&st16;  958.23  604.32 )">E</text></g><g ewd:lineID="5"><text style="&st18;" transform="matrix(&st16;  673.7  593.0 )">1</text><text style="&st18;" transform="matrix(&st16;  675.95  604.32 )">U+</text></g><g ewd:lineID="6"><text style="&st18;" transform="matrix(&st16;  741.69  593.0 )">3</text><text style="&st18;" transform="matrix(&st16;  743.94  604.32 )">D+</text></g><g ewd:lineID="7"><text style="&st18;" transform="matrix(&st16;  792.68  593.0 )">6</text><text style="&st18;" transform="matrix(&st16;  791.6  604.32 )">SEN2</text></g><g ewd:lineID="8"><text style="&st18;" transform="matrix(&st16;  843.67  593.0 )">2</text><text style="&st18;" transform="matrix(&st16;  842.59  604.32 )">SEN1</text></g><g ewd:lineID="9"><text style="&st18;" transform="matrix(&st16;  903.16  593.0 )">5</text><text style="&st18;" transform="matrix(&st16;  902.7  604.32 )">VCC</text></g><g ewd:figtype="title"><text style="&st18;" transform="matrix(&st16;  667.98  662.39 )" ewd:textID="4">Conjunto del motor del regulador del<tspan x="0 " dy="6.0">elevalunas eléctrico delantero RH</tspan></text><text style="&st18;" transform="matrix(&st16;  667.98  655.29 )">F8</text></g></g><g ewd:figtype="w2w" ewd:figID="12" ewd:code="GE2"><path style="stroke-width: 1.42 ;&st7;  " d=" M   981.59,   477.14  L   985.83,   481.39  L   990.08,   477.14  " /><path style="stroke-width: 1.42 ;&st7;  " d=" M   990.08,   480.54  L   985.83,   484.79  L   981.59,   480.54  " /><text style="&st18;" transform="matrix(&st16;  970.1  492.42 )">18</text></g></svg>