﻿<?xml version="1.0" encoding="utf-8"?>
<!DOCTYPE svg PUBLIC "-//W3C//DTD SVG 1.0//EN" "http://www.w3.org/TR/2001/REC-SVG-20010904/DTD/svg10.dtd"[
	<!ENTITY ns_flows "http://ns.adobe.com/Flows/1.0/">
	<!ENTITY ns_svg "http://www.w3.org/2000/svg">
	<!ENTITY ns_xlink "http://www.w3.org/1999/xlink">
	<!ENTITY st0 "font-size:7px;font-family:'MS-PGothic';adobe-font-script:japanese;">
	<!ENTITY st1 "font-size:6px;font-family:'ArialMT';">
	<!-- White fill  -->
	<!ENTITY st2 "fill:#FFFFFF;stroke:#000000; stroke-width:1.41;stroke-linecap:round;stroke-linejoin:round;">
	<!-- Yellow fill  -->
	<!ENTITY st3 "fill:#FFFFCC;stroke:#FFFFCC; stroke-width:0.1;stroke-linecap:round;stroke-linejoin:round;">
	<!-- Gray fill  -->
	<!ENTITY st4 "fill:#CCCCCC;stroke:#CCCCCC; stroke-width:0.1;stroke-linecap:round;stroke-linejoin:round;">
	<!-- Light-blue fill -->
	<!ENTITY st5 "fill:#CCECF4;stroke:#000000; stroke-width:1.133;stroke-linecap:round;stroke-linejoin:round;">
	<!ENTITY st6 "fill:none;stroke-linecap:butt; stroke-linejoin:round;">
	<!ENTITY st7 "fill:none;stroke:#000000;stroke-linecap:round;stroke-linejoin:round;">
	<!ENTITY st8 "enable-background:new    ;">
	<!-- Black fill -->
	<!ENTITY st9 "fill:#000000;stroke:#000000; stroke-linecap:round;stroke-linejoin:round;">
	<!-- SRS note   -->
	<!ENTITY st10 "font-size:9px;font-family:'ArialMT';">
	<!ENTITY st11 "font-size:9px;font-family:'Svg Symbol';">
	<!ENTITY st12 "font-size:6px;font-family:'Svg Symbol';">
	<!ENTITY st13 "fill:none;stroke:#ff0000;stroke-linecap:round;stroke-linejoin:round;">
	<!-- Yellow fill  -->
	<!ENTITY st14 "fill:#FFFF00;stroke:#FFFF00; stroke-width:0.1;stroke-linecap:round;stroke-linejoin:round;">
	<!ENTITY st15 "font-size:6px;font-family:'MS-PGothic';adobe-font-script:japanese;">
	<!ENTITY st16 "1.00 0.00 0.00 1.00">
	<!ENTITY st17 "0.00 -1.00 1.00 0.00">
	<!ENTITY st18 "font-size:6px;font-family:'Arial';">
	<!ENTITY st19 "font-size:9px;font-family:'Arial';">
	<!ENTITY st20 "font-size:6px;font-family:'MS-PGothic','MS PGothic';adobe-font-script:japanese;">
	<!ENTITY st21 "font-size:7px;font-family:'MS-PGothic','MS PGothic';adobe-font-script:japanese;">
	<!ATTLIST svg
		xmlns:ewd CDATA #FIXED "http://shcl.co.jp/ewd"
		xmlns:a CDATA #FIXED "http://ns.adobe.com/AdobeSVGViewerExtensions/3.0/"
		ewd:ver CDATA #IMPLIED
	>
	<!ATTLIST a
		ewd:lineID CDATA #IMPLIED
		ewd:groupID CDATA #IMPLIED
		ewd:figtype CDATA #IMPLIED
		ewd:code CDATA #IMPLIED
		ewd:figID CDATA #IMPLIED
		ewd:pinNo CDATA #IMPLIED
		ewd:comment CDATA #IMPLIED >
	<!ATTLIST g
		ewd:lineID CDATA #IMPLIED
		ewd:groupID CDATA #IMPLIED
		ewd:figtype CDATA #IMPLIED
		ewd:code CDATA #IMPLIED
		ewd:figID CDATA #IMPLIED
		ewd:pinNo CDATA #IMPLIED
		ewd:comment CDATA #IMPLIED >
	<!ATTLIST text
		ewd:textID CDATA #IMPLIED
		ewd:horAlign CDATA #IMPLIED >
	<!ATTLIST title
		ewd:textID CDATA #IMPLIED >
]>
<!-- Generator: Shintec Hozumi YS   -->
<svg onload="call_execInitLoadProc_svg('system')" style="overflow:visible;  enable-background:new 0 0 3047.337 710.000" viewBox="0 0 3050.084 710.000" height="710.000" width="3050.084" xml:space="preserve" ewd:ver="2.1.2.10" xmlns="&ns_svg;" xmlns:ewd="http://shcl.co.jp/ewd" xmlns:a="http://ns.adobe.com/AdobeSVGViewerExtensions/3.0/" xmlns:xlink="&ns_xlink;">
<path style="stroke-width: 1.42 ;&st7;  " d=" M  1750.71,   554.19  L  1742.21,   554.19  " /><path style="stroke-width: 1.42 ;&st7;  " d=" M  1801.70,   554.19  L  1793.20,   554.19  " /><path style="stroke-width: 1.42 ;&st7;  " d=" M  1861.19,   146.26  L  1852.69,   146.26  " /><path style="stroke-width: 1.42 ;&st7;  " d=" M  1844.19,   248.24  L  1852.69,   248.24  " /><text style="&st18;" transform="matrix(&st16;  1820.74  626.98 )">W-B</text><text style="&st18;" transform="matrix(&st17;  1789.51  581.39 )">W-B</text><text style="&st18;" transform="matrix(&st17;  1848.99  328.51 )">LG</text><text style="&st18;" transform="matrix(&st17;  1738.51  517.54 )">W-L</text><text style="&st18;" transform="matrix(&st17;  1840.5  466.55 )">W-L</text><text style="&st18;" transform="matrix(&st17;  1789.51  449.67 )">W-B</text><text style="&st18;" transform="matrix(&st17;  1738.51  445.4 )">B</text><text style="&st18;" transform="matrix(&st17;  1747.01  317.84 )">R</text><text style="&st18;" transform="matrix(&st17;  1789.5  668.22 )">BR</text><text style="&st18;" transform="matrix(&st17;  1848.99  169.0 )">P</text><text style="&st18;" transform="matrix(&st17;  1848.99  122.26 )">P</text><text style="&st18;" transform="matrix(&st17;  1848.99  277.52 )">LG</text><text style="&st18;" transform="matrix(&st17;  1848.99  230.78 )">LG</text><text style="&st18;" transform="matrix(&st17;  1670.53  449.55 )">W-L</text><text style="&st18;" transform="matrix(&st17;  1681.86  448.42 )">(*1)</text><text style="&st18;" transform="matrix(&st17;  1645.03  449.67 )">W-B</text><text style="&st18;" transform="matrix(&st17;  1656.36  448.42 )">(*1)</text><text style="&st18;" transform="matrix(&st17;  1749.84  448.42 )">(*2)</text><text style="&st18;" transform="matrix(&st17;  1758.34  320.95 )">(*2)</text><text style="&st18;" transform="matrix(&st17;  1860.33  329.44 )">(*3)</text><text style="&st18;" transform="matrix(&st17;  1851.83  465.42 )">(*3)</text><text style="&st18;" transform="matrix(&st17;  1800.84  448.42 )">(*2)</text><text style="&st18;" transform="matrix(&st17;  1645.03  317.81 )">L</text><text style="&st18;" transform="matrix(&st17;  1656.36  320.95 )">(*1)</text><text style="&st18;" transform="matrix(&st17;  1738.51  581.28 )">W-L</text><text style="&st18;" transform="matrix(&st16;  1523.41  584.49 )">W-L</text><text style="&st18;" transform="matrix(&st16;  1574.4  584.49 )">W-L</text><path style="stroke-width: 1.42 ;&st7;  " d=" M  1861.19,   295.71  L  1856.22,   290.74  " /><path style="stroke-width: 1.42 ;&st7;  " d=" M  1844.19,   302.77  L  1849.16,   307.73  " /><path style="stroke-width: 1.42 ;&st7;  " d=" M  1856.22,   307.73  L  1861.19,   302.77  " /><path style="stroke-width: 1.42 ;&st7;  " d=" M  1849.16,   290.74  L  1844.19,   295.71  " /><path style="stroke-width: 1.42 ;&st7;  " d=" M  1750.71,   482.68  L  1745.74,   477.71  " /><path style="stroke-width: 1.42 ;&st7;  " d=" M  1733.71,   489.73  L  1738.68,   494.70  " /><path style="stroke-width: 1.42 ;&st7;  " d=" M  1745.74,   494.70  L  1750.71,   489.73  " /><path style="stroke-width: 1.42 ;&st7;  " d=" M  1738.68,   477.71  L  1733.71,   482.68  " /><path style="stroke-width: 1.42 ;&st7;  " d=" M  1801.70,   627.15  L  1796.73,   622.18  " /><path style="stroke-width: 1.42 ;&st7;  " d=" M  1784.70,   634.21  L  1789.67,   639.18  " /><path style="stroke-width: 1.42 ;&st7;  " d=" M  1796.73,   639.18  L  1801.70,   634.21  " /><path style="stroke-width: 1.42 ;&st7;  " d=" M  1789.67,   622.18  L  1784.70,   627.15  " /><text style="&st18;" transform="matrix(&st16;  1575.06  601.49 )">B-Y</text><text style="&st18;" transform="matrix(&st16;  1524.07  601.49 )">B-Y</text><text style="&st18;" transform="matrix(&st16;  1520.5  612.82 )">(*6 *7)</text><text style="&st18;" transform="matrix(&st16;  1571.49  612.82 )">(*6 *7)</text><g ewd:figtype="rb" ewd:figID="7" ewd:code="FUSE15"><path style="stroke-width: 1.42 ;&st7;   " d=" M  1854.82,   103.77  C  1857.16    103.77   1859.06    101.87   1859.06     99.52  " /><path style="stroke-width: 1.42 ;&st7;   " d=" M  1859.06,    99.52  C  1859.06     97.17   1857.16     95.27   1854.82     95.27  " /><path style="stroke-width: 1.42 ;&st7;   " d=" M  1846.32,    99.52  C  1846.32    101.87   1848.22    103.77   1850.57    103.77  " /><path style="stroke-width: 1.42 ;&st7;   " d=" M  1850.57,    95.27  C  1848.22     95.27   1846.32     97.17   1846.32     99.52  " /><path style="stroke-width: 0.85 ;&st7;  " d=" M  1852.69,    69.77  L  1852.69,    95.27  " /><path style="stroke-width: 1.42 ;&st7;  " d=" M  1854.82,   103.77  L  1850.57,   103.77  " /><path style="stroke-width: 1.42 ;&st7;  " d=" M  1854.82,    95.27  L  1850.57,    95.27  " /><path style="stroke-width: 0.28 ;&st9;  " d=" M  1852.69,    90.37  L  1849.86,    87.54  L  1849.86,    91.79  L  1852.69,    94.62  L  1855.52,    91.79  L  1855.52,    87.54  L  1852.69,    90.37  " /><text style="&st18;" transform="matrix(&st16;  1869.11  56.17 )">10A <tspan x="0 " dy="6.0">STOP</tspan></text><text style="&st18;" transform="matrix(&st16;  1850.89  101.49 )">1</text><text style="&st18;" transform="matrix(&st16;  1846.51  86.47 )">2</text><text style="&st18;" transform="matrix(&st16;  1844.65  32.08 )">(BAT)</text><path style="stroke-width: 0.85 ;&st7;   " d=" M  1854.11,    68.36  C  1854.11     67.57   1853.47     66.94   1852.69     66.94  " /><path style="stroke-width: 0.85 ;&st7;   " d=" M  1852.69,    66.94  C  1851.91     66.94   1851.27     67.57   1851.27     68.36  " /><path style="stroke-width: 0.85 ;&st7;   " d=" M  1851.27,    68.36  C  1851.27     69.14   1851.91     69.77   1852.69     69.77  " /><path style="stroke-width: 0.85 ;&st7;   " d=" M  1852.69,    69.77  C  1853.47     69.77   1854.11     69.14   1854.11     68.36  " /><path style="stroke-width: 0.85 ;&st7;   " d=" M  1854.11,    45.69  C  1854.11     44.91   1853.47     44.28   1852.69     44.28  " /><path style="stroke-width: 0.85 ;&st7;   " d=" M  1852.69,    44.28  C  1851.91     44.28   1851.27     44.91   1851.27     45.69  " /><path style="stroke-width: 0.85 ;&st7;   " d=" M  1851.27,    45.69  C  1851.27     46.48   1851.91     47.11   1852.69     47.11  " /><path style="stroke-width: 0.85 ;&st7;   " d=" M  1852.69,    47.11  C  1853.47     47.11   1854.11     46.48   1854.11     45.69  " /><path style="stroke-width: 1.42 ;&st7;   " d=" M  1852.69,    66.94  C  1855.43     65.33   1856.34     61.80   1854.73     59.06  " /><path style="stroke-width: 1.42 ;&st7;   " d=" M  1854.73,    59.06  C  1854.21     58.18   1853.57     57.55   1852.69     57.03  " /><path style="stroke-width: 1.42 ;&st7;   " d=" M  1852.69,    47.11  C  1849.95     48.72   1849.04     52.25   1850.65     54.99  " /><path style="stroke-width: 1.42 ;&st7;   " d=" M  1850.65,    54.99  C  1851.17     55.87   1851.81     56.51   1852.69     57.03  " /><path style="stroke-width: 1.42 ;&st7;  " d=" M  1839.94,    35.78  L  1839.94,    78.27  L  1865.44,    78.27  L  1865.44,    35.78  L  1839.94,    35.78  " /></g><g ewd:figtype="conn" ewd:figID="8" ewd:code="E48"><path style="stroke-width: 0.85 ;&st7;  " d=" M  1852.69,   188.75  L  1852.69,   205.75  " /><path style="stroke-width: 1.42 ;&st7;  " d=" M  1844.19,   188.75  L  1861.19,   188.75  L  1861.19,   205.75  L  1844.19,   205.75  L  1844.19,   188.75  " /><text style="&st18;" transform="matrix(&st16;  1843.4  213.94 )">12</text><text style="&st18;" transform="matrix(&st16;  1846.51  185.06 )">5</text><g ewd:figtype="title"><text style="&st18;" transform="matrix(&st17;  1868.8  208.65 )">E48</text><text style="&st18;" transform="matrix(&st17;  1875.91  208.66 )" ewd:textID="24">Conector<tspan x="0 " dy="6.0">de unión</tspan></text></g></g><g ewd:figtype="conn" ewd:figID="9" ewd:code="K2"><path style="stroke-width: 0.85 ;&st7;   " d=" M  1845.61,   408.30  C  1845.61    407.52   1844.97    406.88   1844.19    406.88  " /><path style="stroke-width: 0.85 ;&st7;   " d=" M  1844.19,   406.88  C  1843.41    406.88   1842.78    407.52   1842.78    408.30  " /><path style="stroke-width: 0.85 ;&st7;   " d=" M  1842.78,   408.30  C  1842.78    409.08   1843.41    409.72   1844.19    409.72  " /><path style="stroke-width: 0.85 ;&st7;   " d=" M  1844.19,   409.72  C  1844.97    409.72   1845.61    409.08   1845.61    408.30  " /><path style="stroke-width: 0.85 ;&st7;   " d=" M  1854.11,   408.30  C  1854.11    407.52   1853.47    406.88   1852.69    406.88  " /><path style="stroke-width: 0.85 ;&st7;   " d=" M  1852.69,   406.88  C  1851.91    406.88   1851.27    407.52   1851.27    408.30  " /><path style="stroke-width: 0.85 ;&st7;   " d=" M  1851.27,   408.30  C  1851.27    409.08   1851.91    409.72   1852.69    409.72  " /><path style="stroke-width: 0.85 ;&st7;   " d=" M  1852.69,   409.72  C  1853.47    409.72   1854.11    409.08   1854.11    408.30  " /><path style="stroke-width: 0.85 ;&st7;   " d=" M  1852.69,   379.97  C  1854.25    379.98   1855.51    378.73   1855.52    377.17  " /><path style="stroke-width: 0.85 ;&st7;   " d=" M  1855.52,   377.17  C  1855.53    375.62   1854.28    374.35   1852.72    374.34  " /><path style="stroke-width: 0.85 ;&st7;   " d=" M  1852.72,   374.34  C  1851.69    374.33   1850.81    374.83   1850.28    375.72  " /><path style="stroke-width: 0.85 ;&st7;   " d=" M  1850.28,   375.72  C  1851.07    377.06   1852.80    377.51   1854.14    376.71  " /><path style="stroke-width: 0.85 ;&st7;   " d=" M  1854.14,   376.71  C  1855.48    375.92   1855.92    374.19   1855.13    372.86  " /><path style="stroke-width: 0.85 ;&st7;   " d=" M  1855.13,   372.86  C  1854.61    371.97   1853.72    371.47   1852.69    371.47  " /><path style="stroke-width: 0.85 ;&st7;   " d=" M  1862.61,   408.30  C  1862.61    407.52   1861.97    406.88   1861.19    406.88  " /><path style="stroke-width: 0.85 ;&st7;   " d=" M  1861.19,   406.88  C  1860.41    406.88   1859.77    407.52   1859.77    408.30  " /><path style="stroke-width: 0.85 ;&st7;   " d=" M  1859.77,   408.30  C  1859.77    409.08   1860.41    409.72   1861.19    409.72  " /><path style="stroke-width: 0.85 ;&st7;   " d=" M  1861.19,   409.72  C  1861.97    409.72   1862.61    409.08   1862.61    408.30  " /><path style="stroke-width: 0.85 ;&st7;   " d=" M  1854.11,   391.30  C  1854.11    390.52   1853.47    389.89   1852.69    389.89  " /><path style="stroke-width: 0.85 ;&st7;   " d=" M  1852.69,   389.89  C  1851.91    389.89   1851.27    390.52   1851.27    391.30  " /><path style="stroke-width: 0.85 ;&st7;   " d=" M  1851.27,   391.30  C  1851.27    392.09   1851.91    392.72   1852.69    392.72  " /><path style="stroke-width: 0.85 ;&st7;   " d=" M  1852.69,   392.72  C  1853.47    392.72   1854.11    392.09   1854.11    391.30  " /><path style="stroke-width: 1.42 ;&st7;   " d=" M  1861.19,   375.72  C  1861.19    371.03   1857.38    367.22   1852.69    367.22  " /><path style="stroke-width: 1.42 ;&st7;   " d=" M  1852.69,   367.22  C  1848.00    367.22   1844.19    371.03   1844.19    375.72  " /><path style="stroke-width: 1.42 ;&st7;   " d=" M  1844.19,   375.72  C  1844.19    380.42   1848.00    384.22   1852.69    384.22  " /><path style="stroke-width: 1.42 ;&st7;   " d=" M  1852.69,   384.22  C  1857.38    384.22   1861.19    380.42   1861.19    375.72  " /><path style="stroke-width: 0.85 ;&st7;  " d=" M  1844.19,   426.71  L  1844.19,   409.72  " /><path style="stroke-width: 0.85 ;&st7;  " d=" M  1852.69,   350.23  L  1852.69,   371.47  " /><path style="stroke-width: 0.85 ;&st7;  " d=" M  1852.69,   389.89  L  1852.69,   379.97  " /><path style="stroke-width: 1.42 ;&st7;  " d=" M  1835.69,   350.23  L  1835.69,   426.71  L  1869.69,   426.71  L  1869.69,   350.23  L  1835.69,   350.23  " /><path style="stroke-width: 1.42 ;&st7;  " d=" M  1852.19,   392.63  L  1845.79,   409.72  " /><text style="&st18;" transform="matrix(&st17;  1857.49  405.54 )">OFF</text><text style="&st18;" transform="matrix(&st17;  1864.58  405.54 )">ON</text><text style="&st18;" transform="matrix(&st17;  1844.75  405.54 )">DOOR</text><text style="&st18;" transform="matrix(&st16;  1846.78  423.02 )">DR</text><text style="&st18;" transform="matrix(&st16;  1855.27  358.42 )">+</text><text style="&st18;" transform="matrix(&st16;  1838.01  434.91 )">1</text><text style="&st18;" transform="matrix(&st16;  1846.51  346.54 )">2</text><g ewd:figtype="title"><text style="&st18;" transform="matrix(&st17;  1884.41  429.62 )" ewd:textID="29">Conjunto de la luz interior n.° 1</text><text style="&st18;" transform="matrix(&st17;  1877.3  429.61 )">K2</text></g></g><g ewd:figtype="conn" ewd:figID="10" ewd:code="K1"><path style="stroke-width: 0.85 ;&st7;   " d=" M  1743.63,   391.30  C  1743.63    390.52   1742.99    389.89   1742.21    389.89  " /><path style="stroke-width: 0.85 ;&st7;   " d=" M  1742.21,   389.89  C  1741.43    389.89   1740.79    390.52   1740.79    391.30  " /><path style="stroke-width: 0.85 ;&st7;   " d=" M  1740.79,   391.30  C  1740.79    392.09   1741.43    392.72   1742.21    392.72  " /><path style="stroke-width: 0.85 ;&st7;   " d=" M  1742.21,   392.72  C  1742.99    392.72   1743.63    392.09   1743.63    391.30  " /><path style="stroke-width: 0.85 ;&st7;   " d=" M  1752.12,   391.30  C  1752.12    390.52   1751.49    389.89   1750.71    389.89  " /><path style="stroke-width: 0.85 ;&st7;   " d=" M  1750.71,   389.89  C  1749.93    389.89   1749.29    390.52   1749.29    391.30  " /><path style="stroke-width: 0.85 ;&st7;   " d=" M  1749.29,   391.30  C  1749.29    392.09   1749.93    392.72   1750.71    392.72  " /><path style="stroke-width: 0.85 ;&st7;   " d=" M  1750.71,   392.72  C  1751.49    392.72   1752.12    392.09   1752.12    391.30  " /><path style="stroke-width: 0.85 ;&st7;   " d=" M  1750.71,   362.97  C  1752.26    362.98   1753.53    361.73   1753.54    360.18  " /><path style="stroke-width: 0.85 ;&st7;   " d=" M  1753.54,   360.18  C  1753.55    358.62   1752.30    357.35   1750.74    357.34  " /><path style="stroke-width: 0.85 ;&st7;   " d=" M  1750.74,   357.34  C  1749.71    357.34   1748.83    357.84   1748.30    358.73  " /><path style="stroke-width: 0.85 ;&st7;   " d=" M  1748.30,   358.73  C  1749.09    360.06   1750.82    360.51   1752.16    359.72  " /><path style="stroke-width: 0.85 ;&st7;   " d=" M  1752.16,   359.72  C  1753.50    358.93   1753.94    357.20   1753.15    355.86  " /><path style="stroke-width: 0.85 ;&st7;   " d=" M  1753.15,   355.86  C  1752.62    354.97   1751.74    354.47   1750.71    354.48  " /><path style="stroke-width: 0.85 ;&st7;   " d=" M  1760.62,   391.30  C  1760.62    390.52   1759.99    389.89   1759.21    389.89  " /><path style="stroke-width: 0.85 ;&st7;   " d=" M  1759.21,   389.89  C  1758.42    389.89   1757.79    390.52   1757.79    391.30  " /><path style="stroke-width: 0.85 ;&st7;   " d=" M  1757.79,   391.30  C  1757.79    392.09   1758.42    392.72   1759.21    392.72  " /><path style="stroke-width: 0.85 ;&st7;   " d=" M  1759.21,   392.72  C  1759.99    392.72   1760.62    392.09   1760.62    391.30  " /><path style="stroke-width: 0.85 ;&st7;   " d=" M  1752.12,   374.31  C  1752.12    373.52   1751.49    372.89   1750.71    372.89  " /><path style="stroke-width: 0.85 ;&st7;   " d=" M  1750.71,   372.89  C  1749.93    372.89   1749.29    373.52   1749.29    374.31  " /><path style="stroke-width: 0.85 ;&st7;   " d=" M  1749.29,   374.31  C  1749.29    375.09   1749.93    375.72   1750.71    375.72  " /><path style="stroke-width: 0.85 ;&st7;   " d=" M  1750.71,   375.72  C  1751.49    375.72   1752.12    375.09   1752.12    374.31  " /><path style="stroke-width: 1.42 ;&st7;   " d=" M  1759.21,   358.73  C  1759.21    354.03   1755.40    350.23   1750.71    350.23  " /><path style="stroke-width: 1.42 ;&st7;   " d=" M  1750.71,   350.23  C  1746.01    350.23   1742.21    354.03   1742.21    358.73  " /><path style="stroke-width: 1.42 ;&st7;   " d=" M  1742.21,   358.73  C  1742.21    363.42   1746.01    367.22   1750.71    367.22  " /><path style="stroke-width: 1.42 ;&st7;   " d=" M  1750.71,   367.22  C  1755.40    367.22   1759.21    363.42   1759.21    358.73  " /><path style="stroke-width: 0.85 ;&st7;  " d=" M  1759.21,   409.72  L  1759.21,   392.72  " /><path style="stroke-width: 0.85 ;&st7;  " d=" M  1742.21,   409.72  L  1742.21,   392.72  " /><path style="stroke-width: 0.85 ;&st7;  " d=" M  1750.71,   333.23  L  1750.71,   354.48  " /><path style="stroke-width: 0.85 ;&st7;  " d=" M  1750.71,   372.89  L  1750.71,   362.97  " /><path style="stroke-width: 1.42 ;&st7;  " d=" M  1733.71,   333.23  L  1733.71,   409.72  L  1776.20,   409.72  L  1776.20,   333.23  L  1733.71,   333.23  " /><path style="stroke-width: 1.42 ;&st7;  " d=" M  1750.21,   375.63  L  1743.80,   392.72  " /><text style="&st18;" transform="matrix(&st17;  1755.51  388.54 )">OFF</text><text style="&st18;" transform="matrix(&st17;  1762.59  388.54 )">ON</text><text style="&st18;" transform="matrix(&st17;  1742.76  388.54 )">DOOR</text><text style="&st18;" transform="matrix(&st16;  1753.29  341.42 )">+</text><text style="&st18;" transform="matrix(&st16;  1761.79  406.03 )">-</text><text style="&st18;" transform="matrix(&st16;  1744.79  406.03 )">DR</text><text style="&st18;" transform="matrix(&st16;  1736.02  417.91 )">2</text><text style="&st18;" transform="matrix(&st16;  1744.52  329.54 )">3</text><text style="&st18;" transform="matrix(&st16;  1753.02  417.91 )">1</text><g ewd:figtype="title"><text style="&st18;" transform="matrix(&st17;  1790.92  412.62 )" ewd:textID="28">Conjunto de la luz interior</text><text style="&st18;" transform="matrix(&st17;  1783.81  412.62 )">K1</text></g></g><g ewd:figtype="conn" ewd:figID="11" ewd:code="K4"><path style="stroke-width: 1.42 ;&st7;  " d=" M  1631.73,   409.72  L  1691.22,   409.72  L  1691.22,   367.22  L  1631.73,   367.22  L  1631.73,   409.72  " /><g ewd:lineID="54"><text style="&st18;" transform="matrix(&st16;  1642.54  417.91 )">7</text><text style="&st18;" transform="matrix(&st16;  1646.92  406.02 )">-</text></g><g ewd:lineID="55"><text style="&st18;" transform="matrix(&st16;  1668.04  417.91 )">1</text><text style="&st18;" transform="matrix(&st16;  1669.98  406.02 )">DR</text></g><g ewd:lineID="64"><text style="&st18;" transform="matrix(&st16;  1642.54  363.53 )">6</text><text style="&st18;" transform="matrix(&st16;  1646.92  374.86 )">+</text></g><g ewd:figtype="title"><text style="&st18;" transform="matrix(&st17;  1628.03  412.62 )" ewd:textID="28">Conjunto de la luz interior</text><text style="&st18;" transform="matrix(&st17;  1620.93  412.62 )">K4</text></g></g><g ewd:figtype="conn" ewd:figID="12" ewd:code="E39"><path style="stroke-width: 0.85 ;&st7;  " d=" M  1861.19,   656.18  L  1861.19,   681.67  " /><path style="stroke-width: 1.42 ;&st7;  " d=" M  1852.69,   656.18  L  1852.69,   673.17  L  1869.69,   673.17  L  1869.69,   656.18  L  1852.69,   656.18  " /><text style="&st18;" transform="matrix(&st16;  1855.0  652.49 )">8</text><g ewd:figtype="title"><text style="&st18;" transform="matrix(&st16;  1871.94  659.54 )">E39</text><text style="&st18;" transform="matrix(&st16;  1871.95  666.64 )" ewd:textID="24">Conector<tspan x="0 " dy="6.0">de unión</tspan></text></g></g><g ewd:figtype="w2w" ewd:figID="65" ewd:code="KE1"><path style="stroke-width: 1.42 ;&st7;  " d=" M  1746.46,   563.26  L  1742.21,   559.01  L  1737.96,   563.26  " /><path style="stroke-width: 1.42 ;&st7;  " d=" M  1746.46,   559.86  L  1742.21,   555.61  L  1737.96,   559.86  " /><text style="&st18;" transform="matrix(&st16;  1729.58  551.91 )">9</text></g><g ewd:figtype="w2w" ewd:figID="66" ewd:code="KE1"><path style="stroke-width: 1.42 ;&st7;  " d=" M  1797.45,   563.26  L  1793.20,   559.01  L  1788.95,   563.26  " /><path style="stroke-width: 1.42 ;&st7;  " d=" M  1797.45,   559.86  L  1793.20,   555.61  L  1788.95,   559.86  " /><text style="&st18;" transform="matrix(&st16;  1780.57  551.91 )">4</text></g><g ewd:figtype="w2w" ewd:figID="67" ewd:code="KE1"><path style="stroke-width: 1.42 ;&st7;  " d=" M  1848.44,   239.18  L  1852.69,   243.43  L  1856.94,   239.18  " /><path style="stroke-width: 1.42 ;&st7;  " d=" M  1856.94,   242.58  L  1852.69,   246.83  L  1848.44,   242.58  " /><text style="&st18;" transform="matrix(&st16;  1836.96  254.46 )">10</text></g><g ewd:figtype="w2w" ewd:figID="68" ewd:code="AE4"><path style="stroke-width: 1.42 ;&st7;  " d=" M  1856.94,   155.33  L  1852.69,   151.08  L  1848.44,   155.33  " /><path style="stroke-width: 1.42 ;&st7;  " d=" M  1856.94,   151.93  L  1852.69,   147.68  L  1848.44,   151.93  " /><text style="&st18;" transform="matrix(&st16;  1840.06  143.98 )">2</text></g><g ewd:figtype="gp" ewd:figID="75" ewd:code="E3"><path style="stroke-width: 0.85 ;&st7;  " d=" M  1793.20,   697.25  L  1793.20,   701.50  " /><path style="stroke-width: 0.85 ;&st7;  " d=" M  1784.70,   701.50  L  1801.70,   701.50  " /><path style="stroke-width: 0.85 ;&st7;  " d=" M  1788.95,   704.33  L  1797.45,   704.33  " /><path style="stroke-width: 0.85 ;&st7;  " d=" M  1790.37,   707.17  L  1796.03,   707.17  " /><path style="stroke-width: 0.85 ;&st7;  " d=" M  1791.78,   710.00  L  1794.62,   710.00  " /></g><g ewd:figtype="gp" ewd:figID="76" ewd:code="E4"><path style="stroke-width: 0.85 ;&st7;  " d=" M  1858.36,   707.17  L  1864.02,   707.17  " /><path style="stroke-width: 0.85 ;&st7;  " d=" M  1859.77,   710.00  L  1862.60,   710.00  " /><path style="stroke-width: 0.85 ;&st7;  " d=" M  1852.69,   701.50  L  1869.69,   701.50  " /><path style="stroke-width: 0.85 ;&st7;  " d=" M  1861.19,   697.25  L  1861.19,   701.50  " /><path style="stroke-width: 0.85 ;&st7;  " d=" M  1856.94,   704.33  L  1865.44,   704.33  " /></g><g ewd:figtype="annex" ewd:figID="100" ewd:code=" "><path style="stroke-width: 0.85 ;&st7;  " d=" M  1852.69,   435.21  L  1869.69,   435.21  " /><path style="stroke-width: 0.85 ;&st7;  " d=" M  1861.19,   409.72  L  1861.19,   435.21  " /><path style="stroke-width: 0.85 ;&st7;  " d=" M  1856.94,   438.05  L  1865.44,   438.05  " /><path style="stroke-width: 0.85 ;&st7;  " d=" M  1858.36,   440.88  L  1864.02,   440.88  " /><path style="stroke-width: 0.85 ;&st7;  " d=" M  1859.77,   443.71  L  1862.60,   443.71  " /></g><g ewd:code="3" ewd:figID="103" ewd:comment="" ewd:figtype="comment"><text style="&st18;" transform="matrix(&st16;  1585.83  71.74 )" ewd:textID="3">* 3 :Excepto Malasia</text></g><g ewd:code="7" ewd:figID="114" ewd:comment="" ewd:figtype="comment"><text style="&st18;" transform="matrix(&st16;  1585.83  105.74 )" ewd:textID="7">* 7 :Anterior a la producción de abril de 2013</text></g><g ewd:code="6" ewd:figID="115" ewd:comment="" ewd:figtype="comment"><text style="&st18;" transform="matrix(&st16;  1585.83  97.24 )" ewd:textID="6">* 6 :Malasia</text></g><g ewd:code="2" ewd:figID="102" ewd:comment="" ewd:figtype="comment"><text style="&st18;" transform="matrix(&st16;  1585.83  63.24 )" ewd:textID="2">* 2 :sin caja para gafas</text></g><g ewd:code="1" ewd:figID="101" ewd:comment="" ewd:figtype="comment"><text style="&st18;" transform="matrix(&st16;  1585.83  54.75 )" ewd:textID="1">* 1 :con caja para gafas</text></g><g ewd:code="5" ewd:figID="105" ewd:comment="" ewd:figtype="comment"><text style="&st18;" transform="matrix(&st16;  1585.83  88.74 )" ewd:textID="5">* 5 :RHD desde la producción de julio de 2012</text></g><g ewd:code="4" ewd:figID="104" ewd:comment="" ewd:figtype="comment"><text style="&st18;" transform="matrix(&st16;  1585.83  80.24 )" ewd:textID="4">* 4 :LHD, RHD anterior a la producción de julio de 2012</text></g></svg>