﻿<?xml version="1.0" encoding="utf-8"?>
<!DOCTYPE svg PUBLIC "-//W3C//DTD SVG 1.0//EN" "http://www.w3.org/TR/2001/REC-SVG-20010904/DTD/svg10.dtd"[
	<!ENTITY ns_flows "http://ns.adobe.com/Flows/1.0/">
	<!ENTITY ns_svg "http://www.w3.org/2000/svg">
	<!ENTITY ns_xlink "http://www.w3.org/1999/xlink">
	<!ENTITY st0 "font-size:7px;font-family:'MS-PGothic';adobe-font-script:japanese;">
	<!ENTITY st1 "font-size:6px;font-family:'ArialMT';">
	<!-- White fill  -->
	<!ENTITY st2 "fill:#FFFFFF;stroke:#000000; stroke-width:1.41;stroke-linecap:round;stroke-linejoin:round;">
	<!-- Yellow fill  -->
	<!ENTITY st3 "fill:#FFFFCC;stroke:#FFFFCC; stroke-width:0.1;stroke-linecap:round;stroke-linejoin:round;">
	<!-- Gray fill  -->
	<!ENTITY st4 "fill:#CCCCCC;stroke:#CCCCCC; stroke-width:0.1;stroke-linecap:round;stroke-linejoin:round;">
	<!-- Light-blue fill -->
	<!ENTITY st5 "fill:#CCECF4;stroke:#000000; stroke-width:1.133;stroke-linecap:round;stroke-linejoin:round;">
	<!ENTITY st6 "fill:none;stroke-linecap:butt; stroke-linejoin:round;">
	<!ENTITY st7 "fill:none;stroke:#000000;stroke-linecap:round;stroke-linejoin:round;">
	<!ENTITY st8 "enable-background:new    ;">
	<!-- Black fill -->
	<!ENTITY st9 "fill:#000000;stroke:#000000; stroke-linecap:round;stroke-linejoin:round;">
	<!-- SRS note   -->
	<!ENTITY st10 "font-size:9px;font-family:'ArialMT';">
	<!ENTITY st11 "font-size:9px;font-family:'Svg Symbol';">
	<!ENTITY st12 "font-size:6px;font-family:'Svg Symbol';">
	<!ENTITY st13 "fill:none;stroke:#ff0000;stroke-linecap:round;stroke-linejoin:round;">
	<!-- Yellow fill  -->
	<!ENTITY st14 "fill:#FFFF00;stroke:#FFFF00; stroke-width:0.1;stroke-linecap:round;stroke-linejoin:round;">
	<!ENTITY st15 "font-size:6px;font-family:'MS-PGothic';adobe-font-script:japanese;">
	<!ENTITY st16 "1.00 0.00 0.00 1.00">
	<!ENTITY st17 "0.00 -1.00 1.00 0.00">
	<!ENTITY st18 "font-size:6px;font-family:'Arial';">
	<!ENTITY st19 "font-size:9px;font-family:'Arial';">
	<!ENTITY st20 "font-size:6px;font-family:'MS-PGothic','MS PGothic';adobe-font-script:japanese;">
	<!ENTITY st21 "font-size:7px;font-family:'MS-PGothic','MS PGothic';adobe-font-script:japanese;">
	<!ATTLIST svg
		xmlns:ewd CDATA #FIXED "http://shcl.co.jp/ewd"
		xmlns:a CDATA #FIXED "http://ns.adobe.com/AdobeSVGViewerExtensions/3.0/"
		ewd:ver CDATA #IMPLIED
	>
	<!ATTLIST a
		ewd:lineID CDATA #IMPLIED
		ewd:groupID CDATA #IMPLIED
		ewd:figtype CDATA #IMPLIED
		ewd:code CDATA #IMPLIED
		ewd:figID CDATA #IMPLIED
		ewd:pinNo CDATA #IMPLIED
		ewd:comment CDATA #IMPLIED >
	<!ATTLIST g
		ewd:lineID CDATA #IMPLIED
		ewd:groupID CDATA #IMPLIED
		ewd:figtype CDATA #IMPLIED
		ewd:code CDATA #IMPLIED
		ewd:figID CDATA #IMPLIED
		ewd:pinNo CDATA #IMPLIED
		ewd:comment CDATA #IMPLIED >
	<!ATTLIST text
		ewd:textID CDATA #IMPLIED
		ewd:horAlign CDATA #IMPLIED >
	<!ATTLIST title
		ewd:textID CDATA #IMPLIED >
]>
<!-- Generator: Shintec Hozumi YS   -->
<svg onload="call_execInitLoadProc_svg('system')" style="overflow:visible;  enable-background:new 0 0 3000.524 710.000" viewBox="0 0 3005.094 710.000" height="710.000" width="3005.094" xml:space="preserve" ewd:ver="2.1.2.10" xmlns="&ns_svg;" xmlns:ewd="http://shcl.co.jp/ewd" xmlns:a="http://ns.adobe.com/AdobeSVGViewerExtensions/3.0/" xmlns:xlink="&ns_xlink;">
<text style="&st18;" transform="matrix(&st17;  2299.42  194.71 )">W-B</text><text style="&st18;" transform="matrix(&st17;  2333.41  194.71 )">W-B</text><text style="&st18;" transform="matrix(&st17;  2367.41  192.3 )">BR</text><text style="&st18;" transform="matrix(&st17;  2435.4  192.3 )">BE</text><text style="&st18;" transform="matrix(&st17;  2477.89  191.22 )">W</text><text style="&st18;" transform="matrix(&st17;  2333.41  628.14 )">W-B</text><text style="&st18;" transform="matrix(&st17;  2367.41  625.73 )">BR</text><text style="&st18;" transform="matrix(&st17;  2299.42  628.14 )">W-B</text><text style="&st18;" transform="matrix(&st17;  2401.4  191.22 )">W</text><text style="&st18;" transform="matrix(&st17;  2401.4  624.65 )">W</text><text style="&st18;" transform="matrix(&st16;  2104.24  468.6 )">E68</text><text style="&st18;" transform="matrix(&st16;  2104.24  475.43 )" ewd:textID="35">Base del interruptor</text><text style="&st18;" transform="matrix(&st17;  2129.45  207.44 )">Y</text><text style="&st18;" transform="matrix(&st17;  2214.43  628.14 )">W-B</text><g ewd:figtype="conn" ewd:figID="11" ewd:code="E87"><path style="stroke-width: 0.85 ;&st7;  " d=" M  2481.58,   265.24  L  2481.58,   282.24  " /><path style="stroke-width: 0.85 ;&st7;  " d=" M  2439.09,   265.24  L  2439.09,   282.24  " /><path style="stroke-width: 1.42 ;&st7;  " d=" M  2430.59,   265.24  L  2430.59,   282.24  L  2490.08,   282.24  L  2490.08,   265.24  L  2430.59,   265.24  " /><text style="&st18;" transform="matrix(&st16;  2432.91  290.43 )">9</text><text style="&st18;" transform="matrix(&st16;  2432.91  261.55 )">8</text><text style="&st18;" transform="matrix(&st16;  2472.3  290.43 )">20</text><text style="&st18;" transform="matrix(&st16;  2472.3  261.55 )">19</text><g ewd:figtype="title"><text style="&st18;" transform="matrix(&st17;  2504.8  285.14 )" ewd:textID="20">Conector de unión</text><text style="&st18;" transform="matrix(&st17;  2497.98  285.14 )">E87</text></g></g><g ewd:figtype="conn" ewd:figID="19" ewd:code="E39"><path style="stroke-width: 1.42 ;&st7;  " d=" M  2294.62,   656.18  L  2294.62,   673.17  L  2413.60,   673.17  L  2413.60,   656.18  L  2294.62,   656.18  " /><path style="stroke-width: 0.85 ;&st7;  " d=" M  2303.11,   656.18  L  2303.11,   681.67  " /><path style="stroke-width: 0.85 ;&st7;  " d=" M  2337.11,   656.18  L  2337.11,   664.67  " /><path style="stroke-width: 0.85 ;&st7;  " d=" M  2301.92,   663.67  L  2301.65,   664.14  L  2301.56,   664.67  L  2301.65,   665.21  L  2301.92,   665.68  L  2302.34,   666.02  L  2302.84,   666.21  L  2303.39,   666.21  L  2303.89,   666.02  L  2304.31,   665.68  L  2304.58,   665.21  L  2304.67,   664.67  L  2304.58,   664.14  L  2304.31,   663.67  L  2303.89,   663.33  L  2303.39,   663.14  L  2302.84,   663.14  L  2302.34,   663.33  L  2301.92,   663.67  L  2302.32,   664.38  L  2302.32,   664.97  L  2302.69,   665.41  L  2303.26,   665.51  L  2303.77,   665.22  L  2303.96,   664.67  L  2303.77,   664.13  L  2303.26,   663.84  L  2302.69,   663.94  L  2303.11,   664.67  " /><path style="stroke-width: 0.85 ;&st7;  " d=" M  2335.92,   663.67  L  2335.64,   664.14  L  2335.55,   664.67  L  2335.64,   665.21  L  2335.92,   665.68  L  2336.33,   666.02  L  2336.84,   666.21  L  2337.38,   666.21  L  2337.89,   666.02  L  2338.30,   665.68  L  2338.57,   665.21  L  2338.67,   664.67  L  2338.57,   664.14  L  2338.30,   663.67  L  2337.89,   663.33  L  2337.38,   663.14  L  2336.84,   663.14  L  2336.33,   663.33  L  2335.92,   663.67  L  2336.31,   664.38  L  2336.31,   664.97  L  2336.68,   665.41  L  2337.26,   665.51  L  2337.76,   665.22  L  2337.96,   664.67  L  2337.76,   664.13  L  2337.26,   663.84  L  2336.68,   663.94  L  2337.11,   664.67  " /><path style="stroke-width: 0.85 ;&st7;  " d=" M  2303.11,   664.67  L  2371.10,   664.67  L  2371.10,   656.18  " /><path style="stroke-width: 0.85 ;&st7;  " d=" M  2371.10,   664.67  L  2405.10,   664.67  L  2405.10,   656.18  " /><path style="stroke-width: 0.85 ;&st7;  " d=" M  2369.91,   663.67  L  2369.64,   664.14  L  2369.54,   664.67  L  2369.64,   665.21  L  2369.91,   665.68  L  2370.32,   666.02  L  2370.83,   666.21  L  2371.37,   666.21  L  2371.88,   666.02  L  2372.30,   665.68  L  2372.57,   665.21  L  2372.66,   664.67  L  2372.57,   664.14  L  2372.30,   663.67  L  2371.88,   663.33  L  2371.37,   663.14  L  2370.83,   663.14  L  2370.32,   663.33  L  2369.91,   663.67  L  2370.30,   664.38  L  2370.30,   664.97  L  2370.68,   665.41  L  2371.25,   665.51  L  2371.75,   665.22  L  2371.95,   664.67  L  2371.75,   664.13  L  2371.25,   663.84  L  2370.68,   663.94  L  2371.10,   664.67  " /><text style="&st18;" transform="matrix(&st16;  2296.93  652.49 )">3</text><text style="&st18;" transform="matrix(&st16;  2330.93  652.49 )">4</text><text style="&st18;" transform="matrix(&st16;  2364.92  652.49 )">5</text><text style="&st18;" transform="matrix(&st16;  2398.91  652.49 )">1</text><g ewd:figtype="title"><text style="&st18;" transform="matrix(&st16;  2415.86  666.64 )" ewd:textID="20">Conector<tspan x="0 " dy="6.0">de unión</tspan></text><text style="&st18;" transform="matrix(&st16;  2415.85  659.54 )">E39</text></g></g><g ewd:figtype="conn" ewd:figID="24" ewd:code="E39"><path style="stroke-width: 1.42 ;&st7;  " d=" M  2209.63,   656.18  L  2209.63,   673.17  L  2226.63,   673.17  L  2226.63,   656.18  L  2209.63,   656.18  " /><path style="stroke-width: 0.85 ;&st7;  " d=" M  2218.13,   656.18  L  2218.13,   681.67  " /><text style="&st18;" transform="matrix(&st16;  2208.84  652.49 )">11</text><g ewd:figtype="title"><text style="&st18;" transform="matrix(&st16;  2228.89  666.64 )" ewd:textID="20">Conector<tspan x="0 " dy="6.0">de unión</tspan></text><text style="&st18;" transform="matrix(&st16;  2228.88  659.54 )">E39</text></g></g><g ewd:figtype="jb" ewd:figID="32" ewd:code="3"><path style="stroke-width: 1.42 ;&st7;  " d=" M  2305.24,   103.77  L  2300.99,   103.77  " /><path style="stroke-width: 1.42 ;&st7;  " d=" M  2305.24,   112.27  L  2300.99,   112.27  " /><path style="stroke-width: 1.42 ;&st7;  " d=" M  2339.23,   103.77  L  2334.98,   103.77  " /><path style="stroke-width: 1.42 ;&st7;  " d=" M  2339.23,   112.27  L  2334.98,   112.27  " /><path style="stroke-width: 1.42 ;&st7;  " d=" M  2373.23,   103.77  L  2368.98,   103.77  " /><path style="stroke-width: 1.42 ;&st7;  " d=" M  2373.23,   112.27  L  2368.98,   112.27  " /><path style="stroke-width: 1.42 ;&st7;   " d=" M  2300.99,   103.77  C  2298.64    103.77   2296.74    105.67   2296.74    108.02  " /><path style="stroke-width: 1.42 ;&st7;   " d=" M  2296.74,   108.02  C  2296.74    110.36   2298.64    112.27   2300.99    112.27  " /><path style="stroke-width: 1.42 ;&st7;   " d=" M  2305.24,   112.27  C  2307.59    112.27   2309.49    110.36   2309.49    108.02  " /><path style="stroke-width: 1.42 ;&st7;   " d=" M  2309.49,   108.02  C  2309.49    105.67   2307.59    103.77   2305.24    103.77  " /><path style="stroke-width: 1.42 ;&st7;   " d=" M  2334.98,   103.77  C  2332.64    103.77   2330.74    105.67   2330.74    108.02  " /><path style="stroke-width: 1.42 ;&st7;   " d=" M  2330.74,   108.02  C  2330.74    110.36   2332.64    112.27   2334.98    112.27  " /><path style="stroke-width: 1.42 ;&st7;   " d=" M  2339.23,   112.27  C  2341.58    112.27   2343.48    110.36   2343.48    108.02  " /><path style="stroke-width: 1.42 ;&st7;   " d=" M  2343.48,   108.02  C  2343.48    105.67   2341.58    103.77   2339.23    103.77  " /><path style="stroke-width: 1.42 ;&st7;   " d=" M  2368.98,   103.77  C  2366.63    103.77   2364.73    105.67   2364.73    108.02  " /><path style="stroke-width: 1.42 ;&st7;   " d=" M  2364.73,   108.02  C  2364.73    110.36   2366.63    112.27   2368.98    112.27  " /><path style="stroke-width: 1.42 ;&st7;   " d=" M  2373.23,   112.27  C  2375.58    112.27   2377.48    110.36   2377.48    108.02  " /><path style="stroke-width: 1.42 ;&st7;   " d=" M  2377.48,   108.02  C  2377.48    105.67   2375.58    103.77   2373.23    103.77  " /><path style="stroke-width: 0.28 ;&st9;  " d=" M  2303.11,    98.87  L  2300.28,    96.04  L  2300.28,   100.29  L  2303.11,   103.12  L  2305.95,   100.29  L  2305.95,    96.04  L  2303.11,    98.87  " /><path style="stroke-width: 0.28 ;&st9;  " d=" M  2337.11,    98.87  L  2334.28,    96.04  L  2334.28,   100.29  L  2337.11,   103.12  L  2339.94,   100.29  L  2339.94,    96.04  L  2337.11,    98.87  " /><path style="stroke-width: 0.85 ;&st7;  " d=" M  2303.11,    78.27  L  2303.11,   103.77  " /><path style="stroke-width: 0.85 ;&st7;  " d=" M  2337.11,    78.27  L  2337.11,   103.77  " /><path style="stroke-width: 0.28 ;&st9;  " d=" M  2371.10,    98.87  L  2368.27,    96.04  L  2368.27,   100.29  L  2371.10,   103.12  L  2373.94,   100.29  L  2373.94,    96.04  L  2371.10,    98.87  " /><path style="stroke-width: 0.85 ;&st7;  " d=" M  2371.10,    78.27  L  2371.10,   103.77  " /><text style="&st18;" transform="matrix(&st16;  2300.42  109.99 )">3I</text><text style="&st18;" transform="matrix(&st16;  2292.61  109.99 )">1</text><text style="&st18;" transform="matrix(&st16;  2333.1  109.99 )">3G</text><text style="&st18;" transform="matrix(&st16;  2326.6  109.99 )">1</text><text style="&st18;" transform="matrix(&st16;  2367.09  109.99 )">3G</text><text style="&st18;" transform="matrix(&st16;  2357.49  109.99 )">12</text><path style="stroke-width: 1.42 ;&st7;  " d=" M  2441.22,   112.27  L  2436.97,   112.27  " /><path style="stroke-width: 1.42 ;&st7;  " d=" M  2441.22,   103.77  L  2436.97,   103.77  " /><path style="stroke-width: 1.42 ;&st7;  " d=" M  2483.71,   112.27  L  2479.46,   112.27  " /><path style="stroke-width: 1.42 ;&st7;  " d=" M  2483.71,   103.77  L  2479.46,   103.77  " /><path style="stroke-width: 1.42 ;&st7;   " d=" M  2445.47,   108.02  C  2445.47    105.67   2443.56    103.77   2441.22    103.77  " /><path style="stroke-width: 1.42 ;&st7;   " d=" M  2441.22,   112.27  C  2443.56    112.27   2445.47    110.36   2445.47    108.02  " /><path style="stroke-width: 1.42 ;&st7;   " d=" M  2432.72,   108.02  C  2432.72    110.36   2434.62    112.27   2436.97    112.27  " /><path style="stroke-width: 1.42 ;&st7;   " d=" M  2436.97,   103.77  C  2434.62    103.77   2432.72    105.67   2432.72    108.02  " /><path style="stroke-width: 1.42 ;&st7;   " d=" M  2487.96,   108.02  C  2487.96    105.67   2486.06    103.77   2483.71    103.77  " /><path style="stroke-width: 1.42 ;&st7;   " d=" M  2483.71,   112.27  C  2486.06    112.27   2487.96    110.36   2487.96    108.02  " /><path style="stroke-width: 1.42 ;&st7;   " d=" M  2475.21,   108.02  C  2475.21    110.36   2477.11    112.27   2479.46    112.27  " /><path style="stroke-width: 1.42 ;&st7;   " d=" M  2479.46,   103.77  C  2477.11    103.77   2475.21    105.67   2475.21    108.02  " /><path style="stroke-width: 0.28 ;&st9;  " d=" M  2439.09,    98.87  L  2436.26,    96.04  L  2436.26,   100.29  L  2439.09,   103.12  L  2441.92,   100.29  L  2441.92,    96.04  L  2439.09,    98.87  " /><path style="stroke-width: 0.28 ;&st9;  " d=" M  2481.58,    98.87  L  2478.75,    96.04  L  2478.75,   100.29  L  2481.58,   103.12  L  2484.42,   100.29  L  2484.42,    96.04  L  2481.58,    98.87  " /><path style="stroke-width: 0.85 ;&st7;  " d=" M  2481.58,   103.77  L  2481.58,    78.27  " /><path style="stroke-width: 0.85 ;&st7;  " d=" M  2439.09,   103.77  L  2439.09,    78.27  " /><text style="&st18;" transform="matrix(&st16;  2425.48  109.99 )">17</text><text style="&st18;" transform="matrix(&st16;  2435.08  109.99 )">3G</text><text style="&st18;" transform="matrix(&st16;  2467.98  109.99 )">16</text><text style="&st18;" transform="matrix(&st16;  2477.57  109.99 )">3G</text><path style="stroke-width: 1.42 ;&st7;  " d=" M  2407.22,   103.77  L  2402.97,   103.77  " /><path style="stroke-width: 1.42 ;&st7;  " d=" M  2407.22,   112.27  L  2402.97,   112.27  " /><path style="stroke-width: 1.42 ;&st7;   " d=" M  2402.97,   103.77  C  2400.63    103.77   2398.72    105.67   2398.72    108.02  " /><path style="stroke-width: 1.42 ;&st7;   " d=" M  2398.72,   108.02  C  2398.72    110.36   2400.63    112.27   2402.97    112.27  " /><path style="stroke-width: 1.42 ;&st7;   " d=" M  2407.22,   112.27  C  2409.57    112.27   2411.47    110.36   2411.47    108.02  " /><path style="stroke-width: 1.42 ;&st7;   " d=" M  2411.47,   108.02  C  2411.47    105.67   2409.57    103.77   2407.22    103.77  " /><path style="stroke-width: 0.28 ;&st9;  " d=" M  2405.10,    98.87  L  2402.26,    96.04  L  2402.26,   100.29  L  2405.10,   103.12  L  2407.93,   100.29  L  2407.93,    96.04  L  2405.10,    98.87  " /><path style="stroke-width: 0.85 ;&st7;  " d=" M  2405.10,    78.27  L  2405.10,   103.77  " /><text style="&st18;" transform="matrix(&st16;  2401.09  109.99 )">3G</text><text style="&st18;" transform="matrix(&st16;  2391.49  109.99 )">11</text></g><g ewd:figtype="jb" ewd:figID="37" ewd:code="3"><path style="stroke-width: 1.42 ;&st7;  " d=" M  2135.27,   112.27  L  2131.02,   112.27  " /><path style="stroke-width: 1.42 ;&st7;  " d=" M  2135.27,   120.77  L  2131.02,   120.77  " /><path style="stroke-width: 1.42 ;&st7;   " d=" M  2131.02,   112.27  C  2128.67    112.27   2126.77    114.17   2126.77    116.52  " /><path style="stroke-width: 1.42 ;&st7;   " d=" M  2126.77,   116.52  C  2126.77    118.86   2128.67    120.77   2131.02    120.77  " /><path style="stroke-width: 1.42 ;&st7;   " d=" M  2135.27,   120.77  C  2137.62    120.77   2139.52    118.86   2139.52    116.52  " /><path style="stroke-width: 1.42 ;&st7;   " d=" M  2139.52,   116.52  C  2139.52    114.17   2137.62    112.27   2135.27    112.27  " /><path style="stroke-width: 0.28 ;&st9;  " d=" M  2133.14,   107.37  L  2130.31,   104.54  L  2130.31,   108.79  L  2133.14,   111.62  L  2135.98,   108.79  L  2135.98,   104.54  L  2133.14,   107.37  " /><path style="stroke-width: 0.85 ;&st7;  " d=" M  2133.14,    78.27  L  2133.14,   112.27  " /><text style="&st18;" transform="matrix(&st16;  2129.48  118.49 )">3F</text><text style="&st18;" transform="matrix(&st16;  2119.53  118.49 )">22</text></g><g ewd:figtype="gp" ewd:figID="55" ewd:code="E4"><path style="stroke-width: 0.85 ;&st7;  " d=" M  2213.88,   704.33  L  2222.38,   704.33  " /><path style="stroke-width: 0.85 ;&st7;  " d=" M  2218.13,   697.25  L  2218.13,   701.50  " /><path style="stroke-width: 0.85 ;&st7;  " d=" M  2209.63,   701.50  L  2226.63,   701.50  " /><path style="stroke-width: 0.85 ;&st7;  " d=" M  2216.71,   710.00  L  2219.54,   710.00  " /><path style="stroke-width: 0.85 ;&st7;  " d=" M  2215.30,   707.17  L  2220.96,   707.17  " /></g><g ewd:figtype="gp" ewd:figID="56" ewd:code="E4"><path style="stroke-width: 0.85 ;&st7;  " d=" M  2298.86,   704.33  L  2307.36,   704.33  " /><path style="stroke-width: 0.85 ;&st7;  " d=" M  2303.11,   697.25  L  2303.11,   701.50  " /><path style="stroke-width: 0.85 ;&st7;  " d=" M  2294.62,   701.50  L  2311.61,   701.50  " /><path style="stroke-width: 0.85 ;&st7;  " d=" M  2301.70,   710.00  L  2304.53,   710.00  " /><path style="stroke-width: 0.85 ;&st7;  " d=" M  2300.28,   707.17  L  2305.95,   707.17  " /></g></svg>