﻿<?xml version="1.0" encoding="utf-8"?>
<!DOCTYPE svg PUBLIC "-//W3C//DTD SVG 1.0//EN" "http://www.w3.org/TR/2001/REC-SVG-20010904/DTD/svg10.dtd"[
	<!ENTITY ns_flows "http://ns.adobe.com/Flows/1.0/">
	<!ENTITY ns_svg "http://www.w3.org/2000/svg">
	<!ENTITY ns_xlink "http://www.w3.org/1999/xlink">
	<!ENTITY st0 "font-size:7px;font-family:'MS-PGothic';adobe-font-script:japanese;">
	<!ENTITY st1 "font-size:6px;font-family:'ArialMT';">
	<!-- White fill  -->
	<!ENTITY st2 "fill:#FFFFFF;stroke:#000000; stroke-width:1.41;stroke-linecap:round;stroke-linejoin:round;">
	<!-- Yellow fill  -->
	<!ENTITY st3 "fill:#FFFFCC;stroke:#FFFFCC; stroke-width:0.1;stroke-linecap:round;stroke-linejoin:round;">
	<!-- Gray fill  -->
	<!ENTITY st4 "fill:#CCCCCC;stroke:#CCCCCC; stroke-width:0.1;stroke-linecap:round;stroke-linejoin:round;">
	<!-- Light-blue fill -->
	<!ENTITY st5 "fill:#CCECF4;stroke:#000000; stroke-width:1.133;stroke-linecap:round;stroke-linejoin:round;">
	<!ENTITY st6 "fill:none;stroke-linecap:butt; stroke-linejoin:round;">
	<!ENTITY st7 "fill:none;stroke:#000000;stroke-linecap:round;stroke-linejoin:round;">
	<!ENTITY st8 "enable-background:new    ;">
	<!-- Black fill -->
	<!ENTITY st9 "fill:#000000;stroke:#000000; stroke-linecap:round;stroke-linejoin:round;">
	<!-- SRS note   -->
	<!ENTITY st10 "font-size:9px;font-family:'ArialMT';">
	<!ENTITY st11 "font-size:9px;font-family:'Svg Symbol';">
	<!ENTITY st12 "font-size:6px;font-family:'Svg Symbol';">
	<!ENTITY st13 "fill:none;stroke:#ff0000;stroke-linecap:round;stroke-linejoin:round;">
	<!-- Yellow fill  -->
	<!ENTITY st14 "fill:#FFFF00;stroke:#FFFF00; stroke-width:0.1;stroke-linecap:round;stroke-linejoin:round;">
	<!ENTITY st15 "font-size:6px;font-family:'MS-PGothic';adobe-font-script:japanese;">
	<!ENTITY st16 "1.00 0.00 0.00 1.00">
	<!ENTITY st17 "0.00 -1.00 1.00 0.00">
	<!ENTITY st18 "font-size:6px;font-family:'Arial';">
	<!ENTITY st19 "font-size:9px;font-family:'Arial';">
	<!ENTITY st20 "font-size:6px;font-family:'MS-PGothic','MS PGothic';adobe-font-script:japanese;">
	<!ENTITY st21 "font-size:7px;font-family:'MS-PGothic','MS PGothic';adobe-font-script:japanese;">
	<!ATTLIST svg
		xmlns:ewd CDATA #FIXED "http://shcl.co.jp/ewd"
		xmlns:a CDATA #FIXED "http://ns.adobe.com/AdobeSVGViewerExtensions/3.0/"
		ewd:ver CDATA #IMPLIED
	>
	<!ATTLIST a
		ewd:lineID CDATA #IMPLIED
		ewd:groupID CDATA #IMPLIED
		ewd:figtype CDATA #IMPLIED
		ewd:code CDATA #IMPLIED
		ewd:figID CDATA #IMPLIED
		ewd:pinNo CDATA #IMPLIED
		ewd:comment CDATA #IMPLIED >
	<!ATTLIST g
		ewd:lineID CDATA #IMPLIED
		ewd:groupID CDATA #IMPLIED
		ewd:figtype CDATA #IMPLIED
		ewd:code CDATA #IMPLIED
		ewd:figID CDATA #IMPLIED
		ewd:pinNo CDATA #IMPLIED
		ewd:comment CDATA #IMPLIED >
	<!ATTLIST text
		ewd:textID CDATA #IMPLIED
		ewd:horAlign CDATA #IMPLIED >
	<!ATTLIST title
		ewd:textID CDATA #IMPLIED >
]>
<!-- Generator: Shintec Hozumi YS   -->
<svg onload="call_execInitLoadProc_svg('system')" style="overflow:visible;  enable-background:new 0 0 2025.099 710.000" viewBox="0 0 2014.307 710.000" height="710.000" width="2014.307" xml:space="preserve" ewd:ver="2.1.2.10" xmlns="&ns_svg;" xmlns:ewd="http://shcl.co.jp/ewd" xmlns:a="http://ns.adobe.com/AdobeSVGViewerExtensions/3.0/" xmlns:xlink="&ns_xlink;"><script type="text/javascript" xlink:href="../../../../../system/js/ewd/fig/svgfig.js" xmlns:xlink="http://www.w3.org/1999/xlink" />
<g id="ewd_top"><a ewd:figtype="conn" style="cursor:pointer;" ewd:code="G7" ewd:figID="1"><path style="&st5;" d=" M   645.89,   435.21  L   645.89,   503.20  L   552.41,   503.20  L   552.41,   435.21  L   645.89,   435.21 " /><title ewd:textID="8">Conjunto de bloqueo de la puerta delantera LH</title></a><a ewd:figtype="conn" style="cursor:pointer;" ewd:code="J8" ewd:figID="2"><path style="&st5;" d=" M  1436.26,   579.69  L  1436.26,   545.69  L  1419.26,   545.69  L  1419.26,   579.69  L  1436.26,   579.69 " /><title ewd:textID="13">Interruptor de la luz automática trasera LH</title></a><a ewd:figtype="conn" style="cursor:pointer;" ewd:code="J6" ewd:figID="3"><path style="&st5;" d=" M  1317.28,   579.69  L  1317.28,   545.69  L  1300.28,   545.69  L  1300.28,   579.69  L  1317.28,   579.69 " /><title ewd:textID="6">Interruptor de la luz automática delantera LH</title></a><a ewd:figtype="conn" style="cursor:pointer;" ewd:code="J1" ewd:figID="4"><path style="&st5;" d=" M  1257.79,   579.69  L  1257.79,   545.69  L  1240.79,   545.69  L  1240.79,   579.69  L  1257.79,   579.69 " /><title ewd:textID="7">Interruptor de la luz automática delantera RH</title></a><a ewd:figtype="conn" style="cursor:pointer;" ewd:code="L4" ewd:figID="5"><path style="&st5;" d=" M  1189.80,   579.69  L  1189.80,   545.69  L  1172.80,   545.69  L  1172.80,   579.69  L  1189.80,   579.69 " /><title ewd:textID="3">Conjunto de bloqueo de portón trasero</title></a><a ewd:figtype="conn" style="cursor:pointer;" ewd:code="J3" ewd:figID="6"><path style="&st5;" d=" M  1376.77,   579.69  L  1376.77,   545.69  L  1359.77,   545.69  L  1359.77,   579.69  L  1376.77,   579.69 " /><title ewd:textID="14">Interruptor de la luz automática trasera RH</title></a><a ewd:figtype="conn" style="cursor:pointer;" ewd:code="E34" ewd:figID="7"><path style="&st5;" d=" M  1410.76,   299.24  L  1453.26,   299.24  L  1453.26,   350.23  L  1410.76,   350.23  L  1410.76,   299.24 " /><title ewd:textID="4">Conjunto del panel de instrumentos</title></a><a ewd:figtype="rb" style="cursor:pointer;" ewd:code="FUSE43" ewd:figID="8"><path style="fill:#CCECF4;stroke:#000000; stroke-width:0; stroke-linecap:round;stroke-linejoin:round; " d=" M   718.13,    35.78  L   718.13,    78.27  L   743.63,    78.27  L   743.63,    35.78  L   718.13,    35.78 " /></a><a ewd:figtype="rb" style="cursor:pointer;" ewd:code="FUSE35" ewd:figID="9"><path style="fill:#CCECF4;stroke:#000000; stroke-width:0; stroke-linecap:round;stroke-linejoin:round; " d=" M   777.62,    35.78  L   777.62,    78.27  L   803.12,    78.27  L   803.12,    35.78  L   777.62,    35.78 " /></a><a ewd:figtype="rb" style="cursor:pointer;" ewd:code="FUSE41" ewd:figID="10"><path style="fill:#CCECF4;stroke:#000000; stroke-width:0; stroke-linecap:round;stroke-linejoin:round; " d=" M   854.11,    35.78  L   854.11,    78.27  L   879.60,    78.27  L   879.60,    35.78  L   854.11,    35.78 " /></a><a ewd:figtype="conn" style="cursor:pointer;" ewd:code="E57" ewd:figID="11"><path style="&st5;" d=" M   875.35,   171.76  L   875.35,   137.76  L   858.36,   137.76  L   858.36,   171.76  L   875.35,   171.76 " /><title ewd:textID="18">Conjunto del interruptor de advertencia de desbloqueo</title></a><a ewd:figtype="conn" style="cursor:pointer;" ewd:code="E42" ewd:figID="12"><path style="&st5;" d=" M   781.87,   171.76  L   798.87,   171.76  L   798.87,   188.75  L   781.87,   188.75  L   781.87,   171.76 " /><title ewd:textID="10">Conector de unión</title></a><a ewd:figtype="conn" style="cursor:pointer;" ewd:code="E64" ewd:figID="13"><path style="&st5;" d=" M   858.36,   214.25  L   875.35,   214.25  L   875.35,   231.25  L   858.36,   231.25  L   858.36,   214.25 " /><title ewd:textID="10">Conector de unión</title></a><a ewd:figtype="conn" style="cursor:pointer;" ewd:code="E62" ewd:figID="14"><path style="&st5;" d=" M   645.89,   282.24  L   645.89,   324.73  L   994.33,   324.73  L   994.33,   282.24  L   645.89,   282.24 " /><title ewd:textID="5">Receptor de control de puerta</title></a><a ewd:figtype="conn" style="cursor:pointer;" ewd:code="E64" ewd:figID="15"><path style="&st5;" d=" M   832.86,   392.72  L   849.86,   392.72  L   849.86,   409.72  L   832.86,   409.72  L   832.86,   392.72 " /><title ewd:textID="10">Conector de unión</title></a><a ewd:figtype="conn" style="cursor:pointer;" ewd:code="E35" ewd:figID="16"><path style="&st5;" d=" M   824.36,   477.71  L   824.36,   511.70  L   858.36,   511.70  L   858.36,   477.71  L   824.36,   477.71 " /><title ewd:textID="17">Conjunto del intermitente de la señal de giro</title></a><a ewd:figtype="conn" style="cursor:pointer;" ewd:code="L4" ewd:figID="17"><path style="&st5;" d=" M   365.44,   605.18  L   365.44,   647.68  L   433.43,   647.68  L   433.43,   605.18  L   365.44,   605.18 " /><title ewd:textID="3">Conjunto de bloqueo de portón trasero</title></a><a ewd:figtype="conn" style="cursor:pointer;" ewd:code="H4" ewd:figID="18"><path style="&st5;" d=" M   271.95,   605.18  L   271.95,   647.68  L   339.94,   647.68  L   339.94,   605.18  L   271.95,   605.18 " /><title ewd:textID="16">Conjunto del seguro de portón trasero RH</title></a><a ewd:figtype="conn" style="cursor:pointer;" ewd:code="I4" ewd:figID="19"><path style="&st5;" d=" M   178.47,   605.18  L   178.47,   647.68  L   246.46,   647.68  L   246.46,   605.18  L   178.47,   605.18 " /><title ewd:textID="15">Conjunto del seguro de portón trasero LH</title></a><a ewd:figtype="conn" style="cursor:pointer;" ewd:code="F7" ewd:figID="20"><path style="&st5;" d=" M    84.99,   605.18  L    84.99,   647.68  L   152.97,   647.68  L   152.97,   605.18  L    84.99,   605.18 " /><title ewd:textID="9">Conjunto de bloqueo de la puerta delantera RH</title></a><a ewd:figtype="rb" style="cursor:pointer;" ewd:code="FUSE15" ewd:figID="21"><path style="fill:#CCECF4;stroke:#000000; stroke-width:0; stroke-linecap:round;stroke-linejoin:round; " d=" M  1839.94,    35.78  L  1839.94,    78.27  L  1865.44,    78.27  L  1865.44,    35.78  L  1839.94,    35.78 " /></a><a ewd:figtype="conn" style="cursor:pointer;" ewd:code="E48" ewd:figID="22"><path style="&st5;" d=" M  1844.19,   188.75  L  1861.19,   188.75  L  1861.19,   205.75  L  1844.19,   205.75  L  1844.19,   188.75 " /><title ewd:textID="10">Conector de unión</title></a><a ewd:figtype="conn" style="cursor:pointer;" ewd:code="K2" ewd:figID="23"><path style="&st5;" d=" M  1835.69,   358.73  L  1835.69,   435.21  L  1869.69,   435.21  L  1869.69,   358.73  L  1835.69,   358.73 " /><title ewd:textID="12">Conjunto de la luz interior n.° 1</title></a><a ewd:figtype="conn" style="cursor:pointer;" ewd:code="K1" ewd:figID="24"><path style="&st5;" d=" M  1733.71,   358.73  L  1733.71,   435.21  L  1776.20,   435.21  L  1776.20,   358.73  L  1733.71,   358.73 " /><title ewd:textID="11">Conjunto de la luz interior</title></a><a ewd:figtype="conn" style="cursor:pointer;" ewd:code="K4" ewd:figID="25"><path style="&st5;" d=" M  1631.73,   435.21  L  1691.22,   435.21  L  1691.22,   392.72  L  1631.73,   392.72  L  1631.73,   435.21 " /><title ewd:textID="11">Conjunto de la luz interior</title></a><a ewd:figtype="conn" style="cursor:pointer;" ewd:code="E39" ewd:figID="26"><path style="&st5;" d=" M  1852.69,   656.18  L  1852.69,   673.17  L  1869.69,   673.17  L  1869.69,   656.18  L  1852.69,   656.18 " /><title ewd:textID="10">Conector de unión</title></a><a ewd:figtype="fuse" style="cursor:pointer;" ewd:code="FUSE43" ewd:figID="71"><path style="&st7; stroke-width:0;" d=" M   718.13,    35.78  L   718.13,    78.27  L   743.63,    78.27  L   743.63,    35.78  L   718.13,    35.78 " /></a><a ewd:figtype="fuse" style="cursor:pointer;" ewd:code="FUSE35" ewd:figID="72"><path style="&st7; stroke-width:0;" d=" M   777.62,    35.78  L   777.62,    78.27  L   803.12,    78.27  L   803.12,    35.78  L   777.62,    35.78 " /></a><a ewd:figtype="fuse" style="cursor:pointer;" ewd:code="FUSE41" ewd:figID="73"><path style="&st7; stroke-width:0;" d=" M   854.11,    35.78  L   854.11,    78.27  L   879.60,    78.27  L   879.60,    35.78  L   854.11,    35.78 " /></a><a ewd:figtype="fuse" style="cursor:pointer;" ewd:code="FUSE15" ewd:figID="74"><path style="&st7; stroke-width:0;" d=" M  1839.94,    35.78  L  1839.94,    78.27  L  1865.44,    78.27  L  1865.44,    35.78  L  1839.94,    35.78 " /></a><a style="cursor:pointer;" ewd:lineID="1"><path style="stroke:#008837;stroke-width: 5.10 ;&st6;" d=" M    93.48,   605.18  L    93.48,   520.20  " /></a><a style="cursor:pointer;" ewd:lineID="2"><path style="stroke:#F668B2;stroke-width: 5.10 ;&st6;" d=" M   144.48,   605.18  L   144.48,   520.20  " /></a><a style="cursor:pointer;" ewd:lineID="3"><path style="stroke:#008837;stroke-width: 5.10 ;&st6;" d=" M   178.47,   307.73  L    93.48,   307.73  L    93.48,   505.47  " /></a><a style="cursor:pointer;" ewd:lineID="4"><path style="stroke:#008837;stroke-width: 5.10 ;&st6;" d=" M   186.97,   605.18  L   186.97,   520.20  " /></a><a style="cursor:pointer;" ewd:lineID="5"><path style="stroke:#008837;stroke-width: 5.10 ;&st6;" d=" M   186.97,   469.21  L   186.97,   505.47  " /></a><a style="cursor:pointer;" ewd:lineID="6"><path style="stroke:#008837;stroke-width: 5.10 ;&st6;" d=" M   186.97,   392.72  L   186.97,   452.21  " /></a><a style="cursor:pointer;" ewd:lineID="7"><path style="stroke:#008837;stroke-width: 5.10 ;&st6;" d=" M   186.97,   377.99  L   186.97,   316.23  " /></a><a style="cursor:pointer;" ewd:lineID="8"><path style="stroke:#008837;stroke-width: 5.10 ;&st6;" d=" M   195.47,   460.71  L   271.95,   460.71  " /></a><a style="cursor:pointer;" ewd:lineID="9"><path style="stroke:#008837;stroke-width: 5.10 ;&st6;" d=" M   195.47,   307.73  L   611.90,   307.73  " /></a><a style="cursor:pointer;" ewd:lineID="10"><path style="stroke:#F668B2;stroke-width: 5.10 ;&st6;" d=" M   229.46,   333.23  L   144.48,   333.23  L   144.48,   505.47  " /></a><a style="cursor:pointer;" ewd:lineID="11"><path style="stroke:#F668B2;stroke-width: 5.10 ;&st6;" d=" M   237.96,   605.18  L   237.96,   520.20  " /></a><a style="cursor:pointer;" ewd:lineID="12"><path style="stroke:#F668B2;stroke-width: 5.10 ;&st6;" d=" M   237.96,   443.71  L   237.96,   505.47  " /></a><a style="cursor:pointer;" ewd:lineID="13"><path style="stroke:#F668B2;stroke-width: 5.10 ;&st6;" d=" M   237.96,   392.72  L   237.96,   426.71  " /></a><a style="cursor:pointer;" ewd:lineID="14"><path style="stroke:#F668B2;stroke-width: 5.10 ;&st6;" d=" M   237.96,   377.99  L   237.96,   341.73  " /></a><a style="cursor:pointer;" ewd:lineID="15"><path style="stroke:#F668B2;stroke-width: 5.10 ;&st6;" d=" M   246.46,   435.21  L   322.95,   435.21  " /></a><a style="cursor:pointer;" ewd:lineID="16"><path style="stroke:#F668B2;stroke-width: 5.10 ;&st6;" d=" M   246.46,   333.23  L   560.91,   333.23  " /></a><a style="cursor:pointer;" ewd:lineID="17"><path style="stroke:#008837;stroke-width: 5.10 ;&st6;" d=" M   280.45,   605.18  L   280.45,   520.20  " /></a><a style="cursor:pointer;" ewd:lineID="18"><path style="stroke:#008837;stroke-width: 5.10 ;&st6;" d=" M   280.45,   469.21  L   280.45,   505.47  " /></a><a style="cursor:pointer;" ewd:lineID="19"><path style="stroke:#008837;stroke-width: 5.10 ;&st6;" d=" M   288.95,   460.71  L   373.94,   460.71  L   373.94,   505.47  " /></a><a style="cursor:pointer;" ewd:lineID="20"><path style="stroke:#F668B2;stroke-width: 5.10 ;&st6;" d=" M   331.44,   605.18  L   331.44,   520.20  " /></a><a style="cursor:pointer;" ewd:lineID="21"><path style="stroke:#F668B2;stroke-width: 5.10 ;&st6;" d=" M   331.44,   443.71  L   331.44,   505.47  " /></a><a style="cursor:pointer;" ewd:lineID="22"><path style="stroke:#F668B2;stroke-width: 5.10 ;&st6;" d=" M   339.94,   435.21  L   424.93,   435.21  L   424.93,   505.47  " /></a><a style="cursor:pointer;" ewd:lineID="23"><path style="stroke:#008837;stroke-width: 5.10 ;&st6;" d=" M   373.94,   605.18  L   373.94,   560.42  " /></a><a style="cursor:pointer;" ewd:lineID="24"><path style="stroke:#008837;stroke-width: 5.10 ;&st6;" d=" M   373.94,   545.69  L   373.94,   520.20  " /></a><a style="cursor:pointer;" ewd:lineID="25"><path style="stroke:#F668B2;stroke-width: 5.10 ;&st6;" d=" M   424.93,   605.18  L   424.93,   560.42  " /></a><a style="cursor:pointer;" ewd:lineID="26"><path style="stroke:#F668B2;stroke-width: 5.10 ;&st6;" d=" M   424.93,   545.69  L   424.93,   520.20  " /></a><a style="cursor:pointer;" ewd:lineID="27"><path style="stroke:#F668B2;stroke-width: 5.10 ;&st6;" d=" M   569.40,   435.21  L   569.40,   392.72  " /></a><a style="cursor:pointer;" ewd:lineID="28"><path style="stroke:#F668B2;stroke-width: 5.10 ;&st6;" d=" M   569.40,   377.99  L   569.40,   341.73  " /></a><a style="cursor:pointer;" ewd:lineID="29"><path style="stroke:#F668B2;stroke-width: 5.10 ;&st6;" d=" M   569.40,   324.73  L   569.40,   222.75  L   696.88,   222.75  L   696.88,   282.24  " /></a><a style="cursor:pointer;" ewd:lineID="30"><path style="stroke:#008837;stroke-width: 5.10 ;&st6;" d=" M   620.40,   435.21  L   620.40,   392.72  " /></a><a style="cursor:pointer;" ewd:lineID="31"><path style="stroke:#008837;stroke-width: 5.10 ;&st6;" d=" M   620.40,   377.99  L   620.40,   316.23  " /></a><a style="cursor:pointer;" ewd:lineID="32"><path style="stroke:#008837;stroke-width: 5.10 ;&st6;" d=" M   620.40,   299.24  L   620.40,   239.75  L   662.89,   239.75  L   662.89,   282.24  " /></a><a style="cursor:pointer;" ewd:lineID="33"><path style="stroke:#FF0000;stroke-width: 5.10 ;&st6;" d=" M   730.88,   103.77  L   730.88,   282.24  " /></a><a style="cursor:pointer;" ewd:lineID="34"><path style="stroke:#F668B2;stroke-width: 5.10 ;&st6;" d=" M   790.37,   188.75  L   790.37,   282.24  " /><path style="stroke:#FFFFFF;stroke-width: 2.27 ;&st6;" d=" M   790.37,   188.75  L   790.37,   282.24  " /><path style="stroke:#000000;stroke-width: 1.13 ;&st6;" d=" M   790.37,   188.75  L   790.37,   282.24  " /></a><a style="cursor:pointer;" ewd:lineID="35"><path style="stroke:#000000;stroke-width: 5.10 ;&st6;" d=" M   790.37,   103.77  L   790.37,   171.76  " /><path style="stroke:#FFFFFF;stroke-width: 1.13 ;&st6;" d=" M   790.37,   103.77  L   790.37,   171.76  " /></a><a style="cursor:pointer;" ewd:lineID="36"><path style="stroke:#000000;stroke-width: 5.10 ;&st6;" d=" M   841.36,   409.72  L   841.36,   477.71  " /><path style="stroke:#FFFFFF;stroke-width: 2.27 ;&st6;" d=" M   841.36,   409.72  L   841.36,   477.71  " /><path style="stroke:#FFE600;stroke-width: 1.13 ;&st6;" d=" M   841.36,   409.72  L   841.36,   477.71  " /></a><a style="cursor:pointer;" ewd:lineID="37"><path style="stroke:#FF0000;stroke-width: 5.10 ;&st6;" d=" M   841.36,   324.73  L   841.36,   392.72  " /></a><a style="cursor:pointer;" ewd:lineID="38"><path style="stroke:#000000;stroke-width: 5.10 ;&st6;" d=" M   866.86,   231.25  L   866.86,   282.24  " /><path style="stroke:#FFFFFF;stroke-width: 4.53 ;&st6;" d=" M   866.86,   231.25  L   866.86,   282.24  " /><path style="stroke:#FF0000;stroke-width: 1.13 ;&st6;" d=" M   866.86,   231.25  L   866.86,   282.24  " /></a><a style="cursor:pointer;" ewd:lineID="39"><path style="stroke:#008837;stroke-width: 5.10 ;&st6;" d=" M   866.86,   214.25  L   866.86,   171.76  " /></a><a style="cursor:pointer;" ewd:lineID="40"><path style="stroke:#000000;stroke-width: 5.10 ;&st6;" d=" M   866.86,   103.77  L   866.86,   137.76  " /></a><a style="cursor:pointer;" ewd:lineID="41"><path style="stroke:#000000;stroke-width: 5.10 ;&st6;" d=" M   909.35,   324.73  L   909.35,   681.67  " /><path style="stroke:#FFFFFF;stroke-width: 4.53 ;&st6;" d=" M   909.35,   324.73  L   909.35,   681.67  " /><path style="stroke:#000000;stroke-width: 1.13 ;&st6;" d=" M   909.35,   324.73  L   909.35,   681.67  " /></a><a style="cursor:pointer;" ewd:lineID="42"><path style="stroke:#000000;stroke-width: 5.10 ;&st6;" d=" M   977.34,   324.73  L   977.34,   664.67  L  1742.21,   664.67  L  1742.21,   585.92  " /><path style="stroke:#FFFFFF;stroke-width: 4.53 ;&st6;" d=" M   977.34,   324.73  L   977.34,   664.67  L  1742.21,   664.67  L  1742.21,   585.92  " /><path style="stroke:#00A0C6;stroke-width: 1.13 ;&st6;" d=" M   977.34,   324.73  L   977.34,   664.67  L  1742.21,   664.67  L  1742.21,   585.92  " /></a><a style="cursor:pointer;" ewd:lineID="43"><path style="stroke:#000000;stroke-width: 5.10 ;&st6;" d=" M  1181.30,   579.69  L  1181.30,   681.67  " /><path style="stroke:#FFFFFF;stroke-width: 4.53 ;&st6;" d=" M  1181.30,   579.69  L  1181.30,   681.67  " /><path style="stroke:#000000;stroke-width: 1.13 ;&st6;" d=" M  1181.30,   579.69  L  1181.30,   681.67  " /></a><a style="cursor:pointer;" ewd:lineID="44"><path style="stroke:#000000;stroke-width: 5.10 ;&st6;" d=" M  1181.30,   545.69  L  1181.30,   492.44  " /><path style="stroke:#FFFFFF;stroke-width: 4.53 ;&st6;" d=" M  1181.30,   545.69  L  1181.30,   492.44  " /><path style="stroke:#00A0C6;stroke-width: 1.13 ;&st6;" d=" M  1181.30,   545.69  L  1181.30,   492.44  " /></a><a style="cursor:pointer;" ewd:lineID="45"><path style="stroke:#000000;stroke-width: 5.10 ;&st6;" d=" M  1249.29,   494.70  L  1249.29,   545.69  " /><path style="stroke:#FFFFFF;stroke-width: 4.53 ;&st6;" d=" M  1249.29,   494.70  L  1249.29,   545.69  " /><path style="stroke:#00A0C6;stroke-width: 1.13 ;&st6;" d=" M  1249.29,   494.70  L  1249.29,   545.69  " /></a><a style="cursor:pointer;" ewd:lineID="46"><path style="stroke:#000000;stroke-width: 5.10 ;&st6;" d=" M  1249.29,   432.95  L  1249.29,   477.71  " /><path style="stroke:#FFFFFF;stroke-width: 4.53 ;&st6;" d=" M  1249.29,   432.95  L  1249.29,   477.71  " /><path style="stroke:#00A0C6;stroke-width: 1.13 ;&st6;" d=" M  1249.29,   432.95  L  1249.29,   477.71  " /></a><a style="cursor:pointer;" ewd:lineID="47"><path style="stroke:#000000;stroke-width: 5.10 ;&st6;" d=" M  1249.29,   418.22  L  1249.29,   401.22  L  1181.30,   401.22  L  1181.30,   477.71  " /><path style="stroke:#FFFFFF;stroke-width: 4.53 ;&st6;" d=" M  1249.29,   418.22  L  1249.29,   401.22  L  1181.30,   401.22  L  1181.30,   477.71  " /><path style="stroke:#00A0C6;stroke-width: 1.13 ;&st6;" d=" M  1249.29,   418.22  L  1249.29,   401.22  L  1181.30,   401.22  L  1181.30,   477.71  " /></a><a style="cursor:pointer;" ewd:lineID="48"><path style="stroke:#000000;stroke-width: 5.10 ;&st6;" d=" M  1257.79,   486.20  L  1300.28,   486.20  " /><path style="stroke:#FFFFFF;stroke-width: 4.53 ;&st6;" d=" M  1257.79,   486.20  L  1300.28,   486.20  " /><path style="stroke:#00A0C6;stroke-width: 1.13 ;&st6;" d=" M  1257.79,   486.20  L  1300.28,   486.20  " /></a><a style="cursor:pointer;" ewd:lineID="49"><path style="stroke:#000000;stroke-width: 5.10 ;&st6;" d=" M  1308.78,   545.69  L  1308.78,   494.70  " /><path style="stroke:#FFFFFF;stroke-width: 4.53 ;&st6;" d=" M  1308.78,   545.69  L  1308.78,   494.70  " /><path style="stroke:#00A0C6;stroke-width: 1.13 ;&st6;" d=" M  1308.78,   545.69  L  1308.78,   494.70  " /></a><a style="cursor:pointer;" ewd:lineID="50"><path style="stroke:#000000;stroke-width: 5.10 ;&st6;" d=" M  1317.28,   486.20  L  1359.77,   486.20  " /><path style="stroke:#FFFFFF;stroke-width: 4.53 ;&st6;" d=" M  1317.28,   486.20  L  1359.77,   486.20  " /><path style="stroke:#00A0C6;stroke-width: 1.13 ;&st6;" d=" M  1317.28,   486.20  L  1359.77,   486.20  " /></a><a style="cursor:pointer;" ewd:lineID="51"><path style="stroke:#000000;stroke-width: 5.10 ;&st6;" d=" M  1368.27,   494.70  L  1368.27,   545.69  " /><path style="stroke:#FFFFFF;stroke-width: 4.53 ;&st6;" d=" M  1368.27,   494.70  L  1368.27,   545.69  " /><path style="stroke:#00A0C6;stroke-width: 1.13 ;&st6;" d=" M  1368.27,   494.70  L  1368.27,   545.69  " /></a><a style="cursor:pointer;" ewd:lineID="52"><path style="stroke:#000000;stroke-width: 5.10 ;&st6;" d=" M  1376.77,   486.20  L  1419.26,   486.20  " /><path style="stroke:#FFFFFF;stroke-width: 4.53 ;&st6;" d=" M  1376.77,   486.20  L  1419.26,   486.20  " /><path style="stroke:#00A0C6;stroke-width: 1.13 ;&st6;" d=" M  1376.77,   486.20  L  1419.26,   486.20  " /></a><a style="cursor:pointer;" ewd:lineID="53"><path style="stroke:#000000;stroke-width: 5.10 ;&st6;" d=" M  1427.76,   545.69  L  1427.76,   494.70  " /><path style="stroke:#FFFFFF;stroke-width: 4.53 ;&st6;" d=" M  1427.76,   545.69  L  1427.76,   494.70  " /><path style="stroke:#00A0C6;stroke-width: 1.13 ;&st6;" d=" M  1427.76,   545.69  L  1427.76,   494.70  " /></a><a style="cursor:pointer;" ewd:lineID="54"><path style="stroke:#000000;stroke-width: 5.10 ;&st6;" d=" M  1427.76,   426.71  L  1427.76,   477.71  " /><path style="stroke:#FFFFFF;stroke-width: 4.53 ;&st6;" d=" M  1427.76,   426.71  L  1427.76,   477.71  " /><path style="stroke:#00A0C6;stroke-width: 1.13 ;&st6;" d=" M  1427.76,   426.71  L  1427.76,   477.71  " /></a><a style="cursor:pointer;" ewd:lineID="55"><path style="stroke:#000000;stroke-width: 5.10 ;&st6;" d=" M  1427.76,   411.98  L  1427.76,   350.23  " /><path style="stroke:#FFFFFF;stroke-width: 4.53 ;&st6;" d=" M  1427.76,   411.98  L  1427.76,   350.23  " /><path style="stroke:#00A0C6;stroke-width: 1.13 ;&st6;" d=" M  1427.76,   411.98  L  1427.76,   350.23  " /></a><a style="cursor:pointer;" ewd:lineID="56"> d=" M  1427.76,   299.24  L  1427.76,   171.76  L   977.34,   171.76  L   977.34,   282.24 
	
		<path style="stroke:#000000;stroke-width: 5.10 ;&st6;" d=" M  1427.76,   299.24  L  1427.76,   171.76  L   977.34,   171.76  L   977.34,   282.24  " /><path style="stroke:#FFFFFF;stroke-width: 4.53 ;&st6;" d=" M  1427.76,   299.24  L  1427.76,   171.76  L   977.34,   171.76  L   977.34,   282.24  " /></a><a ewd:comment="1" style="cursor:pointer;" ewd:lineID="57"><path style="stroke:#000000;stroke-width: 5.10 ;&st6;" d=" M  1648.72,   435.21  L  1648.72,   554.19  L  1784.70,   554.19  L  1793.20,   562.69  L  1793.20,   571.19  " /><path style="stroke:#FFFFFF;stroke-width: 4.53 ;&st6;" d=" M  1648.72,   435.21  L  1648.72,   554.19  L  1784.70,   554.19  L  1793.20,   562.69  L  1793.20,   571.19  " /><path style="stroke:#000000;stroke-width: 1.13 ;&st6;" d=" M  1648.72,   435.21  L  1648.72,   554.19  L  1784.70,   554.19  L  1793.20,   562.69  L  1793.20,   571.19  " /></a><a ewd:comment="1" style="cursor:pointer;" ewd:lineID="58"><path style="stroke:#000000;stroke-width: 5.10 ;&st6;" d=" M  1674.22,   435.21  L  1674.22,   511.70  L  1733.71,   511.70  " /><path style="stroke:#FFFFFF;stroke-width: 4.53 ;&st6;" d=" M  1674.22,   435.21  L  1674.22,   511.70  L  1733.71,   511.70  " /><path style="stroke:#00A0C6;stroke-width: 1.13 ;&st6;" d=" M  1674.22,   435.21  L  1674.22,   511.70  L  1733.71,   511.70  " /></a><a style="cursor:pointer;" ewd:lineID="59"><path style="stroke:#000000;stroke-width: 5.10 ;&st6;" d=" M  1742.21,   520.20  L  1742.21,   571.19  " /><path style="stroke:#FFFFFF;stroke-width: 4.53 ;&st6;" d=" M  1742.21,   520.20  L  1742.21,   571.19  " /><path style="stroke:#00A0C6;stroke-width: 1.13 ;&st6;" d=" M  1742.21,   520.20  L  1742.21,   571.19  " /></a><a ewd:comment="2" style="cursor:pointer;" ewd:lineID="60"><path style="stroke:#000000;stroke-width: 5.10 ;&st6;" d=" M  1742.21,   435.21  L  1742.21,   503.20  " /></a><a ewd:comment="2" style="cursor:pointer;" ewd:lineID="61"><path style="stroke:#FF0000;stroke-width: 5.10 ;&st6;" d=" M  1750.71,   358.73  L  1750.71,   299.24  L  1844.19,   299.24  " /></a><a ewd:comment="2" style="cursor:pointer;" ewd:lineID="62"><path style="stroke:#000000;stroke-width: 5.10 ;&st6;" d=" M  1759.21,   435.21  L  1759.21,   452.21  L  1793.20,   452.21  L  1793.20,   571.19  " /><path style="stroke:#FFFFFF;stroke-width: 4.53 ;&st6;" d=" M  1759.21,   435.21  L  1759.21,   452.21  L  1793.20,   452.21  L  1793.20,   571.19  " /><path style="stroke:#000000;stroke-width: 1.13 ;&st6;" d=" M  1759.21,   435.21  L  1759.21,   452.21  L  1793.20,   452.21  L  1793.20,   571.19  " /></a><a style="cursor:pointer;" ewd:lineID="63"><path style="stroke:#992903;stroke-width: 5.10 ;&st6;" d=" M  1793.20,   639.18  L  1793.20,   681.67  " /></a><a style="cursor:pointer;" ewd:lineID="64"><path style="stroke:#000000;stroke-width: 5.10 ;&st6;" d=" M  1793.20,   585.92  L  1793.20,   622.18  " /><path style="stroke:#FFFFFF;stroke-width: 4.53 ;&st6;" d=" M  1793.20,   585.92  L  1793.20,   622.18  " /><path style="stroke:#000000;stroke-width: 1.13 ;&st6;" d=" M  1793.20,   585.92  L  1793.20,   622.18  " /></a><a style="cursor:pointer;" ewd:lineID="65"><path style="stroke:#000000;stroke-width: 5.10 ;&st6;" d=" M  1844.19,   435.21  L  1844.19,   511.70  L  1750.71,   511.70  " /><path style="stroke:#FFFFFF;stroke-width: 4.53 ;&st6;" d=" M  1844.19,   435.21  L  1844.19,   511.70  L  1750.71,   511.70  " /><path style="stroke:#00A0C6;stroke-width: 1.13 ;&st6;" d=" M  1844.19,   435.21  L  1844.19,   511.70  L  1750.71,   511.70  " /></a><a ewd:comment="1" style="cursor:pointer;" ewd:lineID="66"><path style="stroke:#00A0C6;stroke-width: 5.10 ;&st6;" d=" M  1846.68,   293.22  L  1835.69,   282.24  L  1648.72,   282.24  L  1648.72,   392.72  " /></a><a style="cursor:pointer;" ewd:lineID="67"><path style="stroke:#7FC97F;stroke-width: 5.10 ;&st6;" d=" M  1852.69,   307.73  L  1852.69,   358.73  " /></a><a style="cursor:pointer;" ewd:lineID="68"><path style="stroke:#7FC97F;stroke-width: 5.10 ;&st6;" d=" M  1852.69,   256.74  L  1852.69,   290.74  " /></a><a style="cursor:pointer;" ewd:lineID="69"><path style="stroke:#7FC97F;stroke-width: 5.10 ;&st6;" d=" M  1852.69,   205.75  L  1852.69,   242.01  " /></a><a style="cursor:pointer;" ewd:lineID="70"><path style="stroke:#F668B2;stroke-width: 5.10 ;&st6;" d=" M  1852.69,   152.49  L  1852.69,   188.75  " /></a><a style="cursor:pointer;" ewd:lineID="71"><path style="stroke:#F668B2;stroke-width: 5.10 ;&st6;" d=" M  1852.69,   103.77  L  1852.69,   137.76  " /></a><a style="cursor:pointer;" ewd:lineID="72"><path style="stroke:#000000;stroke-width: 5.10 ;&st6;" d=" M  1861.19,   656.18  L  1861.19,   630.68  L  1801.70,   630.68  " /><path style="stroke:#FFFFFF;stroke-width: 4.53 ;&st6;" d=" M  1861.19,   656.18  L  1861.19,   630.68  L  1801.70,   630.68  " /><path style="stroke:#000000;stroke-width: 1.13 ;&st6;" d=" M  1861.19,   656.18  L  1861.19,   630.68  L  1801.70,   630.68  " /></a><a ewd:figtype="w2w" style="cursor:pointer;" ewd:pinNo="5" ewd:code="FE2" ewd:figID="31"><path style="&st2;" d=" M   101.98,   511.70  L    84.99,   511.70  L    84.99,   520.20  L   101.98,   520.20  L   101.98,   511.70 " /><text style="&st8;" transform="matrix(&st16;  88.37  518.07 )"><tspan x="0" style="&st18;" y="0">FE2</tspan></text></a><a ewd:figtype="w2w" style="cursor:pointer;" ewd:pinNo="10" ewd:code="FE2" ewd:figID="32"><path style="&st2;" d=" M   152.97,   511.70  L   135.98,   511.70  L   135.98,   520.20  L   152.97,   520.20  L   152.97,   511.70 " /><text style="&st8;" transform="matrix(&st16;  139.36  518.07 )"><tspan x="0" style="&st18;" y="0">FE2</tspan></text></a><a ewd:figtype="w2w" style="cursor:pointer;" ewd:pinNo="1" ewd:code="IJ1" ewd:figID="33"><path style="&st2;" d=" M   195.47,   511.70  L   178.47,   511.70  L   178.47,   520.20  L   195.47,   520.20  L   195.47,   511.70 " /><text style="&st8;" transform="matrix(&st16;  183.43  518.07 )"><tspan x="0" style="&st18;" y="0">IJ1</tspan></text></a><a ewd:figtype="w2w" style="cursor:pointer;" ewd:pinNo="8" ewd:code="JE1" ewd:figID="34"><path style="&st2;" d=" M   195.47,   384.22  L   178.47,   384.22  L   178.47,   392.72  L   195.47,   392.72  L   195.47,   384.22 " /><text style="&st8;" transform="matrix(&st16;  182.49  390.59 )"><tspan x="0" style="&st18;" y="0">JE1</tspan></text></a><a ewd:figtype="w2w" style="cursor:pointer;" ewd:pinNo="2" ewd:code="IJ1" ewd:figID="35"><path style="&st2;" d=" M   246.46,   511.70  L   229.46,   511.70  L   229.46,   520.20  L   246.46,   520.20  L   246.46,   511.70 " /><text style="&st8;" transform="matrix(&st16;  234.42  518.07 )"><tspan x="0" style="&st18;" y="0">IJ1</tspan></text></a><a ewd:figtype="w2w" style="cursor:pointer;" ewd:pinNo="3" ewd:code="JE1" ewd:figID="36"><path style="&st2;" d=" M   246.46,   384.22  L   229.46,   384.22  L   229.46,   392.72  L   246.46,   392.72  L   246.46,   384.22 " /><text style="&st8;" transform="matrix(&st16;  233.48  390.59 )"><tspan x="0" style="&st18;" y="0">JE1</tspan></text></a><a ewd:figtype="w2w" style="cursor:pointer;" ewd:pinNo="1" ewd:code="HJ1" ewd:figID="37"><path style="&st2;" d=" M   288.95,   511.70  L   271.95,   511.70  L   271.95,   520.20  L   288.95,   520.20  L   288.95,   511.70 " /><text style="&st8;" transform="matrix(&st16;  275.6  518.07 )"><tspan x="0" style="&st18;" y="0">HJ1</tspan></text></a><a ewd:figtype="w2w" style="cursor:pointer;" ewd:pinNo="2" ewd:code="HJ1" ewd:figID="38"><path style="&st2;" d=" M   339.94,   511.70  L   322.95,   511.70  L   322.95,   520.20  L   339.94,   520.20  L   339.94,   511.70 " /><text style="&st8;" transform="matrix(&st16;  326.59  518.07 )"><tspan x="0" style="&st18;" y="0">HJ1</tspan></text></a><a ewd:figtype="w2w" style="cursor:pointer;" ewd:pinNo="2" ewd:code="ML1" ewd:figID="39"><path style="&st2;" d=" M   382.44,   545.69  L   365.44,   545.69  L   365.44,   554.19  L   382.44,   554.19  L   382.44,   545.69 " /><text style="&st8;" transform="matrix(&st16;  368.26  552.06 )"><tspan x="0" style="&st18;" y="0">ML1</tspan></text></a><a ewd:figtype="w2w" style="cursor:pointer;" ewd:pinNo="2" ewd:code="MJ1" ewd:figID="40"><path style="&st2;" d=" M   382.44,   511.70  L   365.44,   511.70  L   365.44,   520.20  L   382.44,   520.20  L   382.44,   511.70 " /><text style="&st8;" transform="matrix(&st16;  368.86  518.07 )"><tspan x="0" style="&st18;" y="0">MJ1</tspan></text></a><a ewd:figtype="w2w" style="cursor:pointer;" ewd:pinNo="5" ewd:code="ML1" ewd:figID="41"><path style="&st2;" d=" M   433.43,   545.69  L   416.43,   545.69  L   416.43,   554.19  L   433.43,   554.19  L   433.43,   545.69 " /><text style="&st8;" transform="matrix(&st16;  419.25  552.06 )"><tspan x="0" style="&st18;" y="0">ML1</tspan></text></a><a ewd:figtype="w2w" style="cursor:pointer;" ewd:pinNo="7" ewd:code="MJ1" ewd:figID="42"><path style="&st2;" d=" M   433.43,   511.70  L   416.43,   511.70  L   416.43,   520.20  L   433.43,   520.20  L   433.43,   511.70 " /><text style="&st8;" transform="matrix(&st16;  419.85  518.07 )"><tspan x="0" style="&st18;" y="0">MJ1</tspan></text></a><a ewd:figtype="w2w" style="cursor:pointer;" ewd:pinNo="17" ewd:code="GE2" ewd:figID="43"><path style="&st2;" d=" M   577.90,   384.22  L   560.91,   384.22  L   560.91,   392.72  L   577.90,   392.72  L   577.90,   384.22 " /><text style="&st8;" transform="matrix(&st16;  563.95  390.59 )"><tspan x="0" style="&st18;" y="0">GE2</tspan></text></a><a ewd:figtype="w2w" style="cursor:pointer;" ewd:pinNo="8" ewd:code="GE2" ewd:figID="44"><path style="&st2;" d=" M   628.89,   384.22  L   611.90,   384.22  L   611.90,   392.72  L   628.89,   392.72  L   628.89,   384.22 " /><text style="&st8;" transform="matrix(&st16;  614.94  390.59 )"><tspan x="0" style="&st18;" y="0">GE2</tspan></text></a><a ewd:figtype="w2w" style="cursor:pointer;" ewd:pinNo="6" ewd:code="ML1" ewd:figID="45"><path style="&st2;" d=" M  1189.80,   477.71  L  1172.80,   477.71  L  1172.80,   486.20  L  1189.80,   486.20  L  1189.80,   477.71 " /><text style="&st8;" transform="matrix(&st16;  1175.62  484.07 )"><tspan x="0" style="&st18;" y="0">ML1</tspan></text></a><a ewd:figtype="w2w" style="cursor:pointer;" ewd:pinNo="4" ewd:code="MJ1" ewd:figID="46"><path style="&st2;" d=" M  1257.79,   418.22  L  1240.79,   418.22  L  1240.79,   426.71  L  1257.79,   426.71  L  1257.79,   418.22 " /><text style="&st8;" transform="matrix(&st16;  1244.21  424.58 )"><tspan x="0" style="&st18;" y="0">MJ1</tspan></text></a><a ewd:figtype="w2w" style="cursor:pointer;" ewd:pinNo="18" ewd:code="JE2" ewd:figID="47"><path style="&st2;" d=" M  1436.26,   418.22  L  1419.26,   418.22  L  1419.26,   426.71  L  1436.26,   426.71  L  1436.26,   418.22 " /><text style="&st8;" transform="matrix(&st16;  1423.28  424.58 )"><tspan x="0" style="&st18;" y="0">JE2</tspan></text></a><a ewd:figtype="w2w" style="cursor:pointer;" ewd:pinNo="9" ewd:code="KE1" ewd:figID="48"><path style="&st2;" d=" M  1750.71,   571.19  L  1733.71,   571.19  L  1733.71,   579.69  L  1750.71,   579.69  L  1750.71,   571.19 " /><text style="&st8;" transform="matrix(&st16;  1736.9  577.56 )"><tspan x="0" style="&st18;" y="0">KE1</tspan></text></a><a ewd:figtype="w2w" style="cursor:pointer;" ewd:pinNo="4" ewd:code="KE1" ewd:figID="49"><path style="&st2;" d=" M  1801.70,   571.19  L  1784.70,   571.19  L  1784.70,   579.69  L  1801.70,   579.69  L  1801.70,   571.19 " /><text style="&st8;" transform="matrix(&st16;  1787.9  577.56 )"><tspan x="0" style="&st18;" y="0">KE1</tspan></text></a><a ewd:figtype="w2w" style="cursor:pointer;" ewd:pinNo="10" ewd:code="KE1" ewd:figID="50"><path style="&st2;" d=" M  1861.19,   248.24  L  1844.19,   248.24  L  1844.19,   256.74  L  1861.19,   256.74  L  1861.19,   248.24 " /><text style="&st8;" transform="matrix(&st16;  1847.39  254.61 )"><tspan x="0" style="&st18;" y="0">KE1</tspan></text></a><a ewd:figtype="w2w" style="cursor:pointer;" ewd:pinNo="2" ewd:code="AE4" ewd:figID="51"><path style="&st2;" d=" M  1861.19,   137.76  L  1844.19,   137.76  L  1844.19,   146.26  L  1861.19,   146.26  L  1861.19,   137.76 " /><text style="&st8;" transform="matrix(&st16;  1847.39  144.13 )"><tspan x="0" style="&st18;" y="0">AE4</tspan></text></a><a ewd:figtype="gp" style="cursor:pointer;" ewd:code="E1" ewd:figID="52"><path style="&st2;" d=" M   898.72,   681.67  L   919.97,   681.67  L   909.35,   697.25  L   898.72,   681.67 " /><text style="&st8;" transform="matrix(&st16;  906.04  689.46 )"><tspan x="0" style="&st18;" y="0">E1</tspan></text></a><a ewd:figtype="gp" style="cursor:pointer;" ewd:code="L1" ewd:figID="53"><path style="&st2;" d=" M  1170.68,   681.67  L  1191.93,   681.67  L  1181.30,   697.25  L  1170.68,   681.67 " /><text style="&st8;" transform="matrix(&st16;  1178.03  689.46 )"><tspan x="0" style="&st18;" y="0">L1</tspan></text></a><a ewd:figtype="gp" style="cursor:pointer;" ewd:code="E3" ewd:figID="54"><path style="&st2;" d=" M  1782.58,   681.67  L  1803.82,   681.67  L  1793.20,   697.25  L  1782.58,   681.67 " /><text style="&st8;" transform="matrix(&st16;  1789.89  689.46 )"><tspan x="0" style="&st18;" y="0">E3</tspan></text></a><a ewd:figtype="gp" style="cursor:pointer;" ewd:code="E4" ewd:figID="55"><path style="&st2;" d=" M  1850.57,   681.67  L  1871.81,   681.67  L  1861.19,   697.25  L  1850.57,   681.67 " /><text style="&st8;" transform="matrix(&st16;  1857.88  689.46 )"><tspan x="0" style="&st18;" y="0">E4</tspan></text></a><a ewd:figtype="sp" style="cursor:pointer;" ewd:code="SP26" ewd:figID="56"><path style="&st2;" d=" M   182.72,   452.21  L   191.22,   452.21  L   195.47,   456.46  L   195.47,   464.96  L   191.22,   469.21  L   182.72,   469.21  L   178.47,   464.96  L   178.47,   456.46  L   182.72,   452.21 " /></a><a ewd:figtype="sp" style="cursor:pointer;" ewd:code="SP21" ewd:figID="57"><path style="&st2;" d=" M   182.72,   299.24  L   191.22,   299.24  L   195.47,   303.48  L   195.47,   311.98  L   191.22,   316.23  L   182.72,   316.23  L   178.47,   311.98  L   178.47,   303.48  L   182.72,   299.24 " /></a><a ewd:figtype="sp" style="cursor:pointer;" ewd:code="SP27" ewd:figID="58"><path style="&st2;" d=" M   233.71,   426.71  L   242.21,   426.71  L   246.46,   430.96  L   246.46,   439.46  L   242.21,   443.71  L   233.71,   443.71  L   229.46,   439.46  L   229.46,   430.96  L   233.71,   426.71 " /></a><a ewd:figtype="sp" style="cursor:pointer;" ewd:code="SP23" ewd:figID="59"><path style="&st2;" d=" M   233.71,   324.73  L   242.21,   324.73  L   246.46,   328.98  L   246.46,   337.48  L   242.21,   341.73  L   233.71,   341.73  L   229.46,   337.48  L   229.46,   328.98  L   233.71,   324.73 " /></a><a ewd:figtype="sp" style="cursor:pointer;" ewd:code="SP26" ewd:figID="60"><path style="&st2;" d=" M   276.20,   452.21  L   284.70,   452.21  L   288.95,   456.46  L   288.95,   464.96  L   284.70,   469.21  L   276.20,   469.21  L   271.95,   464.96  L   271.95,   456.46  L   276.20,   452.21 " /></a><a ewd:figtype="sp" style="cursor:pointer;" ewd:code="SP27" ewd:figID="61"><path style="&st2;" d=" M   327.20,   426.71  L   335.69,   426.71  L   339.94,   430.96  L   339.94,   439.46  L   335.69,   443.71  L   327.20,   443.71  L   322.95,   439.46  L   322.95,   430.96  L   327.20,   426.71 " /></a><a ewd:figtype="sp" style="cursor:pointer;" ewd:code="SP23" ewd:figID="62"><path style="&st2;" d=" M   565.16,   324.73  L   573.65,   324.73  L   577.90,   328.98  L   577.90,   337.48  L   573.65,   341.73  L   565.16,   341.73  L   560.91,   337.48  L   560.91,   328.98  L   565.16,   324.73 " /></a><a ewd:figtype="sp" style="cursor:pointer;" ewd:code="SP21" ewd:figID="63"><path style="&st2;" d=" M   616.15,   299.24  L   624.65,   299.24  L   628.89,   303.48  L   628.89,   311.98  L   624.65,   316.23  L   616.15,   316.23  L   611.90,   311.98  L   611.90,   303.48  L   616.15,   299.24 " /></a><a ewd:figtype="sp" style="cursor:pointer;" ewd:code="SP29" ewd:figID="64"><path style="&st2;" d=" M  1245.04,   477.71  L  1253.54,   477.71  L  1257.79,   481.95  L  1257.79,   490.45  L  1253.54,   494.70  L  1245.04,   494.70  L  1240.79,   490.45  L  1240.79,   481.95  L  1245.04,   477.71 " /></a><a ewd:figtype="sp" style="cursor:pointer;" ewd:code="SP29" ewd:figID="65"><path style="&st2;" d=" M  1304.53,   477.71  L  1313.03,   477.71  L  1317.28,   481.95  L  1317.28,   490.45  L  1313.03,   494.70  L  1304.53,   494.70  L  1300.28,   490.45  L  1300.28,   481.95  L  1304.53,   477.71 " /></a><a ewd:figtype="sp" style="cursor:pointer;" ewd:code="SP29" ewd:figID="66"><path style="&st2;" d=" M  1364.02,   477.71  L  1372.52,   477.71  L  1376.77,   481.95  L  1376.77,   490.45  L  1372.52,   494.70  L  1364.02,   494.70  L  1359.77,   490.45  L  1359.77,   481.95  L  1364.02,   477.71 " /></a><a ewd:figtype="sp" style="cursor:pointer;" ewd:code="SP29" ewd:figID="67"><path style="&st2;" d=" M  1423.51,   477.71  L  1432.01,   477.71  L  1436.26,   481.95  L  1436.26,   490.45  L  1432.01,   494.70  L  1423.51,   494.70  L  1419.26,   490.45  L  1419.26,   481.95  L  1423.51,   477.71 " /></a><a ewd:figtype="sp" style="cursor:pointer;" ewd:code="SP35" ewd:figID="68"><path style="&st2;" d=" M  1737.96,   503.20  L  1746.46,   503.20  L  1750.71,   507.45  L  1750.71,   515.95  L  1746.46,   520.20  L  1737.96,   520.20  L  1733.71,   515.95  L  1733.71,   507.45  L  1737.96,   503.20 " /></a><a ewd:figtype="sp" style="cursor:pointer;" ewd:code="SP13" ewd:figID="69"><path style="&st2;" d=" M  1788.95,   622.18  L  1797.45,   622.18  L  1801.70,   626.43  L  1801.70,   634.93  L  1797.45,   639.18  L  1788.95,   639.18  L  1784.70,   634.93  L  1784.70,   626.43  L  1788.95,   622.18 " /></a><a ewd:figtype="sp" style="cursor:pointer;" ewd:code="SP34" ewd:figID="70"><path style="&st2;" d=" M  1848.44,   290.74  L  1856.94,   290.74  L  1861.19,   294.99  L  1861.19,   303.48  L  1856.94,   307.73  L  1848.44,   307.73  L  1844.19,   303.48  L  1844.19,   294.99  L  1848.44,   290.74 " /></a></g></svg>