﻿<?xml version="1.0" encoding="utf-8"?>
<!-- Generator: Adobe Illustrator 10.0, SVG Export Plug-In . SVG Version: 3.0.0 Build 77)  -->
<!DOCTYPE svg PUBLIC "-//W3C//DTD SVG 1.0//EN" "http://www.w3.org/TR/2001/REC-SVG-20010904/DTD/svg10.dtd"[
	<!ENTITY ns_flows "http://ns.adobe.com/Flows/1.0/">
	<!ENTITY ns_svg "http://www.w3.org/2000/svg">
	<!ENTITY ns_xlink "http://www.w3.org/1999/xlink">
	<!ENTITY st0 "fill:none;stroke:#000000;stroke-width:0.5;">
	<!ENTITY st1 "fill:none;stroke:#FFFFFF;stroke-width:2;">
	<!ENTITY st2 "fill:none;stroke:#000000;stroke-width:0.35;stroke-linecap:round;stroke-linejoin:round;">
	<!ENTITY st3 "fill:none;stroke:#FFFFFF;stroke-width:0.525;stroke-linecap:round;stroke-linejoin:round;">
	<!ENTITY st4 "font-family:'Arial';">
	<!ENTITY st5 "font-size:10px;">
	<!ENTITY st6 "fill:none;stroke:#FFFFFF;stroke-width:0.2;">
	<!ENTITY st7 "fill:none;stroke:#000000;stroke-width:0.175;stroke-linecap:round;stroke-linejoin:round;">
	<!ENTITY st8 "fill:#FFFFFF;stroke:#000000;stroke-width:0.35;stroke-linecap:round;stroke-linejoin:round;">
	<!ATTLIST svg
		xmlns:ewd CDATA #FIXED "http://shcl.co.jp/ewd"
		xmlns:a CDATA #FIXED "http://ns.adobe.com/AdobeSVGViewerExtensions/3.0/"
		ewd:ver CDATA #IMPLIED>
	<!ATTLIST a
		ewd:innerGroupID CDATA #IMPLIED
		ewd:figtype CDATA #IMPLIED
		ewd:code CDATA #IMPLIED
		ewd:pinNo CDATA #IMPLIED>
	<!ATTLIST text
		ewd:textID CDATA #IMPLIED
		ewd:horAlign CDATA #IMPLIED>
	<!ATTLIST title
		ewd:textID CDATA #IMPLIED>
]>
<svg ewd:ver="2.1.2.10" height="312.01" onload="call_execInitLoadProc_svg('location')" style="overflow:visible;enable-background:new 0 0 518.94 312.01" viewBox="0 0 518.94 312.01" width="518.94" xml:space="preserve" xmlns="&ns_svg;" xmlns:ewd="http://shcl.co.jp/ewd" xmlns:a="http://ns.adobe.com/AdobeSVGViewerExtensions/3.0/" xmlns:xlink="&ns_xlink;">
<script type="text/javascript" xlink:href="../../../../../system/js/ewd/fig/svgfig.js" xmlns:xlink="http://www.w3.org/1999/xlink" />
<g id="台紙">
	<path d="M518.84,311.911V0.1H0.1v311.811H518.84z" style="&st6;" />
	<g>
	</g>
</g>
<g id="レイヤー_7">
	<g>
		<path d="M165.751,133.206c-0.094,0.15-0.25,0.211-0.51,0.249c0,0-6.894,0.453-8.412,0.551     c-0.556,0.035-1.112-0.02-1.484-0.293" style="&st7;" />
		<path d="M155.345,133.712c-0.242-0.178-0.406-0.448-0.441-0.845c0,0-1.795-23.316-2.077-26.833     c-0.052-0.526,0.065-0.817,0.182-1.226l0.341-0.871c0.164-0.308,0.678-0.534,1.007-0.514c0,0,5.556-0.408,6.122-0.431     c0.493-0.021,0.808,0.066,1.208,0.387c0,0,3.426,2.595,3.816,2.92c0.338,0.282,0.538,0.426,0.647,0.908l0.043,0.459l1.207,15.234     c0.053,0.41-0.01,0.8-0.141,1.172l-1.51,4.384l0.137,4.019c-0.011,0.361-0.044,0.586-0.134,0.729" style="&st8;" />
		<path d="M165.725,133.263l-0.001,1.598c0,0.314-0.386,0.627-0.627,0.651s-8.545,0.587-8.545,0.587     c-0.683,0.025-1.064-0.218-1.149-0.791c-0.079-0.532-0.135-1-0.194-1.715" style="&st2;" />
		<path d="M153.786,104.432l0.538,4.08v0.359l0.973,11.857c0.031,0.371,0.469,0.542,0.682,0.542     c0.266,0,0.5,0.16,0.543,0.586l0.686,8.811c0.032,0.218,0.323,0.538,0.72,0.507c1.326-0.1,7.258-0.407,7.258-0.407     c0.22,0,0.414-0.193,0.441-0.358l-0.063-3.156c0,0,0-0.269,0.045-0.404c0.032-0.094,0.854-2.496,1.34-3.917" style="&st7;" />
		<path d="M154.718,122.09c0,0.295,0.754,0.553,1.16,0.553l0.612,9.003c0,0.25,0.326,0.875,0.774,0.885" style="&st7;" />
		<path d="M156.068,121.62l-0.117,0.652" style="&st7;" />
		<path d="M154.915,108.45l10.605-0.663" style="&st7;" />
	</g>
	<g>
		<path d="M320.275,148.454v4.259c0,0.158,0.104,0.183,0.178,0.183s3.138,0,3.138,0" style="&st2;" />
		<path d="M320.275,131.7v16.753" style="&st7;" />
		<path d="M314.302,134.15v-3.908c0.005-0.087,0.071-0.152,0.159-0.147h5.637c0.099,0.004,0.177,0.041,0.177,0.175     v1.43" style="&st2;" />
		<path d="M314.302,144.966V134.15" style="&st7;" />
		<path d="M320.204,148.451h-5.699c-0.164,0-0.197-0.063-0.202-0.195v-3.29" style="&st2;" />
		<path d="M314.302,134.205h-3.854c-0.121-0.004-0.193,0.081-0.2,0.22v10.343c-0.003,0.135,0.103,0.224,0.27,0.232     h3.785" style="&st2;" />
		<path d="M324.823,131.739v22.192" style="&st7;" />
		<path d="M314.854,141.961h4.887" style="&st7;" />
		<path d="M323.603,152.889v0.927c0,0.089,0.107,0.169,0.196,0.169h1.681l2.302-0.767v-20.712l-2.302-0.822h-5.149" style="&st2;" />
		<path d="M323.603,142.444v10.445" style="&st7;" />
		<path d="M320.301,145.401h3.281" style="&st7;" />
		<path d="M320.751,148.989h2.836" style="&st7;" />
		<path d="M320.739,143.076h2.791" style="&st7;" />
		<path d="M325.237,148.224h0.374c0.231,0,0.481-0.036,0.606-0.053c0.125-0.018,1.158-0.178,1.158-0.178" style="&st7;" />
		<path d="M319.491,140.207c0.079,0.101,0.126,0.222,0.126,0.354c0,0.343-0.316,0.622-0.707,0.622     s-0.706-0.279-0.706-0.622c0-0.136,0.049-0.261,0.133-0.363" style="&st7;" />
		<path d="M319.491,137.079c0.079,0.101,0.126,0.223,0.126,0.354c0,0.344-0.316,0.623-0.707,0.623     s-0.706-0.279-0.706-0.623c0-0.135,0.049-0.261,0.133-0.363" style="&st7;" />
		<path d="M319.491,133.929c0.079,0.101,0.126,0.223,0.126,0.354c0,0.344-0.316,0.622-0.707,0.622     s-0.706-0.278-0.706-0.622c0-0.135,0.049-0.261,0.133-0.363" style="&st7;" />
		<path d="M319.491,130.823c0.079,0.1,0.126,0.222,0.126,0.354c0,0.344-0.316,0.623-0.707,0.623     s-0.706-0.279-0.706-0.623c0-0.135,0.049-0.261,0.133-0.363" style="&st7;" />
	</g>
	<g>
		<path d="M186.914,155.889l0.894-2.713c0.091-0.275,0.145-0.425,0.13-0.631l-1.013-14.282" style="&st7;" />
		<path d="M190.29,151.293l-1.498-0.107c-0.291-0.018-0.391-0.133-0.393-0.411l-0.277-3.9     c-0.018-0.228-0.002-0.405,0.057-0.574l0.259-0.694c0.103-0.302,0.222-0.295,0.509-0.279l1.342,0.096     c0.197,0.029,0.284,0.142,0.294,0.418l0.296,4.183c0.004,0.184-0.062,0.303-0.152,0.588l-0.188,0.505     C190.51,151.206,190.423,151.303,190.29,151.293z" style="&st7;" />
		<path d="M188.785,145.518l0.303,4.272c-0.02,0.174,0.086,0.233,0.24,0.274l1.311,0.094" style="&st7;" />
		<path d="M190.105,138.805l0.395,5.855c0.004,0.184-0.062,0.303-0.152,0.588l-0.065,0.174" style="&st7;" />
		<path d="M190.168,138.816c0.253,0.02,0.458,0.126,0.491,0.401l0.869,12.182c0.002,0.261,0.025,0.448-0.082,0.6     l-0.453,0.695c-0.072,0.111-0.147,0.091-0.356,0.086l-0.238-0.009c-0.152,0.012-0.185,0.038-0.241,0.222l-0.792,2.466     l-0.661,0.264c-0.144,0.344-0.164,0.514-0.432,0.497l-1.14-0.08c-0.269-0.022-0.467-0.057-0.712-0.07l-0.687-0.106     c-0.218-0.055-0.351-0.105-0.331-0.42l-0.772-11.02c-0.006-0.177,0.023-0.384,0.048-0.539l0.15-0.815     c0.015-0.133,0.057-0.308,0.104-0.478l1.582-4.784c0.096-0.258,0.195-0.336,0.486-0.323l1.341,0.096     c0.223,0.028,0.256,0.141,0.276,0.427l0.004,0.067l1.242,0.088c0.196,0.029,0.284,0.142,0.293,0.418L190.168,138.816z" style="&st2;" />
		<path d="M188.359,145.818c-0.25-0.028-0.338-0.146-0.34-0.407l-0.4-5.638c-0.018-0.228-0.002-0.405,0.058-0.574     l0.258-0.694c0.104-0.302,0.222-0.296,0.51-0.279l0.1,0.007" style="&st7;" />
		<path d="M188.201,138.473l0.427,6.01c-0.019,0.174,0.087,0.234,0.24,0.274l1.311,0.094" style="&st7;" />
		<path d="M188.627,155.722l0.871-2.708c0.096-0.258,0.066-0.397,0.056-0.714l-0.036-0.496     c-0.023-0.202,0.118-0.248,0.317-0.219l1.431,0.095" style="&st7;" />
	</g>
	<path d="M256.573,268.451c0,0-31.694,0-32.038,0s-0.985-0.344-0.985-0.773l-0.107-2.081    c-0.002-0.153-0.199-0.35-0.658-0.415c-7.516-0.729-26.136-3.453-45.113-7.296c-12.307-2.491-25.628-6.477-36.818-10.801    c-7.19-3.17-13.128-7.594-14.409-18.888c-2.1-13.955-3.15-44.755-3.15-55.779c-0.7-11.375-0.816-48.738-0.377-64.176" style="&st3;" />
	<path d="M123.333,172.48l1.304,3.218c0.12,0.281,0.338,0.671,0.667,0.792l6.611,3.36    c1.271,5.775,4.195,15.818,13.4,21.833c8.664,5.66,22.864,12.337,27.323,14.089c2.134,0.839,9.417-3.407,9.417-3.407    c0.838-0.539,1.684-1.961,1.391-3.359c-0.556-2.652-0.553-4.635-1.451-5.593c-4.414-4.709-11.976-12.052-12.15-12.314    c-0.175-0.263-0.35-0.656-0.35-0.831c0,0,0-0.219,0-0.438s0.044-0.568,0.35-0.394l2.012,1.05v-1.619    c0.044-0.743,0.656-1.269,1.575-1.443c-1.565-2.328-3.119-4.476-4.51-6.701" style="&st3;" />
	<path d="M389.672,172.48l-1.304,3.218c-0.12,0.281-0.338,0.671-0.667,0.792l-6.611,3.36    c-1.271,5.775-4.195,15.818-13.401,21.833c-8.664,5.66-22.865,12.337-27.325,14.089c-2.134,0.839-9.416-3.407-9.416-3.407    c-0.839-0.539-1.685-1.961-1.392-3.359c0.557-2.652,0.554-4.635,1.451-5.593c4.415-4.709,11.977-12.052,12.151-12.314    s0.351-0.656,0.351-0.831c0,0,0-0.219,0-0.438s-0.044-0.568-0.351-0.394l-2.013,1.05v-1.619c-0.043-0.743-0.656-1.269-1.574-1.443    c1.565-2.328,3.118-4.476,4.51-6.701" style="&st3;" />
	<path d="M165.458,174.58c0.817,1.549,1.684,3.123,2.601,4.707c0.28,0.483,0.569,0.961,0.865,1.436" style="&st3;" />
	<path d="M131.916,179.85c1.324,0.705,1.964-0.83,2.092-1.981s1.407-41.829,1.407-41.829    c0.128-1.791,1.407-2.303,2.558-0.896c1.151,1.407,5.338,6.413,7.803,8.57c1.023,0.896,1.407,0.768,1.407-0.384l0.256-1.151    c4.605,3.454,6.527,5.124,8.318,10.112c1.254,3.494,4.464,12.367,9.7,22.288" style="&st3;" />
	<path d="M322.083,188.067c3.065-0.874,5.608-1.862,6.76-2.467c2.094-1.099,3.34-1.771,3.465-1.834    c0.334-0.167,0.446-0.111,0.669,0.167c0,0,0.668,0,1.058,0s0.557,0.167,0.557,0.167l3.759,0.307c0.362,0,0.641,0.418,0.641,0.641    c0,0,0,0.779,0,1.28s0.056,0.78,0.731,1.096" style="&st3;" />
	<path d="M315.016,189.584c2.411-0.326,4.872-0.893,7.066-1.518" style="&st3;" />
	<path d="M311.685,189.867c0.078-0.002,0.158-0.005,0.24-0.008c1.004-0.036,2.043-0.133,3.091-0.274" style="&st3;" />
	<path d="M307.07,187.19c0.313,0.146,0.578,0.337,0.794,0.552c0,0,0.562,0.73,1.012,1.293    c0.428,0.535,1.214,0.866,2.81,0.832" style="&st3;" />
	<path d="M269.928,189.42c0.03-0.791,0.331-2.511,2.763-2.512c2.68,0,2.596,1.926,2.931,3.182    s1.675,2.093,3.346,2.034h20.019c3.371,0,3.765-2.473,3.933-3.371c0.169-0.899,1.012-1.742,2.248-1.854    c0.763-0.069,1.397,0.054,1.903,0.291" style="&st3;" />
	<path d="M268.009,194.806l0.573-5.317c0,0,1.031,0.043,1.161,0c0.129-0.042,0.185-0.068,0.185-0.068" style="&st3;" />
	<path d="M173.433,187.423c0.675-0.315,0.731-0.595,0.731-1.096s0-1.28,0-1.28c0-0.223,0.278-0.641,0.64-0.641    l3.759-0.307c0,0,0.167-0.167,0.557-0.167c0.39,0,1.058,0,1.058,0c0.223-0.278,0.334-0.334,0.668-0.167    c0.125,0.063,1.371,0.735,3.465,1.834c2.333,1.226,10.383,4.025,16.917,4.259c1.758,0.074,2.601-0.263,3.051-0.824    c0.449-0.563,1.011-1.293,1.011-1.293c0.562-0.562,1.461-0.955,2.697-0.843c1.236,0.112,2.079,0.955,2.248,1.854    c0.168,0.898,0.562,3.371,3.933,3.371h20.019c1.671,0.059,3.011-0.778,3.346-2.034c0.334-1.256,0.251-3.182,2.93-3.182    c2.432,0.001,2.733,1.721,2.763,2.512c0,0,0.056,0.026,0.185,0.068c0.129,0.043,1.161,0,1.161,0l1.151,8.814    c0.015,0.778,0.684,1.029,1.185,1.029c0.502,0,3.345,0,3.345,0c0.919,0,1.588,0.92,1.672,1.84    c0.083,0.92,1.338,11.958,1.338,11.958l12.771-0.005l1.976-18.319" style="&st3;" />
	<path d="M183.147,190.254l0.322,2.58c0.215,0.645,0.64,0.87,1.075,1.074c2.36,1.111,9.729,5.367,20.651,9.134    c11.757,4.054,27.666,7.603,46.9,7.875" style="&st3;" />
	<path d="M173.968,187.924l8.922,2.38" style="&st3;" />
	<path d="M171.857,190.486c9.13,4.814,25.288,13.344,33.874,16.83c3.997,1.623,10.992,3.88,20.464,5.526    c9.256,1.608,20.925,2.625,30.45,2.625" style="&st3;" />
	<path d="M139.55,237.022c0.071-2.282,1.641-5.137,3.853-5.921c2.211-0.785,3.605-0.928,14.877,2.211    c1.39,0.49,2.289,1.309,3.27,2.371c0.981,1.063,4.007,4.006,0.9,7.521" style="&st3;" />
	<path d="M169.772,238.808c-0.314-0.839-0.871-2.182,1.784-1.573c5.451,1.25,20.427,6.497,42.213,10.782    c13.626,2.68,29.492,4.2,42.7,4.2" style="&st3;" />
	<path d="M122.908,108.233c0-1.483,0.371-3.831,1.359-8.278c0-5.684-0.618-29.654-0.371-35.461" style="&st3;" />
	<path d="M256.368,268.451c0,0,31.693,0,32.037,0s0.985-0.344,0.985-0.773l0.106-2.081    c0.003-0.153,0.2-0.35,0.658-0.415c7.517-0.729,26.136-3.453,45.113-7.296c12.307-2.491,25.628-6.477,36.818-10.801    c7.19-3.17,13.128-7.594,14.408-18.888c2.101-13.955,3.15-44.755,3.15-55.779c0.7-11.375,0.816-48.738,0.377-64.176" style="&st3;" />
	<path d="M390.033,108.233c0-1.483-0.371-3.831-1.359-8.278c0-5.684,0.618-29.654,0.371-35.461" style="&st3;" />
	<path d="M146.92,132.342c0-15.4-0.175-56.35-0.35-67.725" style="&st3;" />
	<path d="M147.019,144.094l-0.347-11.285l0.781-1.736c0.087-0.347,0.174-0.955,0.174-1.389s0.043-1.029,0.043-1.029    c0-0.781,0.81-2.029,2.127-2.01c1.523,0.022,1.996,1.216,2.083,1.65c0.211,1.049,0.495,2.875,0.495,2.875    c0.122,0.487,0.203,0.852,0.243,1.542c0.03,0.513,0.317,4.648,0.461,6.729" style="&st3;" />
	<path d="M152.87,135.2l-1.75-27.183l-0.134-31.656" style="&st3;" />
	<path d="M174.256,238.1c1.867,5.95,4.568,8.456,8.714,9.801c4.316,1.399,22.143,5.886,39.993,7.286l-0.109-1.697    c0-0.346,0.576-0.922,1.152-0.807s23.043,1.844,32.491,1.844" style="&st3;" />
	<path d="M267.211,226.769c0,3.244-4.745,5.875-10.6,5.875c-5.854,0-10.6-2.631-10.6-5.875    c0-3.246,4.746-5.877,10.6-5.877C262.466,220.892,267.211,223.523,267.211,226.769z" style="&st3;" />
	<path d="M223.079,256.43l0.253,2.715c0.158,1.636,0.053,3.324,0.105,6.701" style="&st3;" />
	<path d="M289.833,256.43l-0.253,2.715c-0.158,1.636-0.053,3.324-0.105,6.701" style="&st3;" />
	<path d="M347.771,174.438c-0.839,1.595-1.73,3.217-2.675,4.849c-0.288,0.496-0.584,0.987-0.889,1.474" style="&st3;" />
	<path d="M381.238,179.85c-1.324,0.705-1.964-0.83-2.092-1.981s-1.407-41.829-1.407-41.829    c-0.128-1.791-1.406-2.303-2.559-0.896c-1.15,1.407-5.337,6.413-7.803,8.57c-1.023,0.896-1.407,0.768-1.407-0.384l-0.256-1.151    c-4.604,3.454-6.526,5.124-8.317,10.112c-1.249,3.478-4.435,12.282-9.626,22.146" style="&st3;" />
	<path d="M330.006,190.254l-0.322,2.58c-0.215,0.645-0.64,0.87-1.075,1.074c-2.359,1.111-9.729,5.367-20.649,9.134    c-6.658,2.296-15.497,4.674-24.971,6.144c-5.012,0.777-9.905,1.127-15.396,1.457" style="&st3;" />
	<path d="M339.186,187.924l-8.923,2.38" style="&st3;" />
	<path d="M341.296,190.486c-9.13,4.814-25.287,13.344-33.874,16.83c-3.997,1.623-10.991,3.88-20.463,5.526    c-9.257,1.608-20.926,2.625-30.45,2.625" style="&st3;" />
	<path d="M373.604,237.022c-0.071-2.282-1.642-5.137-3.853-5.921c-2.212-0.785-3.605-0.928-14.878,2.211    c-1.39,0.49-2.289,1.309-3.271,2.371c-0.98,1.063-4.006,4.006-0.898,7.521" style="&st3;" />
	<path d="M343.381,238.808c0.314-0.839,0.871-2.182-1.784-1.573c-5.451,1.25-20.427,6.497-42.213,10.782    c-13.627,2.68-29.492,4.2-42.7,4.2" style="&st3;" />
	<path d="M366.234,132.342c0-15.4,0.175-56.35,0.351-67.725" style="&st3;" />
	<path d="M366.135,144.094l0.348-11.285l-0.782-1.736c-0.086-0.347-0.173-0.955-0.173-1.389    s-0.044-1.029-0.044-1.029c0-0.781-0.811-2.029-2.126-2.01c-1.524,0.022-1.997,1.216-2.084,1.65    c-0.211,1.049-0.495,2.875-0.495,2.875c-0.121,0.487-0.202,0.852-0.243,1.542c-0.03,0.513-0.316,4.648-0.461,6.729" style="&st3;" />
	<path d="M360.284,135.2l1.75-27.183l0.133-31.445" style="&st3;" />
	<path d="M311.667,186.1c1.206-0.18,2.468-0.398,3.821-0.666c3.527-0.697,6.659-2.467,9.002-4.316    c8.632-7.398,22.073-22.196,26.266-27.005c4.192-4.81,8.632-12.578,8.632-12.578l0.09-1.591l0.584-0.584" style="&st3;" />
	<path d="M306.823,186.637c1.574-0.115,3.155-0.287,4.844-0.537" style="&st3;" />
	<path d="M338.898,238.1c-1.866,5.95-4.567,8.456-8.714,9.801c-4.317,1.399-22.143,5.886-39.993,7.286l0.109-1.697    c0-0.346-0.576-0.922-1.152-0.807s-23.043,1.844-32.49,1.844" style="&st3;" />
	<path d="M248.718,186.767H234.42l-4.076-0.101c-2.801,0-5.276,0.023-7.503,0.053l-3.779,0.057    c-8.825,0.14-13.572,0.204-21.395-1.342c-3.527-0.697-6.659-2.467-9.002-4.316c-8.632-7.398-22.073-22.196-26.266-27.005    c-4.193-4.81-8.632-12.578-8.632-12.578l-0.089-1.591l-0.584-0.584" style="&st3;" />
	<path d="M256.179,186.767h-7.46" style="&st3;" />
	<path d="M256.179,186.767h0.797h32.217l4.024-0.005c5.617,0.088,9.591,0.167,13.605-0.125" style="&st3;" />
	<path d="M256.79,85.762c-42.302,0-93.906-5.98-100.551-7.53c-6.644-1.55-7.087-2.658-7.53-8.195l-0.256-5.594" style="&st3;" />
	<path d="M256.603,85.762c42.302,0,93.907-5.98,100.55-7.53c6.645-1.55,7.088-2.658,7.53-8.195l0.256-5.594" style="&st3;" />
	<path d="M220,107.381c-27.835-2.012-55.218-5.499-67.258-7.077h-1.46" style="&st3;" />
	<path d="M227.594,107.891c-2.528-0.156-5.063-0.327-7.594-0.51" style="&st3;" />
	<path d="M253.363,108.877c-8.179-0.076-16.929-0.441-25.77-0.986" style="&st3;" />
	<path d="M258.95,108.886c-0.68,0.004-1.356,0.006-2.028,0.006h-0.452c-1.026,0-2.062-0.005-3.107-0.015" style="&st3;" />
	<path d="M261.528,108.86c-0.865,0.012-1.725,0.021-2.578,0.026" style="&st3;" />
	<path d="M280.269,108.208c-6.411,0.34-12.721,0.571-18.741,0.652" style="&st3;" />
	<path d="M304.856,106.473c-8.104,0.696-16.429,1.304-24.587,1.736" style="&st3;" />
	<path d="M310.473,105.974c-1.857,0.17-3.731,0.337-5.617,0.499" style="&st3;" />
	<path d="M362.11,100.304h-1.459c-9.55,1.252-28.753,3.705-50.178,5.67" style="&st3;" />
	<path d="M193.586,189.872l8.585,3.22c1.61,0.536,3.085,0.67,4.025,0.67c0.939,0,37.358,0,37.358,0" style="&st3;" />
	<path d="M274.166,193.761c-1.87,0-3.313,0-4.105,0" style="&st3;" />
	<path d="M316.05,191.286l-4.813,1.806c-1.61,0.536-3.086,0.67-4.024,0.67c-0.728,0-23.03,0-33.047,0" style="&st3;" />
	<path d="M319.822,189.872l-3.771,1.414" style="&st3;" />
	<path d="M355.615,233.225c1.445,1.446,3.942,2.288,6.654,2.282c3.354-0.008,7.828-2.105,7.632-4.364" style="&st3;" />
	<path d="M157.636,233.225c-1.445,1.446-3.942,2.288-6.655,2.282c-3.354-0.008-7.828-2.105-7.631-4.364" style="&st3;" />
	<path d="M256.573,268.451c0,0-31.694,0-32.038,0s-0.985-0.344-0.985-0.773l-0.107-2.081    c-0.002-0.153-0.199-0.35-0.658-0.415c-7.516-0.729-26.136-3.453-45.113-7.296c-12.307-2.491-25.628-6.477-36.818-10.801    c-7.19-3.17-13.128-7.594-14.409-18.888c-2.1-13.955-3.15-44.755-3.15-55.779c-0.7-11.375-0.816-48.738-0.377-64.176" style="&st7;" />
	<path d="M123.333,172.48l1.304,3.218c0.12,0.281,0.338,0.671,0.667,0.792l6.611,3.36    c1.271,5.775,4.195,15.818,13.4,21.833c8.664,5.66,22.864,12.337,27.323,14.089c2.134,0.839,9.417-3.407,9.417-3.407    c0.838-0.539,1.684-1.961,1.391-3.359c-0.556-2.652-0.553-4.635-1.451-5.593c-4.414-4.709-11.976-12.052-12.15-12.314    c-0.175-0.263-0.35-0.656-0.35-0.831c0,0,0-0.219,0-0.438s0.044-0.568,0.35-0.394l2.012,1.05v-1.619    c0.044-0.743,0.656-1.269,1.575-1.443c-1.565-2.328-3.119-4.476-4.51-6.701" style="&st7;" />
	<path d="M389.672,172.48l-1.304,3.218c-0.12,0.281-0.338,0.671-0.667,0.792l-6.611,3.36    c-1.271,5.775-4.195,15.818-13.401,21.833c-8.664,5.66-22.865,12.337-27.325,14.089c-2.134,0.839-9.416-3.407-9.416-3.407    c-0.839-0.539-1.685-1.961-1.392-3.359c0.557-2.652,0.554-4.635,1.451-5.593c4.415-4.709,11.977-12.052,12.151-12.314    s0.351-0.656,0.351-0.831c0,0,0-0.219,0-0.438s-0.044-0.568-0.351-0.394l-2.013,1.05v-1.619c-0.043-0.743-0.656-1.269-1.574-1.443    c1.565-2.328,3.118-4.476,4.51-6.701" style="&st7;" />
	<path d="M165.458,174.58c0.817,1.549,1.684,3.123,2.601,4.707c0.28,0.483,0.569,0.961,0.865,1.436" style="&st7;" />
	<path d="M131.916,179.85c1.324,0.705,1.964-0.83,2.092-1.981s1.407-41.829,1.407-41.829    c0.128-1.791,1.407-2.303,2.558-0.896c1.151,1.407,5.338,6.413,7.803,8.57c1.023,0.896,1.407,0.768,1.407-0.384l0.256-1.151    c4.605,3.454,6.527,5.124,8.318,10.112c1.254,3.494,4.464,12.367,9.7,22.288" style="&st7;" />
	<path d="M322.083,188.067c3.065-0.874,5.608-1.862,6.76-2.467c2.094-1.099,3.34-1.771,3.465-1.834    c0.334-0.167,0.446-0.111,0.669,0.167c0,0,0.668,0,1.058,0s0.557,0.167,0.557,0.167l3.759,0.307c0.362,0,0.641,0.418,0.641,0.641    c0,0,0,0.779,0,1.28s0.056,0.78,0.731,1.096" style="&st7;" />
	<path d="M315.016,189.584c2.411-0.326,4.872-0.893,7.066-1.518" style="&st7;" />
	<path d="M311.685,189.867c0.078-0.002,0.158-0.005,0.24-0.008c1.004-0.036,2.043-0.133,3.091-0.274" style="&st7;" />
	<path d="M307.07,187.19c0.313,0.146,0.578,0.337,0.794,0.552c0,0,0.562,0.73,1.012,1.293    c0.428,0.535,1.214,0.866,2.81,0.832" style="&st7;" />
	<path d="M269.928,189.42c0.03-0.791,0.331-2.511,2.763-2.512c2.68,0,2.596,1.926,2.931,3.182    s1.675,2.093,3.346,2.034h20.019c3.371,0,3.765-2.473,3.933-3.371c0.169-0.899,1.012-1.742,2.248-1.854    c0.763-0.069,1.397,0.054,1.903,0.291" style="&st7;" />
	<path d="M268.009,194.806l0.573-5.317c0,0,1.031,0.043,1.161,0c0.129-0.042,0.185-0.068,0.185-0.068" style="&st7;" />
	<path d="M173.433,187.423c0.675-0.315,0.731-0.595,0.731-1.096s0-1.28,0-1.28c0-0.223,0.278-0.641,0.64-0.641    l3.759-0.307c0,0,0.167-0.167,0.557-0.167c0.39,0,1.058,0,1.058,0c0.223-0.278,0.334-0.334,0.668-0.167    c0.125,0.063,1.371,0.735,3.465,1.834c2.333,1.226,10.383,4.025,16.917,4.259c1.758,0.074,2.601-0.263,3.051-0.824    c0.449-0.563,1.011-1.293,1.011-1.293c0.562-0.562,1.461-0.955,2.697-0.843c1.236,0.112,2.079,0.955,2.248,1.854    c0.168,0.898,0.562,3.371,3.933,3.371h20.019c1.671,0.059,3.011-0.778,3.346-2.034c0.334-1.256,0.251-3.182,2.93-3.182    c2.432,0.001,2.733,1.721,2.763,2.512c0,0,0.056,0.026,0.185,0.068c0.129,0.043,1.161,0,1.161,0l1.151,8.814    c0.015,0.778,0.684,1.029,1.185,1.029c0.502,0,3.345,0,3.345,0c0.919,0,1.588,0.92,1.672,1.84    c0.083,0.92,1.338,11.958,1.338,11.958l12.771-0.005l1.976-18.319" style="&st7;" />
	<path d="M183.147,190.254l0.322,2.58c0.215,0.645,0.64,0.87,1.075,1.074c2.36,1.111,9.729,5.367,20.651,9.134    c11.757,4.054,27.666,7.603,46.9,7.875" style="&st7;" />
	<path d="M173.968,187.924l8.922,2.38" style="&st7;" />
	<path d="M171.857,190.486c9.13,4.814,25.288,13.344,33.874,16.83c3.997,1.623,10.992,3.88,20.464,5.526    c9.256,1.608,20.925,2.625,30.45,2.625" style="&st7;" />
	<path d="M139.55,237.022c0.071-2.282,1.641-5.137,3.853-5.921c2.211-0.785,3.605-0.928,14.877,2.211    c1.39,0.49,2.289,1.309,3.27,2.371c0.981,1.063,4.007,4.006,0.9,7.521" style="&st7;" />
	<path d="M169.772,238.808c-0.314-0.839-0.871-2.182,1.784-1.573c5.451,1.25,20.427,6.497,42.213,10.782    c13.626,2.68,29.492,4.2,42.7,4.2" style="&st7;" />
	<path d="M122.908,108.233c0-1.483,0.371-3.831,1.359-8.278c0-5.684-0.618-29.654-0.371-35.461" style="&st7;" />
	<path d="M256.368,268.451c0,0,31.693,0,32.037,0s0.985-0.344,0.985-0.773l0.106-2.081    c0.003-0.153,0.2-0.35,0.658-0.415c7.517-0.729,26.136-3.453,45.113-7.296c12.307-2.491,25.628-6.477,36.818-10.801    c7.19-3.17,13.128-7.594,14.408-18.888c2.101-13.955,3.15-44.755,3.15-55.779c0.7-11.375,0.816-48.738,0.377-64.176" style="&st7;" />
	<path d="M390.033,108.233c0-1.483-0.371-3.831-1.359-8.278c0-5.684,0.618-29.654,0.371-35.461" style="&st7;" />
	<path d="M146.92,132.342c0-15.4-0.175-56.35-0.35-67.725" style="&st7;" />
	<path d="M147.019,144.094l-0.347-11.285l0.781-1.736c0.087-0.347,0.174-0.955,0.174-1.389s0.043-1.029,0.043-1.029    c0-0.781,0.81-2.029,2.127-2.01c1.523,0.022,1.996,1.216,2.083,1.65c0.211,1.049,0.495,2.875,0.495,2.875    c0.122,0.487,0.203,0.852,0.243,1.542c0.03,0.513,0.317,4.648,0.461,6.729" style="&st7;" />
	<path d="M152.87,135.2l-1.75-27.183l-0.134-31.656" style="&st7;" />
	<path d="M174.256,238.1c1.867,5.95,4.568,8.456,8.714,9.801c4.316,1.399,22.143,5.886,39.993,7.286l-0.109-1.697    c0-0.346,0.576-0.922,1.152-0.807s23.043,1.844,32.491,1.844" style="&st7;" />
	<path d="M267.211,226.769c0,3.244-4.745,5.875-10.6,5.875c-5.854,0-10.6-2.631-10.6-5.875    c0-3.246,4.746-5.877,10.6-5.877C262.466,220.892,267.211,223.523,267.211,226.769z" style="&st7;" />
	<path d="M223.079,256.43l0.253,2.715c0.158,1.636,0.053,3.324,0.105,6.701" style="&st7;" />
	<path d="M289.833,256.43l-0.253,2.715c-0.158,1.636-0.053,3.324-0.105,6.701" style="&st7;" />
	<path d="M347.771,174.438c-0.839,1.595-1.73,3.217-2.675,4.849c-0.288,0.496-0.584,0.987-0.889,1.474" style="&st7;" />
	<path d="M381.238,179.85c-1.324,0.705-1.964-0.83-2.092-1.981s-1.407-41.829-1.407-41.829    c-0.128-1.791-1.406-2.303-2.559-0.896c-1.15,1.407-5.337,6.413-7.803,8.57c-1.023,0.896-1.407,0.768-1.407-0.384l-0.256-1.151    c-4.604,3.454-6.526,5.124-8.317,10.112c-1.249,3.478-4.435,12.282-9.626,22.146" style="&st7;" />
	<path d="M330.006,190.254l-0.322,2.58c-0.215,0.645-0.64,0.87-1.075,1.074c-2.359,1.111-9.729,5.367-20.649,9.134    c-6.658,2.296-15.497,4.674-24.971,6.144c-5.012,0.777-9.905,1.127-15.396,1.457" style="&st7;" />
	<path d="M339.186,187.924l-8.923,2.38" style="&st7;" />
	<path d="M341.296,190.486c-9.13,4.814-25.287,13.344-33.874,16.83c-3.997,1.623-10.991,3.88-20.463,5.526    c-9.257,1.608-20.926,2.625-30.45,2.625" style="&st7;" />
	<path d="M373.604,237.022c-0.071-2.282-1.642-5.137-3.853-5.921c-2.212-0.785-3.605-0.928-14.878,2.211    c-1.39,0.49-2.289,1.309-3.271,2.371c-0.98,1.063-4.006,4.006-0.898,7.521" style="&st7;" />
	<path d="M343.381,238.808c0.314-0.839,0.871-2.182-1.784-1.573c-5.451,1.25-20.427,6.497-42.213,10.782    c-13.627,2.68-29.492,4.2-42.7,4.2" style="&st7;" />
	<path d="M366.234,132.342c0-15.4,0.175-56.35,0.351-67.725" style="&st7;" />
	<path d="M366.135,144.094l0.348-11.285l-0.782-1.736c-0.086-0.347-0.173-0.955-0.173-1.389    s-0.044-1.029-0.044-1.029c0-0.781-0.811-2.029-2.126-2.01c-1.524,0.022-1.997,1.216-2.084,1.65    c-0.211,1.049-0.495,2.875-0.495,2.875c-0.121,0.487-0.202,0.852-0.243,1.542c-0.03,0.513-0.316,4.648-0.461,6.729" style="&st7;" />
	<path d="M360.284,135.2l1.75-27.183l0.133-31.445" style="&st7;" />
	<path d="M311.667,186.1c1.206-0.18,2.468-0.398,3.821-0.666c3.527-0.697,6.659-2.467,9.002-4.316    c8.632-7.398,22.073-22.196,26.266-27.005c4.192-4.81,8.632-12.578,8.632-12.578l0.09-1.591l0.584-0.584" style="&st7;" />
	<path d="M306.823,186.637c1.574-0.115,3.155-0.287,4.844-0.537" style="&st7;" />
	<path d="M338.898,238.1c-1.866,5.95-4.567,8.456-8.714,9.801c-4.317,1.399-22.143,5.886-39.993,7.286l0.109-1.697    c0-0.346-0.576-0.922-1.152-0.807s-23.043,1.844-32.49,1.844" style="&st7;" />
	<path d="M248.718,186.767H234.42l-4.076-0.101c-2.801,0-5.276,0.023-7.503,0.053l-3.779,0.057    c-8.825,0.14-13.572,0.204-21.395-1.342c-3.527-0.697-6.659-2.467-9.002-4.316c-8.632-7.398-22.073-22.196-26.266-27.005    c-4.193-4.81-8.632-12.578-8.632-12.578l-0.089-1.591l-0.584-0.584" style="&st7;" />
	<path d="M256.179,186.767h-7.46" style="&st7;" />
	<path d="M256.179,186.767h0.797h32.217l4.024-0.005c5.617,0.088,9.591,0.167,13.605-0.125" style="&st7;" />
	<path d="M256.79,85.762c-42.302,0-93.906-5.98-100.551-7.53c-6.644-1.55-7.087-2.658-7.53-8.195l-0.256-5.594" style="&st7;" />
	<path d="M256.603,85.762c42.302,0,93.907-5.98,100.55-7.53c6.645-1.55,7.088-2.658,7.53-8.195l0.256-5.594" style="&st7;" />
	<path d="M220,107.381c-27.835-2.012-55.218-5.499-67.258-7.077h-1.46" style="&st7;" />
	<path d="M227.594,107.891c-2.528-0.156-5.063-0.327-7.594-0.51" style="&st7;" />
	<path d="M253.363,108.877c-8.179-0.076-16.929-0.441-25.77-0.986" style="&st7;" />
	<path d="M258.95,108.886c-0.68,0.004-1.356,0.006-2.028,0.006h-0.452c-1.026,0-2.062-0.005-3.107-0.015" style="&st7;" />
	<path d="M261.528,108.86c-0.865,0.012-1.725,0.021-2.578,0.026" style="&st7;" />
	<path d="M280.269,108.208c-6.411,0.34-12.721,0.571-18.741,0.652" style="&st7;" />
	<path d="M304.856,106.473c-8.104,0.696-16.429,1.304-24.587,1.736" style="&st7;" />
	<path d="M310.473,105.974c-1.857,0.17-3.731,0.337-5.617,0.499" style="&st7;" />
	<path d="M362.11,100.304h-1.459c-9.55,1.252-28.753,3.705-50.178,5.67" style="&st7;" />
	<path d="M193.586,189.872l8.585,3.22c1.61,0.536,3.085,0.67,4.025,0.67c0.939,0,37.358,0,37.358,0" style="&st7;" />
	<path d="M274.166,193.761c-1.87,0-3.313,0-4.105,0" style="&st7;" />
	<path d="M316.05,191.286l-4.813,1.806c-1.61,0.536-3.086,0.67-4.024,0.67c-0.728,0-23.03,0-33.047,0" style="&st7;" />
	<path d="M319.822,189.872l-3.771,1.414" style="&st7;" />
	<path d="M355.615,233.225c1.445,1.446,3.942,2.288,6.654,2.282c3.354-0.008,7.828-2.105,7.632-4.364" style="&st7;" />
	<path d="M157.636,233.225c-1.445,1.446-3.942,2.288-6.655,2.282c-3.354-0.008-7.828-2.105-7.631-4.364" style="&st7;" />
</g>
<g id="キャプション">
	<text ewd:textID="1" transform="matrix(1.00 0.00 0.00 1.00 312.73 10.74)"><tspan style="&st4; &st5;" x="0" y="0">Conjunto del</tspan><tspan x="0" dy="10" style="&st4; &st5;">actuador del freno</tspan></text>
	<g>
		<path d="M 353.87,25.53 L 353.87,42.03 L 319.62,137.43 " style="&st1;" />
		<path d="M 353.87,25.53 L 353.87,42.03 L 319.62,137.43 " style="&st0;" />
	</g>
	<text transform="matrix(1.00 0.00 0.00 1.00 225.46 10.74)"><tspan style="&st4; &st5;" x="0" y="0">ECM</tspan></text>
	<g>
		<path d="M 236.57,15.03 L 236.57,31.53 L 188.95,145.33 " style="&st1;" />
		<path d="M 236.57,15.03 L 236.57,31.53 L 188.95,145.33 " style="&st0;" />
	</g>
	<a ewd:code="1" ewd:figtype="jb" onmouseout="text_mouse_out(evt)" onmouseover="text_mouse_over(evt)" style="cursor:pointer;fill:#0000ff;">
		<g>
			<text ewd:textID="3" transform="matrix(1.00 0.00 0.00 1.00 50.28 10.74)"><tspan style="&st4; &st5;" x="0" y="0">Conjunto de R/B del</tspan><tspan x="0" dy="10" style="&st4; &st5;">compartimento del motor</tspan></text>
			<text ewd:textID="2" transform="matrix(1.00 0.00 0.00 1.00 50.28 32.16)"><tspan style="&st4; &st5;" x="0" y="0">Conjunto de J/B del</tspan><tspan x="0" dy="10" style="&st4; &st5;">compartimento del motor</tspan></text>
		</g>
	</a>
	<g>
		<path d="M 104.37,46.95 L 104.37,63.45 L 158.79,117.54 " style="&st1;" />
		<path d="M 104.37,46.95 L 104.37,63.45 L 158.79,117.54 " style="&st0;" />
	</g>
</g>
</svg>