﻿<?xml version="1.0" encoding="utf-8"?>
<!-- Generator: Adobe Illustrator 10.0, SVG Export Plug-In . SVG Version: 3.0.0 Build 77)  -->
<!DOCTYPE svg PUBLIC "-//W3C//DTD SVG 1.0//EN" "http://www.w3.org/TR/2001/REC-SVG-20010904/DTD/svg10.dtd"[
	<!ENTITY ns_flows "http://ns.adobe.com/Flows/1.0/">
	<!ENTITY ns_svg "http://www.w3.org/2000/svg">
	<!ENTITY ns_xlink "http://www.w3.org/1999/xlink">
	<!ENTITY st0 "fill:none;stroke:#000000;stroke-linecap:round;stroke-linejoin:round;">
	<!ENTITY st1 "fill:none;stroke:#000000;stroke-width:1.0;stroke-linecap:round;stroke-linejoin:round;">
	<!ENTITY st2 "fill:none;stroke:#000000;stroke-width:1.67;">
	<!ENTITY st3 "stroke:#000000;stroke-width:1.0;stroke-linecap:round;stroke-linejoin:round;">
	<!ENTITY st4 "font-size:8px;">
	<!ENTITY st5 "fill:none;">
	<!ENTITY st6 "font-family:'Arial';">
	<!ATTLIST svg
		xmlns:ewd CDATA #FIXED "http://shcl.co.jp/ewd"
		xmlns:a CDATA #FIXED "http://ns.adobe.com/AdobeSVGViewerExtensions/3.0/"
		ewd:ver CDATA #IMPLIED>
	<!ATTLIST a
		ewd:innerGroupID CDATA #IMPLIED
		ewd:figtype CDATA #IMPLIED
		ewd:code CDATA #IMPLIED
		ewd:pinNo CDATA #IMPLIED>
	<!ATTLIST text
		ewd:textID CDATA #IMPLIED
		ewd:horAlign CDATA #IMPLIED>
	<!ATTLIST title
		ewd:textID CDATA #IMPLIED>
]>
<svg ewd:ver="2.1.2.10" height="1130.954" onload="call_execInitLoadProc_svg('inner')" style="overflow:visible;enable-background:new 0 0 510.236 1130.954" viewBox="0 0 510.236 1130.954" width="510.236" xml:space="preserve" xmlns="&ns_svg;" xmlns:ewd="http://shcl.co.jp/ewd" xmlns:a="http://ns.adobe.com/AdobeSVGViewerExtensions/3.0/" xmlns:xlink="&ns_xlink;">
<script type="text/javascript" xlink:href="../../../../../system/js/ewd/fig/svgfig.js" xmlns:xlink="http://www.w3.org/1999/xlink" />
<g id="WAKU">
	<path d="M510.236,680.315V0H0v680.315H510.236z" style="&st5;" />
</g>
<g id="レイヤー_1">
	<path d="M450.16,77.922" style="&st1;" />
	<path d="M235.801,104.001c-1.613-2.738-5.141-3.649-7.879-2.037" style="&st0;" />
	<path d="M227.922,101.964c-0.883,0.52-1.518,1.155-2.037,2.037" style="&st0;" />
	<path d="M215.969,104.001c1.613,2.738,5.141,3.65,7.879,2.037" style="&st0;" />
	<path d="M223.848,106.038c0.881-0.52,1.518-1.154,2.037-2.037" style="&st0;" />
	<path d="M238.633,104.001c0-0.782-0.635-1.416-1.418-1.416" style="&st1;" />
	<path d="M237.215,102.585c-0.781,0-1.414,0.634-1.414,1.416" style="&st1;" />
	<path d="M235.801,104.001c0,0.783,0.633,1.416,1.414,1.416" style="&st1;" />
	<path d="M237.215,105.417c0.783,0,1.418-0.633,1.418-1.416" style="&st1;" />
	<path d="M215.969,104.001c0-0.782-0.633-1.416-1.416-1.416" style="&st1;" />
	<path d="M214.553,102.585c-0.781,0-1.416,0.634-1.416,1.416" style="&st1;" />
	<path d="M213.137,104.001c0,0.783,0.635,1.416,1.416,1.416" style="&st1;" />
	<path d="M214.553,105.417c0.783,0,1.416-0.633,1.416-1.416" style="&st1;" />
	<path d="M235.801,77.922c-1.613-2.738-5.141-3.649-7.879-2.037" style="&st0;" />
	<path d="M227.922,75.885c-0.883,0.52-1.518,1.155-2.037,2.037" style="&st0;" />
	<path d="M215.969,77.922c1.613,2.738,5.141,3.65,7.879,2.037" style="&st0;" />
	<path d="M223.848,79.959c0.881-0.52,1.518-1.154,2.037-2.037" style="&st0;" />
	<path d="M238.633,77.922c0-0.782-0.635-1.416-1.418-1.416" style="&st1;" />
	<path d="M237.215,76.506c-0.781,0-1.414,0.634-1.414,1.416" style="&st1;" />
	<path d="M235.801,77.922c0,0.783,0.633,1.416,1.414,1.416" style="&st1;" />
	<path d="M237.215,79.338c0.783,0,1.418-0.633,1.418-1.416" style="&st1;" />
	<path d="M215.969,77.922c0-0.782-0.633-1.416-1.416-1.416" style="&st1;" />
	<path d="M214.553,76.506c-0.781,0-1.416,0.634-1.416,1.416" style="&st1;" />
	<path d="M213.137,77.922c0,0.783,0.635,1.416,1.416,1.416" style="&st1;" />
	<path d="M214.553,79.338c0.783,0,1.416-0.633,1.416-1.416" style="&st1;" />
	<path d="M235.801,130.08c-1.613-2.738-5.141-3.649-7.879-2.037" style="&st0;" />
	<path d="M227.922,128.042c-0.883,0.52-1.518,1.155-2.037,2.037" style="&st0;" />
	<path d="M215.969,130.08c1.613,2.738,5.141,3.65,7.879,2.037" style="&st0;" />
	<path d="M223.848,132.117c0.881-0.52,1.518-1.154,2.037-2.037" style="&st0;" />
	<path d="M238.633,130.08c0-0.782-0.635-1.416-1.418-1.416" style="&st1;" />
	<path d="M237.215,128.664c-0.781,0-1.414,0.634-1.414,1.416" style="&st1;" />
	<path d="M235.801,130.08c0,0.783,0.633,1.416,1.414,1.416" style="&st1;" />
	<path d="M237.215,131.496c0.783,0,1.418-0.633,1.418-1.416" style="&st1;" />
	<path d="M215.969,130.08c0-0.782-0.633-1.416-1.416-1.416" style="&st1;" />
	<path d="M214.553,128.664c-0.781,0-1.416,0.634-1.416,1.416" style="&st1;" />
	<path d="M213.137,130.08c0,0.783,0.635,1.416,1.416,1.416" style="&st1;" />
	<path d="M214.553,131.496c0.783,0,1.416-0.633,1.416-1.416" style="&st1;" />
	<path d="M235.801,156.158c-1.613-2.738-5.141-3.649-7.879-2.037" style="&st0;" />
	<path d="M227.922,154.121c-0.883,0.52-1.518,1.155-2.037,2.037" style="&st0;" />
	<path d="M215.969,156.158c1.613,2.738,5.141,3.65,7.879,2.037" style="&st0;" />
	<path d="M223.848,158.195c0.881-0.52,1.518-1.154,2.037-2.037" style="&st0;" />
	<path d="M238.633,156.158c0-0.782-0.635-1.416-1.418-1.416" style="&st1;" />
	<path d="M237.215,154.742c-0.781,0-1.414,0.634-1.414,1.416" style="&st1;" />
	<path d="M235.801,156.158c0,0.783,0.633,1.416,1.414,1.416" style="&st1;" />
	<path d="M237.215,157.574c0.783,0,1.418-0.633,1.418-1.416" style="&st1;" />
	<path d="M215.969,156.158c0-0.782-0.633-1.416-1.416-1.416" style="&st1;" />
	<path d="M214.553,154.742c-0.781,0-1.416,0.634-1.416,1.416" style="&st1;" />
	<path d="M213.137,156.158c0,0.783,0.635,1.416,1.416,1.416" style="&st1;" />
	<path d="M214.553,157.574c0.783,0,1.416-0.633,1.416-1.416" style="&st1;" />
	<path d="M235.801,182.237c-1.613-2.738-5.141-3.649-7.879-2.037" style="&st0;" />
	<path d="M227.922,180.2c-0.883,0.52-1.518,1.155-2.037,2.037" style="&st0;" />
	<path d="M215.969,182.237c1.613,2.738,5.141,3.65,7.879,2.037" style="&st0;" />
	<path d="M223.848,184.274c0.881-0.52,1.518-1.154,2.037-2.037" style="&st0;" />
	<path d="M238.633,182.237c0-0.782-0.635-1.416-1.418-1.416" style="&st1;" />
	<path d="M237.215,180.821c-0.781,0-1.414,0.634-1.414,1.416" style="&st1;" />
	<path d="M235.801,182.237c0,0.783,0.633,1.416,1.414,1.416" style="&st1;" />
	<path d="M237.215,183.653c0.783,0,1.418-0.633,1.418-1.416" style="&st1;" />
	<path d="M215.969,182.237c0-0.782-0.633-1.416-1.416-1.416" style="&st1;" />
	<path d="M214.553,180.821c-0.781,0-1.416,0.634-1.416,1.416" style="&st1;" />
	<path d="M213.137,182.237c0,0.783,0.635,1.416,1.416,1.416" style="&st1;" />
	<path d="M214.553,183.653c0.783,0,1.416-0.633,1.416-1.416" style="&st1;" />
	<path d="M235.801,208.315c-1.613-2.738-5.141-3.649-7.879-2.037" style="&st0;" />
	<path d="M227.922,206.278c-0.883,0.52-1.518,1.155-2.037,2.037" style="&st0;" />
	<path d="M215.969,208.315c1.613,2.738,5.141,3.65,7.879,2.037" style="&st0;" />
	<path d="M223.848,210.353c0.881-0.52,1.518-1.154,2.037-2.037" style="&st0;" />
	<path d="M238.633,208.315c0-0.782-0.635-1.416-1.418-1.416" style="&st1;" />
	<path d="M237.215,206.899c-0.781,0-1.414,0.634-1.414,1.416" style="&st1;" />
	<path d="M235.801,208.315c0,0.783,0.633,1.416,1.414,1.416" style="&st1;" />
	<path d="M237.215,209.731c0.783,0,1.418-0.633,1.418-1.416" style="&st1;" />
	<path d="M215.969,208.315c0-0.782-0.633-1.416-1.416-1.416" style="&st1;" />
	<path d="M214.553,206.899c-0.781,0-1.416,0.634-1.416,1.416" style="&st1;" />
	<path d="M213.137,208.315c0,0.783,0.635,1.416,1.416,1.416" style="&st1;" />
	<path d="M214.553,209.731c0.783,0,1.416-0.633,1.416-1.416" style="&st1;" />
	<path d="M238.633,234.394c0-0.782-0.635-1.416-1.418-1.416" style="&st1;" />
	<path d="M237.215,232.978c-0.781,0-1.414,0.634-1.414,1.416" style="&st1;" />
	<path d="M235.801,234.394c0,0.783,0.633,1.416,1.414,1.416" style="&st1;" />
	<path d="M237.215,235.81c0.783,0,1.418-0.633,1.418-1.416" style="&st1;" />
	<path d="M215.969,234.394c0-0.782-0.633-1.416-1.416-1.416" style="&st1;" />
	<path d="M214.553,232.978c-0.781,0-1.416,0.634-1.416,1.416" style="&st1;" />
	<path d="M213.137,234.394c0,0.783,0.635,1.416,1.416,1.416" style="&st1;" />
	<path d="M214.553,235.81c0.783,0,1.416-0.633,1.416-1.416" style="&st1;" />
	<path d="M235.801,260.473c-1.613-2.738-5.141-3.649-7.879-2.037" style="&st0;" />
	<path d="M227.922,258.436c-0.883,0.52-1.518,1.155-2.037,2.037" style="&st0;" />
	<path d="M215.969,260.473c1.613,2.738,5.141,3.65,7.879,2.037" style="&st0;" />
	<path d="M223.848,262.51c0.881-0.52,1.518-1.154,2.037-2.037" style="&st0;" />
	<path d="M238.633,260.473c0-0.782-0.635-1.416-1.418-1.416" style="&st1;" />
	<path d="M237.215,259.057c-0.781,0-1.414,0.634-1.414,1.416" style="&st1;" />
	<path d="M235.801,260.473c0,0.783,0.633,1.416,1.414,1.416" style="&st1;" />
	<path d="M237.215,261.889c0.783,0,1.418-0.633,1.418-1.416" style="&st1;" />
	<path d="M215.969,260.473c0-0.782-0.633-1.416-1.416-1.416" style="&st1;" />
	<path d="M214.553,259.057c-0.781,0-1.416,0.634-1.416,1.416" style="&st1;" />
	<path d="M213.137,260.473c0,0.783,0.635,1.416,1.416,1.416" style="&st1;" />
	<path d="M214.553,261.889c0.783,0,1.416-0.633,1.416-1.416" style="&st1;" />
	<path d="M235.801,286.551c-1.613-2.738-5.141-3.649-7.879-2.037" style="&st0;" />
	<path d="M227.922,284.514c-0.883,0.52-1.518,1.155-2.037,2.037" style="&st0;" />
	<path d="M215.969,286.551c1.613,2.738,5.141,3.65,7.879,2.037" style="&st0;" />
	<path d="M223.848,288.588c0.881-0.52,1.518-1.154,2.037-2.037" style="&st0;" />
	<path d="M238.633,286.551c0-0.782-0.635-1.416-1.418-1.416" style="&st1;" />
	<path d="M237.215,285.135c-0.781,0-1.414,0.634-1.414,1.416" style="&st1;" />
	<path d="M235.801,286.551c0,0.783,0.633,1.416,1.414,1.416" style="&st1;" />
	<path d="M237.215,287.967c0.783,0,1.418-0.633,1.418-1.416" style="&st1;" />
	<path d="M215.969,286.551c0-0.782-0.633-1.416-1.416-1.416" style="&st1;" />
	<path d="M214.553,285.135c-0.781,0-1.416,0.634-1.416,1.416" style="&st1;" />
	<path d="M213.137,286.551c0,0.783,0.635,1.416,1.416,1.416" style="&st1;" />
	<path d="M214.553,287.967c0.783,0,1.416-0.633,1.416-1.416" style="&st1;" />
	<path d="M238.633,312.63c0-0.782-0.635-1.416-1.418-1.416" style="&st1;" />
	<path d="M237.215,311.214c-0.781,0-1.414,0.634-1.414,1.416" style="&st1;" />
	<path d="M235.801,312.63c0,0.783,0.633,1.416,1.414,1.416" style="&st1;" />
	<path d="M237.215,314.046c0.783,0,1.418-0.633,1.418-1.416" style="&st1;" />
	<path d="M215.969,312.63c0-0.782-0.633-1.416-1.416-1.416" style="&st1;" />
	<path d="M214.553,311.214c-0.781,0-1.416,0.634-1.416,1.416" style="&st1;" />
	<path d="M213.137,312.63c0,0.783,0.635,1.416,1.416,1.416" style="&st1;" />
	<path d="M214.553,314.046c0.783,0,1.416-0.633,1.416-1.416" style="&st1;" />
	<path d="M238.633,338.708c0-0.782-0.635-1.416-1.418-1.416" style="&st1;" />
	<path d="M237.215,337.292c-0.781,0-1.414,0.634-1.414,1.416" style="&st1;" />
	<path d="M235.801,338.708c0,0.783,0.633,1.416,1.414,1.416" style="&st1;" />
	<path d="M237.215,340.125c0.783,0,1.418-0.633,1.418-1.416" style="&st1;" />
	<path d="M215.969,338.708c0-0.782-0.633-1.416-1.416-1.416" style="&st1;" />
	<path d="M214.553,337.292c-0.781,0-1.416,0.634-1.416,1.416" style="&st1;" />
	<path d="M213.137,338.708c0,0.783,0.635,1.416,1.416,1.416" style="&st1;" />
	<path d="M214.553,340.125c0.783,0,1.416-0.633,1.416-1.416" style="&st1;" />
	<path d="M235.801,364.788c-1.613-2.738-5.141-3.649-7.879-2.037" style="&st0;" />
	<path d="M227.922,362.75c-0.883,0.52-1.518,1.155-2.037,2.037" style="&st0;" />
	<path d="M215.969,364.788c1.613,2.738,5.141,3.65,7.879,2.037" style="&st0;" />
	<path d="M223.848,366.825c0.881-0.52,1.518-1.154,2.037-2.037" style="&st0;" />
	<path d="M238.633,364.788c0-0.782-0.635-1.416-1.418-1.416" style="&st1;" />
	<path d="M237.215,363.372c-0.781,0-1.414,0.634-1.414,1.416" style="&st1;" />
	<path d="M235.801,364.788c0,0.783,0.633,1.416,1.414,1.416" style="&st1;" />
	<path d="M237.215,366.204c0.783,0,1.418-0.633,1.418-1.416" style="&st1;" />
	<path d="M215.969,364.788c0-0.782-0.633-1.416-1.416-1.416" style="&st1;" />
	<path d="M214.553,363.372c-0.781,0-1.416,0.634-1.416,1.416" style="&st1;" />
	<path d="M213.137,364.788c0,0.783,0.635,1.416,1.416,1.416" style="&st1;" />
	<path d="M214.553,366.204c0.783,0,1.416-0.633,1.416-1.416" style="&st1;" />
	<path d="M235.801,390.867c-1.613-2.738-5.141-3.649-7.879-2.037" style="&st0;" />
	<path d="M227.922,388.83c-0.883,0.52-1.518,1.155-2.037,2.037" style="&st0;" />
	<path d="M215.969,390.867c1.613,2.738,5.141,3.65,7.879,2.037" style="&st0;" />
	<path d="M223.848,392.904c0.881-0.52,1.518-1.154,2.037-2.037" style="&st0;" />
	<path d="M238.633,390.867c0-0.782-0.635-1.416-1.418-1.416" style="&st1;" />
	<path d="M237.215,389.451c-0.781,0-1.414,0.634-1.414,1.416" style="&st1;" />
	<path d="M235.801,390.867c0,0.783,0.633,1.416,1.414,1.416" style="&st1;" />
	<path d="M237.215,392.283c0.783,0,1.418-0.633,1.418-1.416" style="&st1;" />
	<path d="M215.969,390.867c0-0.782-0.633-1.416-1.416-1.416" style="&st1;" />
	<path d="M214.553,389.451c-0.781,0-1.416,0.634-1.416,1.416" style="&st1;" />
	<path d="M213.137,390.867c0,0.783,0.635,1.416,1.416,1.416" style="&st1;" />
	<path d="M214.553,392.283c0.783,0,1.416-0.633,1.416-1.416" style="&st1;" />
	<path d="M235.801,416.946c-1.613-2.738-5.141-3.649-7.879-2.037" style="&st0;" />
	<path d="M227.922,414.909c-0.883,0.52-1.518,1.155-2.037,2.037" style="&st0;" />
	<path d="M215.969,416.946c1.613,2.738,5.141,3.65,7.879,2.037" style="&st0;" />
	<path d="M223.848,418.983c0.881-0.52,1.518-1.154,2.037-2.037" style="&st0;" />
	<path d="M238.633,416.946c0-0.782-0.635-1.416-1.418-1.416" style="&st1;" />
	<path d="M237.215,415.53c-0.781,0-1.414,0.634-1.414,1.416" style="&st1;" />
	<path d="M235.801,416.946c0,0.783,0.633,1.416,1.414,1.416" style="&st1;" />
	<path d="M237.215,418.362c0.783,0,1.418-0.633,1.418-1.416" style="&st1;" />
	<path d="M215.969,416.946c0-0.782-0.633-1.416-1.416-1.416" style="&st1;" />
	<path d="M214.553,415.53c-0.781,0-1.416,0.634-1.416,1.416" style="&st1;" />
	<path d="M213.137,416.946c0,0.783,0.635,1.416,1.416,1.416" style="&st1;" />
	<path d="M214.553,418.362c0.783,0,1.416-0.633,1.416-1.416" style="&st1;" />
	<path d="M238.633,443.025c0-0.782-0.635-1.416-1.418-1.416" style="&st1;" />
	<path d="M237.215,441.609c-0.781,0-1.414,0.634-1.414,1.416" style="&st1;" />
	<path d="M235.801,443.025c0,0.783,0.633,1.416,1.414,1.416" style="&st1;" />
	<path d="M237.215,444.441c0.783,0,1.418-0.633,1.418-1.416" style="&st1;" />
	<path d="M215.969,443.025c0-0.782-0.633-1.416-1.416-1.416" style="&st1;" />
	<path d="M214.553,441.609c-0.781,0-1.416,0.634-1.416,1.416" style="&st1;" />
	<path d="M213.137,443.025c0,0.783,0.635,1.416,1.416,1.416" style="&st1;" />
	<path d="M214.553,444.441c0.783,0,1.416-0.633,1.416-1.416" style="&st1;" />
	<path d="M235.801,469.104c-1.613-2.738-5.141-3.649-7.879-2.037" style="&st0;" />
	<path d="M227.922,467.067c-0.883,0.52-1.518,1.155-2.037,2.037" style="&st0;" />
	<path d="M215.969,469.104c1.613,2.738,5.141,3.65,7.879,2.037" style="&st0;" />
	<path d="M223.848,471.141c0.881-0.52,1.518-1.154,2.037-2.037" style="&st0;" />
	<path d="M238.633,469.104c0-0.782-0.635-1.416-1.418-1.416" style="&st1;" />
	<path d="M237.215,467.688c-0.781,0-1.414,0.634-1.414,1.416" style="&st1;" />
	<path d="M235.801,469.104c0,0.783,0.633,1.416,1.414,1.416" style="&st1;" />
	<path d="M237.215,470.52c0.783,0,1.418-0.633,1.418-1.416" style="&st1;" />
	<path d="M215.969,469.104c0-0.782-0.633-1.416-1.416-1.416" style="&st1;" />
	<path d="M214.553,467.688c-0.781,0-1.416,0.634-1.416,1.416" style="&st1;" />
	<path d="M213.137,469.104c0,0.783,0.635,1.416,1.416,1.416" style="&st1;" />
	<path d="M214.553,470.52c0.783,0,1.416-0.633,1.416-1.416" style="&st1;" />
	<path d="M235.801,495.183c-1.613-2.738-5.141-3.649-7.879-2.037" style="&st0;" />
	<path d="M227.922,493.146c-0.883,0.52-1.518,1.155-2.037,2.037" style="&st0;" />
	<path d="M215.969,495.183c1.613,2.738,5.141,3.65,7.879,2.037" style="&st0;" />
	<path d="M223.848,497.22c0.881-0.52,1.518-1.154,2.037-2.037" style="&st0;" />
	<path d="M238.633,495.183c0-0.782-0.635-1.416-1.418-1.416" style="&st1;" />
	<path d="M237.215,493.767c-0.781,0-1.414,0.634-1.414,1.416" style="&st1;" />
	<path d="M235.801,495.183c0,0.783,0.633,1.416,1.414,1.416" style="&st1;" />
	<path d="M237.215,496.599c0.783,0,1.418-0.633,1.418-1.416" style="&st1;" />
	<path d="M215.969,495.183c0-0.782-0.633-1.416-1.416-1.416" style="&st1;" />
	<path d="M214.553,493.767c-0.781,0-1.416,0.634-1.416,1.416" style="&st1;" />
	<path d="M213.137,495.183c0,0.783,0.635,1.416,1.416,1.416" style="&st1;" />
	<path d="M214.553,496.599c0.783,0,1.416-0.633,1.416-1.416" style="&st1;" />
	<path d="M235.801,521.262c-1.613-2.738-5.141-3.649-7.879-2.037" style="&st0;" />
	<path d="M227.922,519.225c-0.883,0.52-1.518,1.155-2.037,2.037" style="&st0;" />
	<path d="M215.969,521.262c1.613,2.738,5.141,3.65,7.879,2.037" style="&st0;" />
	<path d="M223.848,523.299c0.881-0.52,1.518-1.154,2.037-2.037" style="&st0;" />
	<path d="M238.633,521.262c0-0.782-0.635-1.416-1.418-1.416" style="&st1;" />
	<path d="M237.215,519.846c-0.781,0-1.414,0.634-1.414,1.416" style="&st1;" />
	<path d="M235.801,521.262c0,0.783,0.633,1.416,1.414,1.416" style="&st1;" />
	<path d="M237.215,522.678c0.783,0,1.418-0.633,1.418-1.416" style="&st1;" />
	<path d="M215.969,521.262c0-0.782-0.633-1.416-1.416-1.416" style="&st1;" />
	<path d="M214.553,519.846c-0.781,0-1.416,0.634-1.416,1.416" style="&st1;" />
	<path d="M213.137,521.262c0,0.783,0.635,1.416,1.416,1.416" style="&st1;" />
	<path d="M214.553,522.678c0.783,0,1.416-0.633,1.416-1.416" style="&st1;" />
	<path d="M235.801,547.341c-1.613-2.738-5.141-3.649-7.879-2.037" style="&st0;" />
	<path d="M227.922,545.304c-0.883,0.52-1.518,1.155-2.037,2.037" style="&st0;" />
	<path d="M215.969,547.341c1.613,2.738,5.141,3.65,7.879,2.037" style="&st0;" />
	<path d="M223.848,549.378c0.881-0.52,1.518-1.154,2.037-2.037" style="&st0;" />
	<path d="M238.633,547.341c0-0.782-0.635-1.416-1.418-1.416" style="&st1;" />
	<path d="M237.215,545.925c-0.781,0-1.414,0.634-1.414,1.416" style="&st1;" />
	<path d="M235.801,547.341c0,0.783,0.633,1.416,1.414,1.416" style="&st1;" />
	<path d="M237.215,548.757c0.783,0,1.418-0.633,1.418-1.416" style="&st1;" />
	<path d="M215.969,547.341c0-0.782-0.633-1.416-1.416-1.416" style="&st1;" />
	<path d="M214.553,545.925c-0.781,0-1.416,0.634-1.416,1.416" style="&st1;" />
	<path d="M213.137,547.341c0,0.783,0.635,1.416,1.416,1.416" style="&st1;" />
	<path d="M214.553,548.757c0.783,0,1.416-0.633,1.416-1.416" style="&st1;" />
	<path d="M235.801,573.42c-1.613-2.738-5.141-3.649-7.879-2.037" style="&st0;" />
	<path d="M227.922,571.383c-0.883,0.52-1.518,1.155-2.037,2.037" style="&st0;" />
	<path d="M215.969,573.42c1.613,2.738,5.141,3.65,7.879,2.037" style="&st0;" />
	<path d="M223.848,575.458c0.881-0.52,1.518-1.154,2.037-2.037" style="&st0;" />
	<path d="M238.633,573.42c0-0.782-0.635-1.416-1.418-1.416" style="&st1;" />
	<path d="M237.215,572.004c-0.781,0-1.414,0.634-1.414,1.416" style="&st1;" />
	<path d="M235.801,573.42c0,0.783,0.633,1.416,1.414,1.416" style="&st1;" />
	<path d="M237.215,574.836c0.783,0,1.418-0.633,1.418-1.416" style="&st1;" />
	<path d="M215.969,573.42c0-0.782-0.633-1.416-1.416-1.416" style="&st1;" />
	<path d="M214.553,572.004c-0.781,0-1.416,0.634-1.416,1.416" style="&st1;" />
	<path d="M213.137,573.42c0,0.783,0.635,1.416,1.416,1.416" style="&st1;" />
	<path d="M214.553,574.836c0.783,0,1.416-0.633,1.416-1.416" style="&st1;" />
	<path d="M235.801,599.5c-1.613-2.738-5.141-3.649-7.879-2.037" style="&st0;" />
	<path d="M227.922,597.462c-0.883,0.52-1.518,1.155-2.037,2.037" style="&st0;" />
	<path d="M215.969,599.5c1.613,2.738,5.141,3.65,7.879,2.037" style="&st0;" />
	<path d="M223.848,601.537c0.881-0.52,1.518-1.154,2.037-2.037" style="&st0;" />
	<path d="M238.633,599.5c0-0.782-0.635-1.416-1.418-1.416" style="&st1;" />
	<path d="M237.215,598.083c-0.781,0-1.414,0.634-1.414,1.416" style="&st1;" />
	<path d="M235.801,599.5c0,0.783,0.633,1.416,1.414,1.416" style="&st1;" />
	<path d="M237.215,600.916c0.783,0,1.418-0.633,1.418-1.416" style="&st1;" />
	<path d="M215.969,599.5c0-0.782-0.633-1.416-1.416-1.416" style="&st1;" />
	<path d="M214.553,598.083c-0.781,0-1.416,0.634-1.416,1.416" style="&st1;" />
	<path d="M213.137,599.5c0,0.783,0.635,1.416,1.416,1.416" style="&st1;" />
	<path d="M214.553,600.916c0.783,0,1.416-0.633,1.416-1.416" style="&st1;" />
	<path d="M238.633,625.579c0-0.782-0.635-1.416-1.418-1.416" style="&st1;" />
	<path d="M237.215,624.163c-0.781,0-1.414,0.634-1.414,1.416" style="&st1;" />
	<path d="M235.801,625.579c0,0.783,0.633,1.416,1.414,1.416" style="&st1;" />
	<path d="M237.215,626.995c0.783,0,1.418-0.633,1.418-1.416" style="&st1;" />
	<path d="M215.969,625.579c0-0.782-0.633-1.416-1.416-1.416" style="&st1;" />
	<path d="M214.553,624.163c-0.781,0-1.416,0.634-1.416,1.416" style="&st1;" />
	<path d="M213.137,625.579c0,0.783,0.635,1.416,1.416,1.416" style="&st1;" />
	<path d="M214.553,626.995c0.783,0,1.416-0.633,1.416-1.416" style="&st1;" />
	<path d="M60.076,649.066V46.192H450.16v602.874v481.388H60.076V649.066z" style="&st0;" />
	<path d="M363.561,687.699l-21.53-5.382" style="&st0;" />
	<path d="M370.289,687.699h-4.037" style="&st1;" />
	<path d="M337.994,687.699h4.037" style="&st1;" />
	<path d="M337.994,711.92h8.074" style="&st1;" />
	<path d="M362.215,711.92h8.073" style="&st1;" />
	<path d="M366.251,687.699c0-0.743-0.603-1.345-1.346-1.345" style="&st1;" />
	<path d="M364.906,686.354c-0.743,0-1.345,0.602-1.345,1.345" style="&st1;" />
	<path d="M363.561,687.699c0,0.743,0.602,1.346,1.345,1.346" style="&st1;" />
	<path d="M364.906,689.044c0.743,0,1.346-0.603,1.346-1.346" style="&st1;" />
	<path d="M344.722,687.699c0-0.743-0.603-1.345-1.346-1.345" style="&st1;" />
	<path d="M343.376,686.354c-0.743,0-1.346,0.602-1.346,1.345" style="&st1;" />
	<path d="M342.031,687.699c0,0.743,0.603,1.346,1.346,1.346" style="&st1;" />
	<path d="M343.376,689.044c0.743,0,1.346-0.603,1.346-1.346" style="&st1;" />
	<path d="M351.787,714.323c1.327-1.301,1.349-3.431,0.049-4.758" style="&st1;" />
	<path d="M351.835,709.565c-1.301-1.327-3.432-1.35-4.759-0.049" style="&st1;" />
	<path d="M347.077,709.516c-0.673,0.659-1.01,1.463-1.01,2.404" style="&st1;" />
	<path d="M356.496,714.323c1.328-1.301,1.35-3.431,0.049-4.758" style="&st1;" />
	<path d="M356.544,709.565c-1.301-1.327-3.431-1.35-4.758-0.049" style="&st1;" />
	<path d="M351.787,709.516c-1.328,1.301-1.35,3.432-0.049,4.758" style="&st1;" />
	<path d="M351.738,711.027c0.018,0.018,0.031,0.032,0.049,0.049" style="&st1;" />
	<path d="M362.215,711.92c0-1.858-1.507-3.365-3.365-3.365" style="&st1;" />
	<path d="M358.85,708.555c-1.856,0-3.363,1.507-3.363,3.365" style="&st1;" />
	<path d="M355.487,711.92c0,0.94,0.338,1.744,1.01,2.402" style="&st1;" />
	<path d="M337.994,679.625v40.367h32.295v-40.367H337.994" style="&st0;" />
	<path d="M363.561,752.896l-21.53-5.383" style="&st0;" />
	<path d="M370.289,752.896h-4.037" style="&st1;" />
	<path d="M337.994,752.896h4.037" style="&st1;" />
	<path d="M337.994,777.117h8.074" style="&st1;" />
	<path d="M362.215,777.117h8.073" style="&st1;" />
	<path d="M366.251,752.896c0-0.744-0.603-1.346-1.346-1.346" style="&st1;" />
	<path d="M364.906,751.55c-0.743,0-1.345,0.602-1.345,1.346" style="&st1;" />
	<path d="M363.561,752.896c0,0.742,0.602,1.346,1.345,1.346" style="&st1;" />
	<path d="M364.906,754.242c0.743,0,1.346-0.604,1.346-1.346" style="&st1;" />
	<path d="M344.722,752.896c0-0.744-0.603-1.346-1.346-1.346" style="&st1;" />
	<path d="M343.376,751.55c-0.743,0-1.346,0.602-1.346,1.346" style="&st1;" />
	<path d="M342.031,752.896c0,0.742,0.603,1.346,1.346,1.346" style="&st1;" />
	<path d="M343.376,754.242c0.743,0,1.346-0.604,1.346-1.346" style="&st1;" />
	<path d="M351.787,779.519c1.327-1.301,1.349-3.43,0.049-4.758" style="&st1;" />
	<path d="M351.835,774.761c-1.301-1.326-3.432-1.35-4.759-0.049" style="&st1;" />
	<path d="M347.077,774.712c-0.673,0.66-1.01,1.463-1.01,2.404" style="&st1;" />
	<path d="M356.496,779.519c1.328-1.301,1.35-3.43,0.049-4.758" style="&st1;" />
	<path d="M356.544,774.761c-1.301-1.326-3.431-1.35-4.758-0.049" style="&st1;" />
	<path d="M351.787,774.712c-1.328,1.301-1.35,3.432-0.049,4.758" style="&st1;" />
	<path d="M351.738,776.224c0.018,0.018,0.031,0.031,0.049,0.049" style="&st1;" />
	<path d="M362.215,777.117c0-1.857-1.507-3.365-3.365-3.365" style="&st1;" />
	<path d="M358.85,773.751c-1.856,0-3.363,1.508-3.363,3.365" style="&st1;" />
	<path d="M355.487,777.117c0,0.941,0.338,1.744,1.01,2.402" style="&st1;" />
	<path d="M337.994,744.822v40.367h32.295v-40.367H337.994" style="&st0;" />
	<path d="M363.561,818.092l-21.53-5.382" style="&st0;" />
	<path d="M370.289,818.092h-4.037" style="&st1;" />
	<path d="M337.994,818.092h4.037" style="&st1;" />
	<path d="M337.994,842.314h8.074" style="&st1;" />
	<path d="M362.215,842.314h8.073" style="&st1;" />
	<path d="M366.251,818.092c0-0.743-0.603-1.345-1.346-1.345" style="&st1;" />
	<path d="M364.906,816.748c-0.743,0-1.345,0.602-1.345,1.345" style="&st1;" />
	<path d="M363.561,818.092c0,0.743,0.602,1.346,1.345,1.346" style="&st1;" />
	<path d="M364.906,819.438c0.743,0,1.346-0.603,1.346-1.346" style="&st1;" />
	<path d="M344.722,818.092c0-0.743-0.603-1.345-1.346-1.345" style="&st1;" />
	<path d="M343.376,816.748c-0.743,0-1.346,0.602-1.346,1.345" style="&st1;" />
	<path d="M342.031,818.092c0,0.743,0.603,1.346,1.346,1.346" style="&st1;" />
	<path d="M343.376,819.438c0.743,0,1.346-0.603,1.346-1.346" style="&st1;" />
	<path d="M351.787,844.716c1.327-1.301,1.349-3.431,0.049-4.758" style="&st1;" />
	<path d="M351.835,839.958c-1.301-1.327-3.432-1.35-4.759-0.049" style="&st1;" />
	<path d="M347.077,839.91c-0.673,0.659-1.01,1.463-1.01,2.404" style="&st1;" />
	<path d="M356.496,844.716c1.328-1.301,1.35-3.431,0.049-4.758" style="&st1;" />
	<path d="M356.544,839.958c-1.301-1.327-3.431-1.35-4.758-0.049" style="&st1;" />
	<path d="M351.787,839.91c-1.328,1.301-1.35,3.432-0.049,4.758" style="&st1;" />
	<path d="M351.738,841.42c0.018,0.018,0.031,0.032,0.049,0.049" style="&st1;" />
	<path d="M362.215,842.314c0-1.858-1.507-3.365-3.365-3.365" style="&st1;" />
	<path d="M358.85,838.949c-1.856,0-3.363,1.507-3.363,3.365" style="&st1;" />
	<path d="M355.487,842.314c0,0.94,0.338,1.744,1.01,2.402" style="&st1;" />
	<path d="M337.994,810.019v40.367h32.295v-40.367H337.994" style="&st0;" />
	<path d="M363.561,883.289l-21.53-5.381" style="&st0;" />
	<path d="M370.289,883.289h-4.037" style="&st1;" />
	<path d="M337.994,883.289h4.037" style="&st1;" />
	<path d="M337.994,907.511h8.074" style="&st1;" />
	<path d="M362.215,907.511h8.073" style="&st1;" />
	<path d="M366.251,883.289c0-0.742-0.603-1.344-1.346-1.344" style="&st1;" />
	<path d="M364.906,881.945c-0.743,0-1.345,0.602-1.345,1.344" style="&st1;" />
	<path d="M363.561,883.289c0,0.744,0.602,1.346,1.345,1.346" style="&st1;" />
	<path d="M364.906,884.634c0.743,0,1.346-0.602,1.346-1.346" style="&st1;" />
	<path d="M344.722,883.289c0-0.742-0.603-1.344-1.346-1.344" style="&st1;" />
	<path d="M343.376,881.945c-0.743,0-1.346,0.602-1.346,1.344" style="&st1;" />
	<path d="M342.031,883.289c0,0.744,0.603,1.346,1.346,1.346" style="&st1;" />
	<path d="M343.376,884.634c0.743,0,1.346-0.602,1.346-1.346" style="&st1;" />
	<path d="M351.787,909.914c1.327-1.301,1.349-3.432,0.049-4.758" style="&st1;" />
	<path d="M351.835,905.156c-1.301-1.328-3.432-1.35-4.759-0.049" style="&st1;" />
	<path d="M347.077,905.107c-0.673,0.658-1.01,1.463-1.01,2.404" style="&st1;" />
	<path d="M356.496,909.914c1.328-1.301,1.35-3.432,0.049-4.758" style="&st1;" />
	<path d="M356.544,905.156c-1.301-1.328-3.431-1.35-4.758-0.049" style="&st1;" />
	<path d="M351.787,905.107c-1.328,1.301-1.35,3.432-0.049,4.758" style="&st1;" />
	<path d="M351.738,906.617c0.018,0.018,0.031,0.033,0.049,0.049" style="&st1;" />
	<path d="M362.215,907.511c0-1.859-1.507-3.365-3.365-3.365" style="&st1;" />
	<path d="M358.85,904.146c-1.856,0-3.363,1.506-3.363,3.365" style="&st1;" />
	<path d="M355.487,907.511c0,0.939,0.338,1.744,1.01,2.402" style="&st1;" />
	<path d="M337.994,875.216v40.367h32.295v-40.367H337.994" style="&st0;" />
	<path d="M363.561,955.954l-21.53-5.381" style="&st0;" />
	<path d="M342.031,955.954h-4.037" style="&st1;" />
	<path d="M354.141,947.881v2.691" style="&st1;" />
	<path d="M370.289,955.954h-4.037" style="&st1;" />
	<path d="M370.289,980.175h-8.073" style="&st1;" />
	<path d="M346.068,980.175h-8.074" style="&st1;" />
	<path d="M355.487,951.918c0-0.744-0.603-1.346-1.346-1.346" style="&st1;" />
	<path d="M354.141,950.573c-0.743,0-1.346,0.602-1.346,1.346" style="&st1;" />
	<path d="M352.795,951.918c0,0.742,0.603,1.346,1.346,1.346" style="&st1;" />
	<path d="M354.141,953.264c0.743,0,1.346-0.604,1.346-1.346" style="&st1;" />
	<path d="M344.722,955.954c0-0.742-0.603-1.344-1.346-1.344" style="&st1;" />
	<path d="M343.376,954.61c-0.743,0-1.346,0.602-1.346,1.344" style="&st1;" />
	<path d="M342.031,955.954c0,0.744,0.603,1.346,1.346,1.346" style="&st1;" />
	<path d="M343.376,957.299c0.743,0,1.346-0.602,1.346-1.346" style="&st1;" />
	<path d="M366.251,955.954c0-0.742-0.603-1.344-1.346-1.344" style="&st1;" />
	<path d="M364.906,954.61c-0.743,0-1.345,0.602-1.345,1.344" style="&st1;" />
	<path d="M363.561,955.954c0,0.744,0.602,1.346,1.345,1.346" style="&st1;" />
	<path d="M364.906,957.299c0.743,0,1.346-0.602,1.346-1.346" style="&st1;" />
	<path d="M362.215,980.175c0-1.857-1.507-3.363-3.365-3.363" style="&st1;" />
	<path d="M358.85,976.812c-1.856,0-3.363,1.506-3.363,3.363" style="&st1;" />
	<path d="M355.487,980.175c0,0.941,0.338,1.744,1.01,2.404" style="&st1;" />
	<path d="M356.496,982.58c1.328-1.301,1.35-3.432,0.049-4.758" style="&st1;" />
	<path d="M356.544,977.822c-1.301-1.328-3.431-1.35-4.758-0.049" style="&st1;" />
	<path d="M351.787,977.773c-1.328,1.301-1.35,3.43-0.049,4.758" style="&st1;" />
	<path d="M351.738,982.531c0.018,0.018,0.031,0.031,0.049,0.049" style="&st1;" />
	<path d="M351.787,982.58c1.327-1.301,1.349-3.432,0.049-4.758" style="&st1;" />
	<path d="M351.835,977.822c-1.301-1.328-3.432-1.35-4.759-0.049" style="&st1;" />
	<path d="M347.077,977.773c-0.673,0.658-1.01,1.461-1.01,2.402" style="&st1;" />
	<path d="M370.289,947.881v40.368h-32.295v-40.368H370.289" style="&st0;" />
	<path d="M363.561,1028.619l-21.53-5.381" style="&st0;" />
	<path d="M342.031,1028.619h-4.037" style="&st1;" />
	<path d="M354.141,1020.546v2.691" style="&st1;" />
	<path d="M370.289,1028.619h-4.037" style="&st1;" />
	<path d="M370.289,1052.839h-8.073" style="&st1;" />
	<path d="M346.068,1052.839h-8.074" style="&st1;" />
	<path d="M355.487,1024.583c0-0.744-0.603-1.346-1.346-1.346" style="&st1;" />
	<path d="M354.141,1023.238c-0.743,0-1.346,0.602-1.346,1.346" style="&st1;" />
	<path d="M352.795,1024.583c0,0.742,0.603,1.346,1.346,1.346" style="&st1;" />
	<path d="M354.141,1025.929c0.743,0,1.346-0.604,1.346-1.346" style="&st1;" />
	<path d="M344.722,1028.619c0-0.742-0.603-1.344-1.346-1.344" style="&st1;" />
	<path d="M343.376,1027.275c-0.743,0-1.346,0.602-1.346,1.344" style="&st1;" />
	<path d="M342.031,1028.619c0,0.744,0.603,1.346,1.346,1.346" style="&st1;" />
	<path d="M343.376,1029.964c0.743,0,1.346-0.602,1.346-1.346" style="&st1;" />
	<path d="M366.251,1028.619c0-0.742-0.603-1.344-1.346-1.344" style="&st1;" />
	<path d="M364.906,1027.275c-0.743,0-1.345,0.602-1.345,1.344" style="&st1;" />
	<path d="M363.561,1028.619c0,0.744,0.602,1.346,1.345,1.346" style="&st1;" />
	<path d="M364.906,1029.964c0.743,0,1.346-0.602,1.346-1.346" style="&st1;" />
	<path d="M362.215,1052.839c0-1.857-1.507-3.363-3.365-3.363" style="&st1;" />
	<path d="M358.85,1049.476c-1.856,0-3.363,1.506-3.363,3.363" style="&st1;" />
	<path d="M355.487,1052.839c0,0.941,0.338,1.744,1.01,2.404" style="&st1;" />
	<path d="M356.496,1055.244c1.328-1.301,1.35-3.432,0.049-4.758" style="&st1;" />
	<path d="M356.544,1050.486c-1.301-1.328-3.431-1.35-4.758-0.049" style="&st1;" />
	<path d="M351.787,1050.437c-1.328,1.301-1.35,3.43-0.049,4.758" style="&st1;" />
	<path d="M351.738,1055.195c0.018,0.018,0.031,0.031,0.049,0.049" style="&st1;" />
	<path d="M351.787,1055.244c1.327-1.301,1.349-3.432,0.049-4.758" style="&st1;" />
	<path d="M351.835,1050.486c-1.301-1.328-3.432-1.35-4.759-0.049" style="&st1;" />
	<path d="M347.077,1050.437c-0.673,0.658-1.01,1.461-1.01,2.402" style="&st1;" />
	<path d="M370.289,1020.546v40.367h-32.295v-40.367H370.289" style="&st0;" />
</g>
<g id="キャプション">
	<a ewd:innerGroupID="63" style="cursor:pointer;">
		<g>
			<path d="M238.633,104.001H450.16" style="&st1;" />
			<text transform="matrix(1 0 0 1 239.2432 101.1665)"><tspan style="&st6; &st4;" x="0" y="0">2</tspan></text>
		</g>
	</a>
	<a ewd:innerGroupID="62" style="cursor:pointer;">
		<g>
			<path d="M238.633,130.08H450.16" style="&st1;" />
			<text transform="matrix(1 0 0 1 239.2432 127.2451)"><tspan style="&st6; &st4;" x="0" y="0">2</tspan></text>
		</g>
	</a>
	<a ewd:innerGroupID="61" style="cursor:pointer;">
		<g>
			<path d="M60.076,104.001h153.061" style="&st1;" />
			<path d="M110.843,103.099l-0.244,0.424l-0.086,0.479l0.086,0.48l0.244,0.422l0.373,0.313l0.455,0.168h0.49      l0.457-0.168l0.371-0.313l0.244-0.422l0.084-0.48l-0.084-0.479l-0.244-0.424l-0.371-0.311l-0.457-0.168h-0.49l-0.455,0.168      L110.843,103.099l0.354,0.641v0.525l0.338,0.4l0.514,0.088l0.455-0.26l0.178-0.492l-0.178-0.492l-0.455-0.26l-0.514,0.09      l0.381,0.662" style="&st3;" />
			<path d="M111.916,130.08h101.222" style="&st1;" />
			<path d="M110.843,129.177l-0.244,0.424l-0.086,0.479l0.086,0.48l0.244,0.422l0.373,0.313l0.455,0.168h0.49      l0.457-0.168l0.371-0.313l0.244-0.422l0.084-0.48l-0.084-0.479l-0.244-0.424l-0.371-0.311l-0.457-0.168h-0.49l-0.455,0.168      L110.843,129.177l0.354,0.641v0.525l0.338,0.4l0.514,0.088l0.455-0.26l0.178-0.492l-0.178-0.492l-0.455-0.26l-0.514,0.09      l0.381,0.662" style="&st3;" />
			<path d="M111.916,104.001v52.157h101.222" style="&st1;" />
			<text transform="matrix(1 0 0 1 207.2251 101.1665)"><tspan style="&st6; &st4;" x="0" y="0">1</tspan></text>
			<text transform="matrix(1 0 0 1 207.2251 127.2451)"><tspan style="&st6; &st4;" x="0" y="0">1</tspan></text>
			<text transform="matrix(1 0 0 1 207.2251 153.3237)"><tspan style="&st6; &st4;" x="0" y="0">1</tspan></text>
		</g>
	</a>
	<a ewd:innerGroupID="60" style="cursor:pointer;">
		<g>
			<path d="M238.633,156.158H450.16" style="&st1;" />
			<text transform="matrix(1 0 0 1 239.2432 153.3237)"><tspan style="&st6; &st4;" x="0" y="0">2</tspan></text>
		</g>
	</a>
	<a ewd:innerGroupID="59" style="cursor:pointer;">
		<g>
			<path d="M238.633,182.237H450.16" style="&st1;" />
			<text transform="matrix(1 0 0 1 239.2432 179.4023)"><tspan style="&st6; &st4;" x="0" y="0">2</tspan></text>
		</g>
	</a>
	<a ewd:innerGroupID="58" style="cursor:pointer;">
		<g>
			<path d="M60.076,182.237h153.061" style="&st1;" />
			<path d="M110.843,181.334l-0.244,0.424l-0.086,0.479l0.086,0.48l0.244,0.422l0.373,0.313l0.455,0.168h0.49      l0.457-0.168l0.371-0.313l0.244-0.422l0.084-0.48l-0.084-0.479l-0.244-0.424l-0.371-0.311l-0.457-0.168h-0.49l-0.455,0.168      L110.843,181.334l0.354,0.641v0.525l0.338,0.4l0.514,0.088l0.455-0.26l0.178-0.492l-0.178-0.492l-0.455-0.26l-0.514,0.09      l0.381,0.662" style="&st3;" />
			<path d="M111.916,181.975v26.34h101.222" style="&st1;" />
			<text transform="matrix(1 0 0 1 207.2251 179.4023)"><tspan style="&st6; &st4;" x="0" y="0">1</tspan></text>
			<text transform="matrix(1 0 0 1 207.2251 205.481)"><tspan style="&st6; &st4;" x="0" y="0">1</tspan></text>
		</g>
	</a>
	<a ewd:innerGroupID="57" style="cursor:pointer;">
		<g>
			<path d="M238.633,208.315H450.16" style="&st1;" />
			<text transform="matrix(1 0 0 1 239.2432 205.481)"><tspan style="&st6; &st4;" x="0" y="0">2</tspan></text>
		</g>
	</a>
	<a ewd:innerGroupID="56" style="cursor:pointer;">
		<g>
			<path d="M60.076,77.922h153.061" style="&st1;" />
			<text transform="matrix(1 0 0 1 207.2251 75.0879)"><tspan style="&st6; &st4;" x="0" y="0">1</tspan></text>
		</g>
	</a>
	<a ewd:innerGroupID="55" style="cursor:pointer;">
		<g>
			<path d="M238.633,77.922H450.16" style="&st1;" />
			<text transform="matrix(1 0 0 1 239.2432 75.0879)"><tspan style="&st6; &st4;" x="0" y="0">2</tspan></text>
		</g>
	</a>
	<a ewd:innerGroupID="54" style="cursor:pointer;">
		<g>
			<path d="M238.633,234.394H450.16" style="&st1;" />
		</g>
	</a>
	<a ewd:innerGroupID="53" style="cursor:pointer;">
		<g>
			<path d="M60.076,234.394h153.061" style="&st1;" />
		</g>
	</a>
	<a ewd:innerGroupID="52" style="cursor:pointer;">
		<g>
			<path d="M238.633,260.473H450.16" style="&st1;" />
			<text transform="matrix(1 0 0 1 239.2432 257.6382)"><tspan style="&st6; &st4;" x="0" y="0">2</tspan></text>
		</g>
	</a>
	<a ewd:innerGroupID="51" style="cursor:pointer;">
		<g>
			<path d="M60.076,260.473h153.061" style="&st1;" />
			<path d="M110.843,259.57l-0.244,0.424l-0.086,0.479l0.086,0.48l0.244,0.422l0.373,0.313l0.455,0.168h0.49      l0.457-0.168l0.371-0.313l0.244-0.422l0.084-0.48l-0.084-0.479l-0.244-0.424l-0.371-0.311l-0.457-0.168h-0.49l-0.455,0.168      L110.843,259.57l0.354,0.641v0.525l0.338,0.4l0.514,0.088l0.455-0.26l0.178-0.492l-0.178-0.492l-0.455-0.26l-0.514,0.09      l0.381,0.662" style="&st3;" />
			<path d="M111.916,260.473v26.079h101.222" style="&st1;" />
			<text transform="matrix(1 0 0 1 207.2251 257.6382)"><tspan style="&st6; &st4;" x="0" y="0">1</tspan></text>
			<text transform="matrix(1 0 0 1 207.2251 283.7168)"><tspan style="&st6; &st4;" x="0" y="0">1</tspan></text>
		</g>
	</a>
	<a ewd:innerGroupID="50" style="cursor:pointer;">
		<g>
			<path d="M238.633,286.551H450.16" style="&st1;" />
			<text transform="matrix(1 0 0 1 239.2432 283.7168)"><tspan style="&st6; &st4;" x="0" y="0">2</tspan></text>
		</g>
	</a>
	<a ewd:innerGroupID="49" style="cursor:pointer;">
		<g>
			<path d="M238.633,312.63H450.16" style="&st1;" />
		</g>
	</a>
	<a ewd:innerGroupID="48" style="cursor:pointer;">
		<g>
			<path d="M60.076,312.63h153.061" style="&st1;" />
		</g>
	</a>
	<a ewd:innerGroupID="47" style="cursor:pointer;">
		<g>
			<path d="M238.633,338.708H450.16" style="&st1;" />
		</g>
	</a>
	<a ewd:innerGroupID="46" style="cursor:pointer;">
		<g>
			<path d="M60.076,338.708h153.061" style="&st1;" />
		</g>
	</a>
	<a ewd:innerGroupID="45" style="cursor:pointer;">
		<g>
			<path d="M60.076,364.788h153.061" style="&st1;" />
			<text transform="matrix(1 0 0 1 207.2251 361.9536)"><tspan style="&st6; &st4;" x="0" y="0">1</tspan></text>
		</g>
	</a>
	<a ewd:innerGroupID="44" style="cursor:pointer;">
		<g>
			<path d="M238.633,364.788H450.16" style="&st1;" />
			<text transform="matrix(1 0 0 1 239.2432 361.9536)"><tspan style="&st6; &st4;" x="0" y="0">2</tspan></text>
		</g>
	</a>
	<a ewd:innerGroupID="43" style="cursor:pointer;">
		<g>
			<path d="M238.633,390.867H450.16" style="&st1;" />
			<text transform="matrix(1 0 0 1 239.2432 388.0327)"><tspan style="&st6; &st4;" x="0" y="0">2</tspan></text>
		</g>
	</a>
	<a ewd:innerGroupID="42" style="cursor:pointer;">
		<g>
			<path d="M60.076,390.867h153.061" style="&st1;" />
			<path d="M110.843,389.964l-0.244,0.424l-0.086,0.479l0.086,0.48l0.244,0.422l0.373,0.313l0.455,0.168h0.49      l0.457-0.168l0.371-0.313l0.244-0.422l0.084-0.48l-0.084-0.479l-0.244-0.424l-0.371-0.311l-0.457-0.168h-0.49l-0.455,0.168      L110.843,389.964l0.354,0.641v0.525l0.338,0.4l0.514,0.088l0.455-0.26l0.178-0.492l-0.178-0.492l-0.455-0.26l-0.514,0.09      l0.381,0.662" style="&st3;" />
			<path d="M111.916,391.347v25.599h101.222" style="&st1;" />
			<text transform="matrix(1 0 0 1 207.2251 388.0327)"><tspan style="&st6; &st4;" x="0" y="0">1</tspan></text>
			<text transform="matrix(1 0 0 1 207.2251 414.1118)"><tspan style="&st6; &st4;" x="0" y="0">1</tspan></text>
		</g>
	</a>
	<a ewd:innerGroupID="41" style="cursor:pointer;">
		<g>
			<path d="M238.633,416.946H450.16" style="&st1;" />
			<text transform="matrix(1 0 0 1 239.2432 414.1118)"><tspan style="&st6; &st4;" x="0" y="0">2</tspan></text>
		</g>
	</a>
	<a ewd:innerGroupID="40" style="cursor:pointer;">
		<g>
			<path d="M238.633,443.025H450.16" style="&st1;" />
		</g>
	</a>
	<a ewd:innerGroupID="39" style="cursor:pointer;">
		<g>
			<path d="M60.076,443.025h153.061" style="&st1;" />
		</g>
	</a>
	<a ewd:innerGroupID="38" style="cursor:pointer;">
		<g>
			<path d="M60.076,469.104h153.061" style="&st1;" />
			<text transform="matrix(1 0 0 1 207.2251 466.27)"><tspan style="&st6; &st4;" x="0" y="0">1</tspan></text>
		</g>
	</a>
	<a ewd:innerGroupID="37" style="cursor:pointer;">
		<g>
			<path d="M238.633,469.104H450.16" style="&st1;" />
			<text transform="matrix(1 0 0 1 239.2432 466.27)"><tspan style="&st6; &st4;" x="0" y="0">2</tspan></text>
		</g>
	</a>
	<a ewd:innerGroupID="36" style="cursor:pointer;">
		<g>
			<path d="M60.076,495.183h153.061" style="&st1;" />
			<text transform="matrix(1 0 0 1 207.2251 492.3491)"><tspan style="&st6; &st4;" x="0" y="0">1</tspan></text>
		</g>
	</a>
	<a ewd:innerGroupID="35" style="cursor:pointer;">
		<g>
			<path d="M238.633,495.183H450.16" style="&st1;" />
			<text transform="matrix(1 0 0 1 239.2432 492.3491)"><tspan style="&st6; &st4;" x="0" y="0">2</tspan></text>
		</g>
	</a>
	<a ewd:innerGroupID="34" style="cursor:pointer;">
		<g>
			<path d="M238.633,521.262H450.16" style="&st1;" />
			<text transform="matrix(1 0 0 1 239.2432 518.4282)"><tspan style="&st6; &st4;" x="0" y="0">2</tspan></text>
		</g>
	</a>
	<a ewd:innerGroupID="33" style="cursor:pointer;">
		<g>
			<path d="M238.633,547.341H450.16" style="&st1;" />
			<text transform="matrix(1 0 0 1 239.2432 544.5073)"><tspan style="&st6; &st4;" x="0" y="0">2</tspan></text>
		</g>
	</a>
	<a ewd:innerGroupID="32" style="cursor:pointer;">
		<g>
			<path d="M60.076,521.262h153.061" style="&st1;" />
			<path d="M110.843,520.36l-0.244,0.424l-0.086,0.479l0.086,0.48l0.244,0.422l0.373,0.313l0.455,0.168h0.49      l0.457-0.168l0.371-0.313l0.244-0.422l0.084-0.48l-0.084-0.479l-0.244-0.424l-0.371-0.311l-0.457-0.168h-0.49l-0.455,0.168      L110.843,520.36l0.354,0.641v0.525l0.338,0.4l0.514,0.088l0.455-0.26l0.178-0.492l-0.178-0.492l-0.455-0.26l-0.514,0.09      l0.381,0.662" style="&st3;" />
			<path d="M111.916,547.341h101.222" style="&st1;" />
			<path d="M110.843,546.439l-0.244,0.424l-0.086,0.479l0.086,0.48l0.244,0.422l0.373,0.313l0.455,0.168h0.49      l0.457-0.168l0.371-0.313l0.244-0.422l0.084-0.48l-0.084-0.479l-0.244-0.424l-0.371-0.311l-0.457-0.168h-0.49l-0.455,0.168      L110.843,546.439l0.354,0.641v0.525l0.338,0.4l0.514,0.088l0.455-0.26l0.178-0.492l-0.178-0.492l-0.455-0.26l-0.514,0.09      l0.381,0.662" style="&st3;" />
			<path d="M111.916,521.262v52.158h101.222" style="&st1;" />
			<text transform="matrix(1 0 0 1 207.2251 518.4282)"><tspan style="&st6; &st4;" x="0" y="0">1</tspan></text>
			<text transform="matrix(1 0 0 1 207.2251 544.5073)"><tspan style="&st6; &st4;" x="0" y="0">1</tspan></text>
			<text transform="matrix(1 0 0 1 207.2251 570.5864)"><tspan style="&st6; &st4;" x="0" y="0">1</tspan></text>
		</g>
	</a>
	<a ewd:innerGroupID="31" style="cursor:pointer;">
		<g>
			<path d="M238.633,573.42H450.16" style="&st1;" />
			<text transform="matrix(1 0 0 1 239.2432 570.5864)"><tspan style="&st6; &st4;" x="0" y="0">2</tspan></text>
		</g>
	</a>
	<a ewd:innerGroupID="30" style="cursor:pointer;">
		<g>
			<path d="M60.076,599.5h153.061" style="&st1;" />
			<text transform="matrix(1 0 0 1 207.2251 596.6655)"><tspan style="&st6; &st4;" x="0" y="0">1</tspan></text>
		</g>
	</a>
	<a ewd:innerGroupID="29" style="cursor:pointer;">
		<g>
			<path d="M238.633,599.5H450.16" style="&st1;" />
			<text transform="matrix(1 0 0 1 239.2432 596.6655)"><tspan style="&st6; &st4;" x="0" y="0">2</tspan></text>
		</g>
	</a>
	<a ewd:innerGroupID="28" style="cursor:pointer;">
		<g>
			<path d="M238.633,625.579H450.16" style="&st1;" />
		</g>
	</a>
	<a ewd:innerGroupID="27" style="cursor:pointer;">
		<g>
			<path d="M60.076,625.579h153.061" style="&st1;" />
		</g>
	</a>
	<a ewd:innerGroupID="26" style="cursor:pointer;">
		<g>
			<path d="M60.076,687.699h277.917" style="&st1;" />
			<text transform="matrix(1 0 0 1 331.2769 685.4312)"><tspan style="&st6; &st4;" x="0" y="0">5</tspan></text>
		</g>
	</a>
	<a ewd:innerGroupID="25" style="cursor:pointer;">
		<g>
			<path d="M60.076,711.92h277.917" style="&st1;" />
			<text transform="matrix(1 0 0 1 331.2769 709.6528)"><tspan style="&st6; &st4;" x="0" y="0">1</tspan></text>
		</g>
	</a>
	<a ewd:innerGroupID="24" style="cursor:pointer;">
		<g>
			<path d="M370.289,687.699h79.871" style="&st1;" />
			<text transform="matrix(1 0 0 1 372.5562 685.4312)"><tspan style="&st6; &st4;" x="0" y="0">3</tspan></text>
		</g>
	</a>
	<a ewd:innerGroupID="23" style="cursor:pointer;">
		<g>
			<path d="M370.289,711.92h79.871" style="&st1;" />
			<text transform="matrix(1 0 0 1 372.5562 709.6528)"><tspan style="&st6; &st4;" x="0" y="0">2</tspan></text>
		</g>
	</a>
	<a ewd:innerGroupID="22" style="cursor:pointer;">
		<g>
			<path d="M60.076,752.896h277.917" style="&st1;" />
			<text transform="matrix(1 0 0 1 331.2769 750.6284)"><tspan style="&st6; &st4;" x="0" y="0">5</tspan></text>
		</g>
	</a>
	<a ewd:innerGroupID="21" style="cursor:pointer;">
		<g>
			<path d="M60.076,777.117h277.917" style="&st1;" />
			<text transform="matrix(1 0 0 1 331.2769 774.8491)"><tspan style="&st6; &st4;" x="0" y="0">1</tspan></text>
		</g>
	</a>
	<a ewd:innerGroupID="20" style="cursor:pointer;">
		<g>
			<path d="M370.289,752.896h79.871" style="&st1;" />
			<text transform="matrix(1 0 0 1 372.5562 750.6284)"><tspan style="&st6; &st4;" x="0" y="0">3</tspan></text>
		</g>
	</a>
	<a ewd:innerGroupID="19" style="cursor:pointer;">
		<g>
			<path d="M370.289,777.117h79.871" style="&st1;" />
			<text transform="matrix(1 0 0 1 372.5562 774.8491)"><tspan style="&st6; &st4;" x="0" y="0">2</tspan></text>
		</g>
	</a>
	<a ewd:innerGroupID="18" style="cursor:pointer;">
		<g>
			<path d="M60.076,818.092h277.917" style="&st1;" />
			<text transform="matrix(1 0 0 1 331.2769 815.8247)"><tspan style="&st6; &st4;" x="0" y="0">5</tspan></text>
		</g>
	</a>
	<a ewd:innerGroupID="17" style="cursor:pointer;">
		<g>
			<path d="M60.076,842.314h277.917" style="&st1;" />
			<text transform="matrix(1 0 0 1 331.2769 840.0464)"><tspan style="&st6; &st4;" x="0" y="0">1</tspan></text>
		</g>
	</a>
	<a ewd:innerGroupID="16" style="cursor:pointer;">
		<g>
			<path d="M370.289,818.092h79.871" style="&st1;" />
			<text transform="matrix(1 0 0 1 372.5562 815.8247)"><tspan style="&st6; &st4;" x="0" y="0">3</tspan></text>
		</g>
	</a>
	<a ewd:innerGroupID="15" style="cursor:pointer;">
		<g>
			<path d="M370.289,842.314h79.871" style="&st1;" />
			<text transform="matrix(1 0 0 1 372.5562 840.0464)"><tspan style="&st6; &st4;" x="0" y="0">2</tspan></text>
		</g>
	</a>
	<a ewd:innerGroupID="14" style="cursor:pointer;">
		<g>
			<path d="M60.076,883.289h277.917" style="&st1;" />
			<text transform="matrix(1 0 0 1 331.2769 881.021)"><tspan style="&st6; &st4;" x="0" y="0">5</tspan></text>
		</g>
	</a>
	<a ewd:innerGroupID="13" style="cursor:pointer;">
		<g>
			<path d="M60.076,907.511h277.917" style="&st1;" />
			<text transform="matrix(1 0 0 1 331.2769 905.2437)"><tspan style="&st6; &st4;" x="0" y="0">1</tspan></text>
		</g>
	</a>
	<a ewd:innerGroupID="12" style="cursor:pointer;">
		<g>
			<path d="M370.289,883.289h79.871" style="&st1;" />
			<text transform="matrix(1 0 0 1 372.5562 881.021)"><tspan style="&st6; &st4;" x="0" y="0">3</tspan></text>
		</g>
	</a>
	<a ewd:innerGroupID="11" style="cursor:pointer;">
		<g>
			<path d="M370.289,907.511h79.871" style="&st1;" />
			<text transform="matrix(1 0 0 1 372.5562 905.2437)"><tspan style="&st6; &st4;" x="0" y="0">2</tspan></text>
		</g>
	</a>
	<a ewd:innerGroupID="10" style="cursor:pointer;">
		<g>
			<path d="M60.076,955.954h277.917" style="&st1;" />
			<text transform="matrix(1 0 0 1 331.2769 953.686)"><tspan style="&st6; &st4;" x="0" y="0">5</tspan></text>
		</g>
	</a>
	<a ewd:innerGroupID="9" style="cursor:pointer;">
		<g>
			<path d="M354.141,947.881v-16.149h96.019" style="&st1;" />
			<text transform="matrix(1 0 0 1 347.4243 945.6138)"><tspan style="&st6; &st4;" x="0" y="0">4</tspan></text>
		</g>
	</a>
	<a ewd:innerGroupID="8" style="cursor:pointer;">
		<g>
			<path d="M60.076,980.175h277.917" style="&st1;" />
			<text transform="matrix(1 0 0 1 331.2769 977.9077)"><tspan style="&st6; &st4;" x="0" y="0">2</tspan></text>
		</g>
	</a>
	<a ewd:innerGroupID="7" style="cursor:pointer;">
		<g>
			<path d="M370.289,955.954h79.871" style="&st1;" />
			<text transform="matrix(1 0 0 1 373.271 953.6528)"><tspan style="&st6; &st4;" x="0" y="0">3</tspan></text>
		</g>
	</a>
	<a ewd:innerGroupID="6" style="cursor:pointer;">
		<g>
			<path d="M370.289,980.175h79.871" style="&st1;" />
			<text transform="matrix(1 0 0 1 373.271 977.8745)"><tspan style="&st6; &st4;" x="0" y="0">1</tspan></text>
		</g>
	</a>
	<a ewd:innerGroupID="5" style="cursor:pointer;">
		<g>
			<path d="M60.076,1028.619h277.917" style="&st1;" />
			<text transform="matrix(1 0 0 1 331.2769 1026.3511)"><tspan style="&st6; &st4;" x="0" y="0">5</tspan></text>
		</g>
	</a>
	<a ewd:innerGroupID="4" style="cursor:pointer;">
		<g>
			<path d="M354.141,1020.546v-16.149h96.019" style="&st1;" />
			<text transform="matrix(1 0 0 1 347.4243 1018.2788)"><tspan style="&st6; &st4;" x="0" y="0">4</tspan></text>
		</g>
	</a>
	<a ewd:innerGroupID="3" style="cursor:pointer;">
		<g>
			<path d="M60.076,1052.839h277.917" style="&st1;" />
			<text transform="matrix(1 0 0 1 331.2769 1050.5718)"><tspan style="&st6; &st4;" x="0" y="0">2</tspan></text>
		</g>
	</a>
	<a ewd:innerGroupID="2" style="cursor:pointer;">
		<g>
			<path d="M370.289,1028.619h79.871" style="&st1;" />
			<text transform="matrix(1 0 0 1 373.271 1026.3179)"><tspan style="&st6; &st4;" x="0" y="0">3</tspan></text>
		</g>
	</a>
	<a ewd:innerGroupID="1" style="cursor:pointer;">
		<g>
			<path d="M370.289,1052.839h79.871" style="&st1;" />
			<text transform="matrix(1 0 0 1 373.271 1050.5386)"><tspan style="&st6; &st4;" x="0" y="0">1</tspan></text>
		</g>
	</a>
	<g>
		<text transform="matrix(1 0 0 1 44.5005 80.7153)"><tspan style="&st6; &st4;" x="0" y="0">2</tspan></text>
		<path d="M49.016,83.312c2.977,0,5.391-2.413,5.391-5.39c0-2.977-2.414-5.391-5.391-5.391h-4.582     c-2.977,0-5.39,2.414-5.39,5.391c0,2.977,2.413,5.39,5.39,5.39H49.016z" style="&st1;" />
	</g>
	<g>
		<text transform="matrix(1 0 0 1 44.5005 106.7939)"><tspan style="&st6; &st4;" x="0" y="0">2</tspan></text>
		<path d="M49.016,109.391c2.977,0,5.391-2.413,5.391-5.39c0-2.977-2.414-5.391-5.391-5.391h-4.582     c-2.977,0-5.39,2.414-5.39,5.391c0,2.977,2.413,5.39,5.39,5.39H49.016z" style="&st1;" />
	</g>
	<g>
		<text transform="matrix(1 0 0 1 469.7886 80.7153)"><tspan style="&st6; &st4;" x="0" y="0">2</tspan></text>
		<path d="M474.304,83.312c2.977,0,5.391-2.413,5.391-5.39c0-2.977-2.414-5.391-5.391-5.391h-4.582     c-2.977,0-5.39,2.414-5.39,5.391c0,2.977,2.413,5.39,5.39,5.39H474.304z" style="&st1;" />
	</g>
	<g>
		<text transform="matrix(1 0 0 1 469.7886 106.7939)"><tspan style="&st6; &st4;" x="0" y="0">2</tspan></text>
		<path d="M474.304,109.391c2.977,0,5.391-2.413,5.391-5.39c0-2.977-2.414-5.391-5.391-5.391h-4.582     c-2.977,0-5.39,2.414-5.39,5.391c0,2.977,2.413,5.39,5.39,5.39H474.304z" style="&st1;" />
	</g>
	<g>
		<text transform="matrix(1 0 0 1 469.7886 132.8726)"><tspan style="&st6; &st4;" x="0" y="0">2</tspan></text>
		<path d="M474.304,135.469c2.977,0,5.391-2.413,5.391-5.39c0-2.977-2.414-5.391-5.391-5.391h-4.582     c-2.977,0-5.39,2.414-5.39,5.391c0,2.977,2.413,5.39,5.39,5.39H474.304z" style="&st1;" />
	</g>
	<g>
		<text transform="matrix(1 0 0 1 469.7886 158.9512)"><tspan style="&st6; &st4;" x="0" y="0">2</tspan></text>
		<path d="M474.304,161.548c2.977,0,5.391-2.413,5.391-5.39c0-2.977-2.414-5.391-5.391-5.391h-4.582     c-2.977,0-5.39,2.414-5.39,5.391c0,2.977,2.413,5.39,5.39,5.39H474.304z" style="&st1;" />
	</g>
	<g>
		<text transform="matrix(1 0 0 1 44.5005 185.0298)"><tspan style="&st6; &st4;" x="0" y="0">2</tspan></text>
		<path d="M49.016,187.626c2.977,0,5.391-2.413,5.391-5.39c0-2.977-2.414-5.391-5.391-5.391h-4.582     c-2.977,0-5.39,2.414-5.39,5.391c0,2.977,2.413,5.39,5.39,5.39H49.016z" style="&st1;" />
	</g>
	<g>
		<text transform="matrix(1 0 0 1 469.7886 185.0298)"><tspan style="&st6; &st4;" x="0" y="0">2</tspan></text>
		<path d="M474.304,187.626c2.977,0,5.391-2.413,5.391-5.39c0-2.977-2.414-5.391-5.391-5.391h-4.582     c-2.977,0-5.39,2.414-5.39,5.391c0,2.977,2.413,5.39,5.39,5.39H474.304z" style="&st1;" />
	</g>
	<g>
		<text transform="matrix(1 0 0 1 469.7886 211.1084)"><tspan style="&st6; &st4;" x="0" y="0">2</tspan></text>
		<path d="M474.304,213.705c2.977,0,5.391-2.413,5.391-5.39c0-2.977-2.414-5.391-5.391-5.391h-4.582     c-2.977,0-5.39,2.414-5.39,5.391c0,2.977,2.413,5.39,5.39,5.39H474.304z" style="&st1;" />
	</g>
	<g>
		<text transform="matrix(1 0 0 1 44.5005 237.187)"><tspan style="&st6; &st4;" x="0" y="0">2</tspan></text>
		<path d="M49.016,239.784c2.977,0,5.391-2.413,5.391-5.39c0-2.977-2.414-5.391-5.391-5.391h-4.582     c-2.977,0-5.39,2.414-5.39,5.391c0,2.977,2.413,5.39,5.39,5.39H49.016z" style="&st1;" />
	</g>
	<g>
		<text transform="matrix(1 0 0 1 469.7886 237.187)"><tspan style="&st6; &st4;" x="0" y="0">2</tspan></text>
		<path d="M474.304,239.784c2.977,0,5.391-2.413,5.391-5.39c0-2.977-2.414-5.391-5.391-5.391h-4.582     c-2.977,0-5.39,2.414-5.39,5.391c0,2.977,2.413,5.39,5.39,5.39H474.304z" style="&st1;" />
	</g>
	<g>
		<text transform="matrix(1 0 0 1 44.5005 263.2656)"><tspan style="&st6; &st4;" x="0" y="0">2</tspan></text>
		<path d="M49.016,265.862c2.977,0,5.391-2.413,5.391-5.39c0-2.977-2.414-5.391-5.391-5.391h-4.582     c-2.977,0-5.39,2.414-5.39,5.391c0,2.977,2.413,5.39,5.39,5.39H49.016z" style="&st1;" />
	</g>
	<g>
		<text transform="matrix(1 0 0 1 469.7886 263.2656)"><tspan style="&st6; &st4;" x="0" y="0">2</tspan></text>
		<path d="M474.304,265.862c2.977,0,5.391-2.413,5.391-5.39c0-2.977-2.414-5.391-5.391-5.391h-4.582     c-2.977,0-5.39,2.414-5.39,5.391c0,2.977,2.413,5.39,5.39,5.39H474.304z" style="&st1;" />
	</g>
	<g>
		<text transform="matrix(1 0 0 1 469.7886 289.3442)"><tspan style="&st6; &st4;" x="0" y="0">2</tspan></text>
		<path d="M474.304,291.941c2.977,0,5.391-2.413,5.391-5.39c0-2.977-2.414-5.391-5.391-5.391h-4.582     c-2.977,0-5.39,2.414-5.39,5.391c0,2.977,2.413,5.39,5.39,5.39H474.304z" style="&st1;" />
	</g>
	<g>
		<text transform="matrix(1 0 0 1 44.5005 315.4229)"><tspan style="&st6; &st4;" x="0" y="0">2</tspan></text>
		<path d="M49.016,318.02c2.977,0,5.391-2.413,5.391-5.39c0-2.977-2.414-5.391-5.391-5.391h-4.582     c-2.977,0-5.39,2.414-5.39,5.391c0,2.977,2.413,5.39,5.39,5.39H49.016z" style="&st1;" />
	</g>
	<g>
		<text transform="matrix(1 0 0 1 469.7886 315.4229)"><tspan style="&st6; &st4;" x="0" y="0">2</tspan></text>
		<path d="M474.304,318.02c2.977,0,5.391-2.413,5.391-5.39c0-2.977-2.414-5.391-5.391-5.391h-4.582     c-2.977,0-5.39,2.414-5.39,5.391c0,2.977,2.413,5.39,5.39,5.39H474.304z" style="&st1;" />
	</g>
	<g>
		<text transform="matrix(1 0 0 1 44.5005 341.5015)"><tspan style="&st6; &st4;" x="0" y="0">2</tspan></text>
		<path d="M49.016,344.098c2.977,0,5.391-2.413,5.391-5.39c0-2.977-2.414-5.391-5.391-5.391h-4.582     c-2.977,0-5.39,2.414-5.39,5.391c0,2.977,2.413,5.39,5.39,5.39H49.016z" style="&st1;" />
	</g>
	<g>
		<text transform="matrix(1 0 0 1 469.7886 341.5015)"><tspan style="&st6; &st4;" x="0" y="0">2</tspan></text>
		<path d="M474.304,344.098c2.977,0,5.391-2.413,5.391-5.39c0-2.977-2.414-5.391-5.391-5.391h-4.582     c-2.977,0-5.39,2.414-5.39,5.391c0,2.977,2.413,5.39,5.39,5.39H474.304z" style="&st1;" />
	</g>
	<g>
		<text transform="matrix(1 0 0 1 44.5005 367.5806)"><tspan style="&st6; &st4;" x="0" y="0">2</tspan></text>
		<path d="M49.016,370.177c2.977,0,5.391-2.413,5.391-5.39c0-2.977-2.414-5.391-5.391-5.391h-4.582     c-2.977,0-5.39,2.414-5.39,5.391c0,2.977,2.413,5.39,5.39,5.39H49.016z" style="&st1;" />
	</g>
	<g>
		<text transform="matrix(1 0 0 1 469.7886 367.5806)"><tspan style="&st6; &st4;" x="0" y="0">2</tspan></text>
		<path d="M474.304,370.177c2.977,0,5.391-2.413,5.391-5.39c0-2.977-2.414-5.391-5.391-5.391h-4.582     c-2.977,0-5.39,2.414-5.39,5.391c0,2.977,2.413,5.39,5.39,5.39H474.304z" style="&st1;" />
	</g>
	<g>
		<text transform="matrix(1 0 0 1 44.5005 393.6597)"><tspan style="&st6; &st4;" x="0" y="0">2</tspan></text>
		<path d="M49.016,396.256c2.977,0,5.391-2.413,5.391-5.39c0-2.977-2.414-5.391-5.391-5.391h-4.582     c-2.977,0-5.39,2.414-5.39,5.391c0,2.977,2.413,5.39,5.39,5.39H49.016z" style="&st1;" />
	</g>
	<g>
		<text transform="matrix(1 0 0 1 469.7886 393.6597)"><tspan style="&st6; &st4;" x="0" y="0">2</tspan></text>
		<path d="M474.304,396.256c2.977,0,5.391-2.413,5.391-5.39c0-2.977-2.414-5.391-5.391-5.391h-4.582     c-2.977,0-5.39,2.414-5.39,5.391c0,2.977,2.413,5.39,5.39,5.39H474.304z" style="&st1;" />
	</g>
	<g>
		<text transform="matrix(1 0 0 1 469.7886 419.7388)"><tspan style="&st6; &st4;" x="0" y="0">2</tspan></text>
		<path d="M474.304,422.335c2.977,0,5.391-2.413,5.391-5.39c0-2.977-2.414-5.391-5.391-5.391h-4.582     c-2.977,0-5.39,2.414-5.39,5.391c0,2.977,2.413,5.39,5.39,5.39H474.304z" style="&st1;" />
	</g>
	<g>
		<text transform="matrix(1 0 0 1 44.5005 445.8179)"><tspan style="&st6; &st4;" x="0" y="0">2</tspan></text>
		<path d="M49.016,448.415c2.977,0,5.391-2.413,5.391-5.39c0-2.977-2.414-5.391-5.391-5.391h-4.582     c-2.977,0-5.39,2.414-5.39,5.391c0,2.977,2.413,5.39,5.39,5.39H49.016z" style="&st1;" />
	</g>
	<g>
		<text transform="matrix(1 0 0 1 469.7886 445.8179)"><tspan style="&st6; &st4;" x="0" y="0">2</tspan></text>
		<path d="M474.304,448.415c2.977,0,5.391-2.413,5.391-5.39c0-2.977-2.414-5.391-5.391-5.391h-4.582     c-2.977,0-5.39,2.414-5.39,5.391c0,2.977,2.413,5.39,5.39,5.39H474.304z" style="&st1;" />
	</g>
	<g>
		<text transform="matrix(1 0 0 1 44.5005 471.897)"><tspan style="&st6; &st4;" x="0" y="0">2</tspan></text>
		<path d="M49.016,474.494c2.977,0,5.391-2.413,5.391-5.39c0-2.977-2.414-5.391-5.391-5.391h-4.582     c-2.977,0-5.39,2.414-5.39,5.391c0,2.977,2.413,5.39,5.39,5.39H49.016z" style="&st1;" />
	</g>
	<g>
		<text transform="matrix(1 0 0 1 469.7886 471.897)"><tspan style="&st6; &st4;" x="0" y="0">2</tspan></text>
		<path d="M474.304,474.494c2.977,0,5.391-2.413,5.391-5.39c0-2.977-2.414-5.391-5.391-5.391h-4.582     c-2.977,0-5.39,2.414-5.39,5.391c0,2.977,2.413,5.39,5.39,5.39H474.304z" style="&st1;" />
	</g>
	<g>
		<text transform="matrix(1 0 0 1 44.5005 497.9761)"><tspan style="&st6; &st4;" x="0" y="0">2</tspan></text>
		<path d="M49.016,500.573c2.977,0,5.391-2.413,5.391-5.39c0-2.977-2.414-5.391-5.391-5.391h-4.582     c-2.977,0-5.39,2.414-5.39,5.391c0,2.977,2.413,5.39,5.39,5.39H49.016z" style="&st1;" />
	</g>
	<g>
		<text transform="matrix(1 0 0 1 469.7886 497.9761)"><tspan style="&st6; &st4;" x="0" y="0">2</tspan></text>
		<path d="M474.304,500.573c2.977,0,5.391-2.413,5.391-5.39c0-2.977-2.414-5.391-5.391-5.391h-4.582     c-2.977,0-5.39,2.414-5.39,5.391c0,2.977,2.413,5.39,5.39,5.39H474.304z" style="&st1;" />
	</g>
	<g>
		<text transform="matrix(1 0 0 1 44.5005 524.0552)"><tspan style="&st6; &st4;" x="0" y="0">2</tspan></text>
		<path d="M49.016,526.652c2.977,0,5.391-2.413,5.391-5.39c0-2.977-2.414-5.391-5.391-5.391h-4.582     c-2.977,0-5.39,2.414-5.39,5.391c0,2.977,2.413,5.39,5.39,5.39H49.016z" style="&st1;" />
	</g>
	<g>
		<text transform="matrix(1 0 0 1 469.7886 524.0552)"><tspan style="&st6; &st4;" x="0" y="0">2</tspan></text>
		<path d="M474.304,526.652c2.977,0,5.391-2.413,5.391-5.39c0-2.977-2.414-5.391-5.391-5.391h-4.582     c-2.977,0-5.39,2.414-5.39,5.391c0,2.977,2.413,5.39,5.39,5.39H474.304z" style="&st1;" />
	</g>
	<g>
		<text transform="matrix(1 0 0 1 469.7886 550.1343)"><tspan style="&st6; &st4;" x="0" y="0">2</tspan></text>
		<path d="M474.304,552.731c2.977,0,5.391-2.413,5.391-5.39c0-2.977-2.414-5.391-5.391-5.391h-4.582     c-2.977,0-5.39,2.414-5.39,5.391c0,2.977,2.413,5.39,5.39,5.39H474.304z" style="&st1;" />
	</g>
	<g>
		<text transform="matrix(1 0 0 1 469.7886 576.2134)"><tspan style="&st6; &st4;" x="0" y="0">2</tspan></text>
		<path d="M474.304,578.81c2.977,0,5.391-2.413,5.391-5.39c0-2.977-2.414-5.391-5.391-5.391h-4.582     c-2.977,0-5.39,2.414-5.39,5.391c0,2.977,2.413,5.39,5.39,5.39H474.304z" style="&st1;" />
	</g>
	<g>
		<text transform="matrix(1 0 0 1 44.5005 602.2925)"><tspan style="&st6; &st4;" x="0" y="0">2</tspan></text>
		<path d="M49.016,604.889c2.977,0,5.391-2.413,5.391-5.39c0-2.977-2.414-5.391-5.391-5.391h-4.582     c-2.977,0-5.39,2.414-5.39,5.391c0,2.977,2.413,5.39,5.39,5.39H49.016z" style="&st1;" />
	</g>
	<g>
		<text transform="matrix(1 0 0 1 469.7886 602.2925)"><tspan style="&st6; &st4;" x="0" y="0">2</tspan></text>
		<path d="M474.304,604.889c2.977,0,5.391-2.413,5.391-5.39c0-2.977-2.414-5.391-5.391-5.391h-4.582     c-2.977,0-5.39,2.414-5.39,5.391c0,2.977,2.413,5.39,5.39,5.39H474.304z" style="&st1;" />
	</g>
	<g>
		<text transform="matrix(1 0 0 1 44.5005 628.3716)"><tspan style="&st6; &st4;" x="0" y="0">2</tspan></text>
		<path d="M49.016,630.968c2.977,0,5.391-2.413,5.391-5.39c0-2.977-2.414-5.391-5.391-5.391h-4.582     c-2.977,0-5.39,2.414-5.39,5.391c0,2.977,2.413,5.39,5.39,5.39H49.016z" style="&st1;" />
	</g>
	<g>
		<text transform="matrix(1 0 0 1 469.7886 628.3716)"><tspan style="&st6; &st4;" x="0" y="0">2</tspan></text>
		<path d="M474.304,630.968c2.977,0,5.391-2.413,5.391-5.39c0-2.977-2.414-5.391-5.391-5.391h-4.582     c-2.977,0-5.39,2.414-5.39,5.391c0,2.977,2.413,5.39,5.39,5.39H474.304z" style="&st1;" />
	</g>
	<text transform="matrix(1 0 0 1 196.3247 89.2607)"><tspan style="&st6; &st4;" x="0" y="0">7.5A (HTR SUB)</tspan></text>
	<text transform="matrix(1 0 0 1 198.0942 115.3394)"><tspan style="&st6; &st4;" x="0" y="0">7.5A IG1/BACK</tspan></text>
	<text transform="matrix(1 0 0 1 200.5415 141.418)"><tspan style="&st6; &st4;" x="0" y="0">7.5A ECU IG1</tspan></text>
	<text transform="matrix(1 0 0 1 206.9927 167.4966)"><tspan style="&st6; &st4;" x="0" y="0">20A (DEF)</tspan></text>
	<text transform="matrix(1 0 0 1 208.7681 193.5752)"><tspan style="&st6; &st4;" x="0" y="0">15A (D/L)</tspan></text>
	<text transform="matrix(1 0 0 1 201.2114 219.6538)"><tspan style="&st6; &st4;" x="0" y="0">10A HAZARD</tspan></text>
	<text transform="matrix(1 0 0 1 207.8813 271.811)"><tspan style="&st6; &st4;" x="0" y="0">15A (CIG)</tspan></text>
	<text transform="matrix(1 0 0 1 209.2114 297.8896)"><tspan style="&st6; &st4;" x="0" y="0">10A ACC</tspan></text>
	<text transform="matrix(1 0 0 1 211.4341 376.1265)"><tspan style="&st6; &st4;" x="0" y="0">7.5A ST</tspan></text>
	<text transform="matrix(1 0 0 1 191.8833 402.2056)"><tspan style="&st6; &st4;" x="0" y="0">7.5A (FR FOG RH)</tspan></text>
	<text transform="matrix(1 0 0 1 192.5474 428.2847)"><tspan style="&st6; &st4;" x="0" y="0">7.5A (FR FOG LH)</tspan></text>
	<text transform="matrix(1 0 0 1 210.7661 480.4429)"><tspan style="&st6; &st4;" x="0" y="0">10A E/G</tspan></text>
	<text transform="matrix(1 0 0 1 201.6528 506.522)"><tspan style="&st6; &st4;" x="0" y="0">10A ECU IG2</tspan></text>
	<text transform="matrix(1 0 0 1 197.8774 532.6011)"><tspan style="&st6; &st4;" x="0" y="0">10A (A/C NO.2)</tspan></text>
	<text transform="matrix(1 0 0 1 203.6587 558.6802)"><tspan style="&st6; &st4;" x="0" y="0">20A FR WIP</tspan></text>
	<text transform="matrix(1 0 0 1 200.5493 584.7593)"><tspan style="&st6; &st4;" x="0" y="0">15A (RR WIP)</tspan></text>
	<text transform="matrix(1 0 0 1 202.5454 610.8384)"><tspan style="&st6; &st4;" x="0" y="0">30A POWER</tspan></text>
	<text ewd:textID="3" transform="matrix(1.00 0.00 0.00 1.00 336.15 676.22)"><tspan style="&st6; &st4;" x="0" y="0">Relé FOG</tspan></text>
	<g>
		<text transform="matrix(1 0 0 1 469.7886 690.4917)"><tspan style="&st6; &st4;" x="0" y="0">2</tspan></text>
		<path d="M474.304,693.088c2.977,0,5.391-2.413,5.391-5.39c0-2.978-2.414-5.391-5.391-5.391h-4.582     c-2.977,0-5.39,2.413-5.39,5.391c0,2.977,2.413,5.39,5.39,5.39H474.304z" style="&st1;" />
	</g>
	<g>
		<text transform="matrix(1 0 0 1 44.5005 690.4917)"><tspan style="&st6; &st4;" x="0" y="0">2</tspan></text>
		<path d="M49.016,693.088c2.977,0,5.391-2.413,5.391-5.39c0-2.977-2.414-5.391-5.391-5.391h-4.582     c-2.977,0-5.39,2.414-5.39,5.391c0,2.977,2.413,5.39,5.39,5.39H49.016z" style="&st1;" />
	</g>
	<g>
		<text transform="matrix(1 0 0 1 469.7886 714.7134)"><tspan style="&st6; &st4;" x="0" y="0">2</tspan></text>
		<path d="M474.304,717.31c2.977,0,5.391-2.413,5.391-5.39c0-2.978-2.414-5.391-5.391-5.391h-4.582     c-2.977,0-5.39,2.413-5.39,5.391c0,2.977,2.413,5.39,5.39,5.39H474.304z" style="&st1;" />
	</g>
	<g>
		<text transform="matrix(1 0 0 1 44.5005 714.7134)"><tspan style="&st6; &st4;" x="0" y="0">2</tspan></text>
		<path d="M49.016,717.31c2.977,0,5.391-2.413,5.391-5.39c0-2.977-2.414-5.391-5.391-5.391h-4.582     c-2.977,0-5.39,2.414-5.39,5.391c0,2.977,2.413,5.39,5.39,5.39H49.016z" style="&st1;" />
	</g>
	<text ewd:textID="6" transform="matrix(1.00 0.00 0.00 1.00 339.70 741.42)"><tspan style="&st6; &st4;" x="0" y="0">Relé ST</tspan></text>
	<g>
		<text transform="matrix(1 0 0 1 469.7886 755.689)"><tspan style="&st6; &st4;" x="0" y="0">2</tspan></text>
		<path d="M474.304,758.285c2.977,0,5.391-2.412,5.391-5.389c0-2.979-2.414-5.391-5.391-5.391h-4.582     c-2.977,0-5.39,2.412-5.39,5.391c0,2.977,2.413,5.389,5.39,5.389H474.304z" style="&st1;" />
	</g>
	<g>
		<text transform="matrix(1 0 0 1 44.5005 755.689)"><tspan style="&st6; &st4;" x="0" y="0">2</tspan></text>
		<path d="M49.016,758.285c2.977,0,5.391-2.412,5.391-5.389c0-2.977-2.414-5.391-5.391-5.391h-4.582     c-2.977,0-5.39,2.414-5.39,5.391c0,2.977,2.413,5.389,5.39,5.389H49.016z" style="&st1;" />
	</g>
	<text ewd:textID="2" transform="matrix(1.00 0.00 0.00 1.00 339.09 806.62)"><tspan style="&st6; &st4;" x="0" y="0">Relé F/P</tspan></text>
	<g>
		<text transform="matrix(1 0 0 1 469.7886 820.8853)"><tspan style="&st6; &st4;" x="0" y="0">2</tspan></text>
		<path d="M474.304,823.482c2.977,0,5.391-2.413,5.391-5.39c0-2.978-2.414-5.391-5.391-5.391h-4.582     c-2.977,0-5.39,2.413-5.39,5.391c0,2.977,2.413,5.39,5.39,5.39H474.304z" style="&st1;" />
	</g>
	<g>
		<text transform="matrix(1 0 0 1 44.5005 820.8853)"><tspan style="&st6; &st4;" x="0" y="0">2</tspan></text>
		<path d="M49.016,823.482c2.977,0,5.391-2.413,5.391-5.39c0-2.977-2.414-5.391-5.391-5.391h-4.582     c-2.977,0-5.39,2.414-5.39,5.391c0,2.977,2.413,5.39,5.39,5.39H49.016z" style="&st1;" />
	</g>
	<text ewd:textID="1" transform="matrix(1.00 0.00 0.00 1.00 327.98 871.81)"><tspan style="&st6; &st4;" x="0" y="0">Relé EFI MAIN</tspan></text>
	<g>
		<text transform="matrix(1 0 0 1 469.7886 886.0815)"><tspan style="&st6; &st4;" x="0" y="0">2</tspan></text>
		<path d="M474.304,888.679c2.977,0,5.391-2.414,5.391-5.391c0-2.977-2.414-5.391-5.391-5.391h-4.582     c-2.977,0-5.39,2.414-5.39,5.391c0,2.977,2.413,5.391,5.39,5.391H474.304z" style="&st1;" />
	</g>
	<g>
		<text transform="matrix(1 0 0 1 44.5005 886.0815)"><tspan style="&st6; &st4;" x="0" y="0">2</tspan></text>
		<path d="M49.016,888.679c2.977,0,5.391-2.414,5.391-5.391c0-2.977-2.414-5.391-5.391-5.391h-4.582     c-2.977,0-5.39,2.414-5.39,5.391c0,2.977,2.413,5.391,5.39,5.391H49.016z" style="&st1;" />
	</g>
	<g>
		<text transform="matrix(1 0 0 1 469.7886 779.9097)"><tspan style="&st6; &st4;" x="0" y="0">2</tspan></text>
		<path d="M474.304,782.507c2.977,0,5.391-2.414,5.391-5.391c0-2.977-2.414-5.391-5.391-5.391h-4.582     c-2.977,0-5.39,2.414-5.39,5.391c0,2.977,2.413,5.391,5.39,5.391H474.304z" style="&st1;" />
	</g>
	<g>
		<text transform="matrix(1 0 0 1 44.5005 779.9097)"><tspan style="&st6; &st4;" x="0" y="0">2</tspan></text>
		<path d="M49.016,782.507c2.977,0,5.391-2.414,5.391-5.391c0-2.977-2.414-5.391-5.391-5.391h-4.582     c-2.977,0-5.39,2.414-5.39,5.391c0,2.977,2.413,5.391,5.39,5.391H49.016z" style="&st1;" />
	</g>
	<g>
		<text transform="matrix(1 0 0 1 469.7886 845.1069)"><tspan style="&st6; &st4;" x="0" y="0">2</tspan></text>
		<path d="M474.304,847.704c2.977,0,5.391-2.413,5.391-5.39c0-2.978-2.414-5.391-5.391-5.391h-4.582     c-2.977,0-5.39,2.413-5.39,5.391c0,2.977,2.413,5.39,5.39,5.39H474.304z" style="&st1;" />
	</g>
	<g>
		<text transform="matrix(1 0 0 1 44.5005 845.1069)"><tspan style="&st6; &st4;" x="0" y="0">2</tspan></text>
		<path d="M49.016,847.704c2.977,0,5.391-2.413,5.391-5.39c0-2.977-2.414-5.391-5.391-5.391h-4.582     c-2.977,0-5.39,2.414-5.39,5.391c0,2.977,2.413,5.39,5.39,5.39H49.016z" style="&st1;" />
	</g>
	<g>
		<text transform="matrix(1 0 0 1 469.7886 910.3042)"><tspan style="&st6; &st4;" x="0" y="0">2</tspan></text>
		<path d="M474.304,912.9c2.977,0,5.391-2.412,5.391-5.389c0-2.979-2.414-5.391-5.391-5.391h-4.582     c-2.977,0-5.39,2.412-5.39,5.391c0,2.977,2.413,5.389,5.39,5.389H474.304z" style="&st1;" />
	</g>
	<g>
		<text transform="matrix(1 0 0 1 469.7886 934.5259)"><tspan style="&st6; &st4;" x="0" y="0">2</tspan></text>
		<path d="M474.304,937.122c2.977,0,5.391-2.412,5.391-5.39c0-2.977-2.414-5.391-5.391-5.391h-4.582     c-2.977,0-5.39,2.414-5.39,5.391c0,2.978,2.413,5.39,5.39,5.39H474.304z" style="&st1;" />
	</g>
	<g>
		<text transform="matrix(1 0 0 1 469.7886 958.7476)"><tspan style="&st6; &st4;" x="0" y="0">2</tspan></text>
		<path d="M474.304,961.343c2.977,0,5.391-2.412,5.391-5.39c0-2.977-2.414-5.391-5.391-5.391h-4.582     c-2.977,0-5.39,2.414-5.39,5.391c0,2.978,2.413,5.39,5.39,5.39H474.304z" style="&st1;" />
	</g>
	<g>
		<text transform="matrix(1 0 0 1 469.7886 982.9692)"><tspan style="&st6; &st4;" x="0" y="0">2</tspan></text>
		<path d="M474.304,985.565c2.977,0,5.391-2.412,5.391-5.39c0-2.977-2.414-5.391-5.391-5.391h-4.582     c-2.977,0-5.39,2.414-5.39,5.391c0,2.978,2.413,5.39,5.39,5.39H474.304z" style="&st1;" />
	</g>
	<g>
		<text transform="matrix(1 0 0 1 469.7886 1007.1909)"><tspan style="&st6; &st4;" x="0" y="0">2</tspan></text>
		<path d="M474.304,1009.787c2.977,0,5.391-2.412,5.391-5.39c0-2.977-2.414-5.391-5.391-5.391h-4.582     c-2.977,0-5.39,2.414-5.39,5.391c0,2.978,2.413,5.39,5.39,5.39H474.304z" style="&st1;" />
	</g>
	<g>
		<text transform="matrix(1 0 0 1 469.7886 1031.4126)"><tspan style="&st6; &st4;" x="0" y="0">2</tspan></text>
		<path d="M474.304,1034.008c2.977,0,5.391-2.412,5.391-5.39c0-2.977-2.414-5.391-5.391-5.391h-4.582     c-2.977,0-5.39,2.414-5.39,5.391c0,2.978,2.413,5.39,5.39,5.39H474.304z" style="&st1;" />
	</g>
	<g>
		<text transform="matrix(1 0 0 1 469.7886 1055.6343)"><tspan style="&st6; &st4;" x="0" y="0">2</tspan></text>
		<path d="M474.304,1058.23c2.977,0,5.391-2.412,5.391-5.39c0-2.977-2.414-5.391-5.391-5.391h-4.582     c-2.977,0-5.39,2.414-5.39,5.391c0,2.978,2.413,5.39,5.39,5.39H474.304z" style="&st1;" />
	</g>
	<g>
		<text transform="matrix(1 0 0 1 44.5005 910.3042)"><tspan style="&st6; &st4;" x="0" y="0">2</tspan></text>
		<path d="M49.016,912.9c2.977,0,5.391-2.412,5.391-5.389c0-2.977-2.414-5.391-5.391-5.391h-4.582     c-2.977,0-5.39,2.414-5.39,5.391c0,2.977,2.413,5.389,5.39,5.389H49.016z" style="&st1;" />
	</g>
	<g>
		<text transform="matrix(1 0 0 1 44.5005 958.7466)"><tspan style="&st6; &st4;" x="0" y="0">2</tspan></text>
		<path d="M49.016,961.343c2.977,0,5.391-2.413,5.391-5.39c0-2.977-2.414-5.391-5.391-5.391h-4.582     c-2.977,0-5.39,2.414-5.39,5.391c0,2.977,2.413,5.39,5.39,5.39H49.016z" style="&st1;" />
	</g>
	<g>
		<text transform="matrix(1 0 0 1 44.5005 982.9683)"><tspan style="&st6; &st4;" x="0" y="0">2</tspan></text>
		<path d="M49.016,985.565c2.977,0,5.391-2.413,5.391-5.39c0-2.977-2.414-5.391-5.391-5.391h-4.582     c-2.977,0-5.39,2.414-5.39,5.391c0,2.977,2.413,5.39,5.39,5.39H49.016z" style="&st1;" />
	</g>
	<g>
		<text transform="matrix(1 0 0 1 44.5005 1031.4106)"><tspan style="&st6; &st4;" x="0" y="0">2</tspan></text>
		<path d="M49.016,1034.008c2.977,0,5.391-2.414,5.391-5.391c0-2.977-2.414-5.391-5.391-5.391h-4.582     c-2.977,0-5.39,2.414-5.39,5.391c0,2.977,2.413,5.391,5.39,5.391H49.016z" style="&st1;" />
	</g>
	<g>
		<text transform="matrix(1 0 0 1 44.5005 1055.6333)"><tspan style="&st6; &st4;" x="0" y="0">2</tspan></text>
		<path d="M49.016,1058.229c2.977,0,5.391-2.412,5.391-5.389c0-2.977-2.414-5.391-5.391-5.391h-4.582     c-2.977,0-5.39,2.414-5.39,5.391c0,2.977,2.413,5.389,5.39,5.389H49.016z" style="&st1;" />
	</g>
	<text ewd:textID="4" transform="matrix(1.00 0.00 0.00 1.00 336.59 997.19)"><tspan style="&st6; &st4;" x="0" y="0">Relé HTR</tspan></text>
	<text ewd:textID="5" transform="matrix(1.00 0.00 0.00 1.00 340.59 1069.35)"><tspan style="&st6; &st4;" x="0" y="0">Relé IG</tspan></text>
</g>
</svg>