﻿<?xml version="1.0" encoding="utf-8"?>
<!-- Generator: Adobe Illustrator 10.0, SVG Export Plug-In . SVG Version: 3.0.0 Build 77)  -->
<!DOCTYPE svg PUBLIC "-//W3C//DTD SVG 1.0//EN" "http://www.w3.org/TR/2001/REC-SVG-20010904/DTD/svg10.dtd"[
	<!ENTITY ns_flows "http://ns.adobe.com/Flows/1.0/">
	<!ENTITY ns_svg "http://www.w3.org/2000/svg">
	<!ENTITY ns_xlink "http://www.w3.org/1999/xlink">
	<!ENTITY st0 "fill:none;stroke:#000000;stroke-linecap:round;stroke-linejoin:round;">
	<!ENTITY st1 "fill:none;stroke:#000000;stroke-width:0.6;stroke-linecap:round;stroke-linejoin:round;">
	<!ENTITY st2 "font-size:6px;">
	<!ENTITY st3 "font-family:'Arial';">
	<!ATTLIST svg
		ewd:ver CDATA #IMPLIED
		xmlns:ewd CDATA #FIXED "http://shcl.co.jp/ewd"
		xmlns:a CDATA #FIXED "http://ns.adobe.com/AdobeSVGViewerExtensions/3.0/">
	<!ATTLIST g
		ewd:pinNo CDATA #IMPLIED>
	<!ATTLIST text
		ewd:textID CDATA #IMPLIED
		ewd:horAlign CDATA #IMPLIED>
	<!ATTLIST title
		ewd:textID CDATA #IMPLIED>
]>
<svg ewd:ver="2.1.2.10" height="70.406" onload="call_execInitLoadProc_svg('connector')" style="overflow:visible;enable-background:new 0 0 83.153 70.406" viewBox="0 0 83.153 70.406" width="83.153" xml:space="preserve" xmlns="&ns_svg;" xmlns:ewd="http://shcl.co.jp/ewd" xmlns:a="http://ns.adobe.com/AdobeSVGViewerExtensions/3.0/" xmlns:xlink="&ns_xlink;">
<script type="text/javascript" xlink:href="../../../../../system/js/ewd/fig/svgfig.js" xmlns:xlink="http://www.w3.org/1999/xlink" />
<g id="レイヤー_1">
	<path d="M78.404,48.741c0,1.244,0.757,2.294,1.938,2.688" style="&st1;" />
	<path d="M80.341,31.724c-1.181,0.393-1.938,1.444-1.938,2.688" style="&st1;" />
	<path d="M4.749,34.413c0-1.245-0.757-2.295-1.938-2.688" style="&st1;" />
	<path d="M2.812,51.43c1.181-0.394,1.938-1.444,1.938-2.688" style="&st1;" />
	<path d="M82.653,7.583c0-3.912-3.171-7.083-7.082-7.083" style="&st0;" />
	<path d="M72.049,69.905c2.348,0,4.352-0.83,6.011-2.491" style="&st0;" />
	<path d="M5.092,67.415c1.66,1.661,3.664,2.491,6.012,2.491" style="&st0;" />
	<path d="M7.582,0.5C3.67,0.5,0.5,3.671,0.5,7.583" style="&st0;" />
	<path d="M61.406,10.416c0-0.783-0.634-1.417-1.416-1.417" style="&st1;" />
	<path d="M58.574,8.999c-0.782,0-1.417,0.634-1.417,1.417" style="&st1;" />
	<path d="M30.245,23.163c0.782,0,1.417-0.634,1.417-1.417" style="&st1;" />
	<path d="M23.163,8.999c-0.782,0-1.416,0.634-1.416,1.417" style="&st1;" />
	<path d="M25.996,10.416c0-0.783-0.634-1.417-1.417-1.417" style="&st1;" />
	<path d="M55.741,23.163c0.782,0,1.417-0.634,1.417-1.417" style="&st1;" />
	<path d="M25.996,21.747c0,0.782,0.634,1.417,1.417,1.417" style="&st1;" />
	<path d="M51.491,21.747c0,0.782,0.634,1.417,1.417,1.417" style="&st1;" />
	<path d="M61.406,21.747c0,0.782,0.634,1.417,1.417,1.417" style="&st1;" />
	<path d="M20.33,23.163c0.782,0,1.416-0.634,1.416-1.417" style="&st1;" />
	<path d="M6.166,21.747c0,0.782,0.634,1.417,1.417,1.417" style="&st1;" />
	<path d="M75.571,23.163c0.782,0,1.417-0.634,1.417-1.417" style="&st1;" />
	<path d="M82.653,14.665c0-0.782-0.634-1.417-1.417-1.417" style="&st1;" />
	<path d="M1.916,13.248c-0.782,0-1.416,0.634-1.416,1.417" style="&st1;" />
	<path d="M6.166,14.665c0-0.782-0.634-1.417-1.417-1.417" style="&st1;" />
	<path d="M78.404,13.248c-0.783,0-1.417,0.634-1.417,1.417" style="&st1;" />
	<path d="M0.5,30.954V52.2" style="&st0;" />
	<path d="M82.653,30.954V52.2" style="&st0;" />
	<path d="M82.653,21.747v9.207" style="&st0;" />
	<path d="M21.747,41.577v12.748h39.66V41.577H21.747" style="&st1;" />
	<path d="M31.662,28.829v25.496" style="&st1;" />
	<path d="M41.577,28.829v25.496" style="&st1;" />
	<path d="M51.491,28.829v25.496" style="&st1;" />
	<path d="M0.5,10.416V7.583" style="&st0;" />
	<path d="M82.653,7.583v2.833" style="&st0;" />
	<path d="M7.582,0.5h67.989" style="&st0;" />
	<path d="M0.5,52.2l2.312-0.77" style="&st1;" />
	<path d="M0.5,16.081h5.666" style="&st1;" />
	<path d="M0.5,59.99h82.153" style="&st1;" />
	<path d="M0.5,10.416v20.538" style="&st0;" />
	<path d="M76.987,16.081h5.666" style="&st1;" />
	<path d="M0.5,30.954l2.312,0.771" style="&st1;" />
	<path d="M4.749,34.413v14.329" style="&st1;" />
	<path d="M82.653,30.954l-2.312,0.771" style="&st1;" />
	<path d="M78.404,34.413v14.329" style="&st1;" />
	<path d="M80.341,51.43l2.312,0.77" style="&st1;" />
	<path d="M82.653,52.2v7.791" style="&st0;" />
	<path d="M0.5,52.2v7.791" style="&st0;" />
	<path d="M46.542,59.99v2.833h13.986V59.99" style="&st1;" />
	<path d="M22.625,59.99v2.833H36.61V59.99" style="&st1;" />
	<path d="M78.404,59.99v4.249" style="&st1;" />
	<path d="M82.653,16.081v5.666" style="&st0;" />
	<path d="M4.749,59.99v4.249" style="&st1;" />
	<path d="M82.653,10.416v5.666" style="&st0;" />
	<path d="M31.662,17.498h-2.833V7.583h25.496v9.915h-2.833" style="&st1;" />
	<path d="M31.662,16.081h19.83" style="&st1;" />
	<path d="M37.327,14.665v-2.833h8.499v2.833" style="&st1;" />
	<path d="M1.916,59.99v4.249h79.32V59.99" style="&st1;" />
	<path d="M25.996,10.416V4.75h31.162v5.666" style="&st1;" />
	<path d="M81.236,64.239l-3.175,3.176" style="&st0;" />
	<path d="M1.916,64.239l3.176,3.176" style="&st0;" />
	<path d="M11.104,69.905h60.946" style="&st0;" />
	<path d="M62.823,23.163h12.748" style="&st1;" />
	<path d="M82.653,59.99l-1.417,4.249" style="&st0;" />
	<path d="M27.412,23.163h2.833" style="&st1;" />
	<path d="M0.5,59.99l1.416,4.249" style="&st0;" />
	<path d="M1.916,13.248h2.833" style="&st1;" />
	<path d="M21.747,41.577V28.829h39.66v12.748" style="&st1;" />
	<path d="M61.406,28.829h9.915" style="&st1;" />
	<path d="M61.406,54.325h9.915" style="&st1;" />
	<path d="M71.321,28.829v25.496" style="&st1;" />
	<path d="M11.832,28.829v25.496" style="&st1;" />
	<path d="M61.406,41.577h9.915" style="&st1;" />
	<path d="M11.832,41.577h9.915" style="&st1;" />
	<path d="M21.747,28.829h-9.915" style="&st1;" />
	<path d="M21.747,54.325h-9.915" style="&st1;" />
	<path d="M8.999,62.115h9.915" style="&st1;" />
	<path d="M64.239,62.115h9.915" style="&st1;" />
	<path d="M18.914,59.99v4.249" style="&st1;" />
	<path d="M21.747,11.832h4.249" style="&st1;" />
	<path d="M57.157,11.832h4.249" style="&st1;" />
	<path d="M58.574,8.999h1.417" style="&st1;" />
	<path d="M61.406,10.416v11.331" style="&st1;" />
	<path d="M57.157,10.416v11.331" style="&st1;" />
	<path d="M25.996,10.416v11.331" style="&st1;" />
	<path d="M24.579,8.999h-1.417" style="&st1;" />
	<path d="M21.747,10.416v11.331" style="&st1;" />
	<path d="M52.908,23.163h2.833" style="&st1;" />
	<path d="M31.662,21.747v-7.082h5.666" style="&st1;" />
	<path d="M8.999,59.99v4.249" style="&st1;" />
	<path d="M74.154,59.99v4.249" style="&st1;" />
	<path d="M64.239,59.99v4.249" style="&st1;" />
	<path d="M45.826,14.665h5.666v7.082" style="&st1;" />
	<path d="M7.582,23.163H20.33" style="&st1;" />
	<path d="M78.404,13.248h2.833" style="&st1;" />
	<path d="M6.166,14.665v7.082" style="&st1;" />
	<path d="M76.987,21.747v-7.082" style="&st1;" />
	<g ewd:pinNo="1">
		<text transform="matrix(1 0 0 1 15.1436 37.2686)"><tspan style="&st3; &st2;" x="0" y="0">1</tspan></text>
	</g>
	<g ewd:pinNo="2">
		<text transform="matrix(1 0 0 1 25.0586 37.2686)"><tspan style="&st3; &st2;" x="0" y="0">2</tspan></text>
	</g>
	<g ewd:pinNo="3">
		<text transform="matrix(1 0 0 1 34.9736 37.2686)"><tspan style="&st3; &st2;" x="0" y="0">3</tspan></text>
	</g>
	<g ewd:pinNo="4">
		<text transform="matrix(1 0 0 1 44.8887 37.2686)"><tspan style="&st3; &st2;" x="0" y="0">4</tspan></text>
	</g>
	<g ewd:pinNo="5">
		<text transform="matrix(1 0 0 1 54.8037 37.2686)"><tspan style="&st3; &st2;" x="0" y="0">5</tspan></text>
	</g>
	<g ewd:pinNo="6">
		<text transform="matrix(1 0 0 1 64.7188 37.2686)"><tspan style="&st3; &st2;" x="0" y="0">6</tspan></text>
	</g>
	<g ewd:pinNo="7">
		<text transform="matrix(1 0 0 1 15.1436 50.0166)"><tspan style="&st3; &st2;" x="0" y="0">7</tspan></text>
	</g>
	<g ewd:pinNo="8">
		<text transform="matrix(1 0 0 1 25.0586 50.0166)"><tspan style="&st3; &st2;" x="0" y="0">8</tspan></text>
	</g>
	<g ewd:pinNo="9">
		<text transform="matrix(1 0 0 1 34.9736 50.0166)"><tspan style="&st3; &st2;" x="0" y="0">9</tspan></text>
	</g>
	<g ewd:pinNo="10">
		<text transform="matrix(1 0 0 1 42.9458 50.0166)"><tspan style="&st3; &st2;" x="0" y="0">10</tspan></text>
	</g>
	<g ewd:pinNo="11">
		<text transform="matrix(1 0 0 1 53.083 50.0166)"><tspan style="&st3; &st2;" x="0" y="0">11</tspan></text>
	</g>
	<g ewd:pinNo="12">
		<text transform="matrix(1 0 0 1 62.7759 50.0166)"><tspan style="&st3; &st2;" x="0" y="0">12</tspan></text>
	</g>
</g>
</svg>